# Blender v2.75 (sub 0) OBJ File: 'untitled.blend'
# www.blender.org
mtllib Scarf_COL.mtl
o Cube
v -0.095568 1.170291 0.092687
v -0.095568 1.142361 0.059832
v -0.045600 1.117409 0.077874
v -0.045600 1.130034 0.096647
v -0.148230 1.217095 0.060821
v -0.000176 1.100502 0.087635
v 0.000000 1.170291 0.101536
v -0.000176 1.113128 0.106408
v -0.046569 1.213500 0.062074
v -0.020468 1.203189 0.068917
v -0.027119 1.203306 0.068917
v -0.148230 1.187937 0.029883
v -0.052942 1.142361 0.059832
v -0.027119 1.128683 0.068917
v -0.000058 1.128683 0.068917
v -0.000534 1.205165 0.068917
v 0.032561 1.096836 0.089752
v 0.032561 1.109461 0.108524
v -0.069385 1.223800 0.054047
v -0.075317 1.230980 0.048286
v -0.160028 1.249578 0.034216
v -0.080090 1.166986 0.043651
v -0.069385 1.151165 0.054047
v 0.009887 1.128538 0.068917
v 0.053958 1.170291 0.093618
v 0.073796 1.214486 0.066827
v 0.033066 1.213057 0.064536
v 0.020613 1.207180 0.068917
v 0.060300 1.104169 0.085518
v 0.060300 1.116794 0.104291
v -0.089192 1.247687 0.034811
v -0.160028 1.217748 0.009466
v -0.093107 1.185988 0.031009
v 0.046436 1.142361 0.059832
v 0.053958 1.142361 0.059832
v 0.020613 1.128538 0.068917
v 0.072745 1.241443 0.044466
v 0.062879 1.228828 0.054047
v 0.107916 1.170291 0.070493
v 0.107916 1.142361 0.059832
v -0.096500 1.252959 0.027714
v -0.097277 1.256057 0.023424
v -0.098346 1.205705 0.017521
v -0.096500 1.190816 0.027714
v -0.172377 1.271745 0.002917
v 0.050827 1.144676 0.058287
v 0.148230 1.217095 0.042195
v 0.172177 1.246862 0.019315
v 0.080549 1.247884 0.036887
v -0.100925 1.270382 0.003286
v -0.099658 1.216244 0.010280
v -0.172377 1.237245 -0.015646
v 0.056404 1.147659 0.056325
v 0.170664 1.266315 -0.008259
v 0.089996 1.252391 0.027701
v 0.089994 1.252382 0.027714
v 0.148230 1.187937 0.029883
v 0.080476 1.176916 0.036958
v 0.062879 1.151100 0.054047
v -0.102254 1.273368 -0.004050
v -0.100291 1.274717 -0.007519
v -0.100914 1.229215 -0.006417
v -0.102254 1.227403 -0.004050
v -0.163055 1.283567 -0.028674
v 0.172177 1.217748 0.009466
v 0.170664 1.237245 -0.015646
v 0.094678 1.269669 0.001854
v 0.086473 1.185772 0.031134
v -0.088662 1.282180 -0.028074
v -0.096073 1.235879 -0.014975
v -0.163055 1.244683 -0.033449
v 0.144306 1.244683 -0.033449
v 0.144306 1.274108 -0.034365
v 0.094658 1.272144 -0.006606
v 0.095748 1.271262 -0.004050
v 0.093142 1.216141 0.010337
v 0.092177 1.208352 0.015665
v 0.089994 1.190776 0.027714
v -0.085327 1.284111 -0.033968
v -0.057805 1.291117 -0.056201
v -0.090234 1.240059 -0.025294
v -0.134538 1.259620 -0.072572
v 0.091086 1.235896 -0.014984
v 0.094346 1.230004 -0.007338
v 0.083520 1.243614 -0.032732
v 0.085033 1.242147 -0.029183
v 0.085500 1.282352 -0.028088
v 0.095748 1.227453 -0.004050
v -0.049599 1.289494 -0.062830
v -0.025410 1.290553 -0.071515
v -0.086066 1.243510 -0.032662
v -0.134538 1.237876 -0.066278
v 0.142998 1.237876 -0.066278
v 0.082379 1.243045 -0.035409
v 0.069344 1.240638 -0.045938
v 0.068564 1.236601 -0.065662
v 0.142998 1.256570 -0.072802
v 0.082733 1.279624 -0.034577
v -0.006720 1.293080 -0.078226
v -0.009825 1.285083 -0.103289
v -0.069479 1.240238 -0.046771
v -0.085327 1.243224 -0.033968
v -0.111519 1.260738 -0.105135
v 0.042683 1.246287 -0.069614
v 0.046009 1.246591 -0.068431
v 0.068564 1.293633 -0.071900
v 0.069310 1.288450 -0.045966
v 0.082379 1.279955 -0.035409
v 0.009117 1.292955 -0.077615
v 0.077595 1.282361 -0.106226
v 0.000304 1.292126 -0.080748
v -0.043216 1.246079 -0.069513
v -0.050240 1.246724 -0.066991
v -0.111519 1.229899 -0.079418
v 0.122363 1.229899 -0.079418
v 0.077595 1.228993 -0.078731
v 0.021449 1.241673 -0.077163
v 0.122363 1.247824 -0.097776
v 0.050700 1.290386 -0.060999
v 0.026069 1.294570 -0.071588
v 0.028039 1.257074 -0.142218
v -0.013781 1.253304 -0.136891
v -0.035509 1.244284 -0.072280
v -0.073786 1.235646 -0.139365
v 0.008673 1.241977 -0.083786
v 0.046650 1.291592 -0.064271
v 0.073790 1.244473 -0.124416
v -0.010778 1.244735 -0.084886
v -0.010522 1.245203 -0.084046
v -0.105350 1.221922 -0.092557
v 0.106024 1.221922 -0.092557
v 0.086625 1.221386 -0.091799
v -0.000649 1.243389 -0.087591
v -0.008123 1.244762 -0.084907
v -0.014734 1.237496 -0.097884
v -0.008975 1.244931 -0.084602
vn -0.459700 -0.102800 0.882100
vn 0.317800 -0.139200 0.937900
vn -0.628400 0.000000 0.777900
vn 0.628400 0.000000 0.777900
vn -0.919900 0.000000 0.392200
vn 0.870400 0.000000 0.492400
vn -0.984000 -0.000000 -0.178200
vn 0.984000 0.000000 -0.178200
vn -0.696700 0.000000 -0.717400
vn 0.696700 0.000000 -0.717400
vn -0.331900 0.000000 -0.943300
vn 0.331900 -0.000000 -0.943300
vn 0.000000 0.000000 -1.000000
vn -0.390800 -0.120500 0.912600
vn -0.328200 -0.070600 0.942000
vn -0.327200 -0.082400 0.941400
vn -0.320300 -0.071600 0.944600
vn -0.323600 -0.110900 0.939700
vn -0.344200 -0.080200 0.935500
vn 0.328500 -0.096300 0.939600
vn 0.351400 -0.140400 0.925700
vn 0.312100 -0.138100 0.939900
vn 0.426800 -0.108000 0.897900
vn 0.310500 -0.137800 0.940500
vn 0.319100 -0.085200 0.943900
vn 0.313100 -0.138300 0.939600
vn 0.340100 -0.094000 0.935700
vn -0.638300 -0.061800 0.767300
vn -0.631100 -0.063600 0.773100
vn -0.694000 -0.000100 0.720000
vn 0.615800 -0.085400 0.783200
vn 0.730400 -0.041200 0.681800
vn -0.984000 0.000600 -0.178100
vn -0.479800 -0.849800 -0.218400
vn -0.345600 -0.918800 -0.190600
vn -0.359000 -0.436800 0.824800
vn -0.436900 -0.048700 0.898200
vn -0.630900 0.143600 0.762400
vn -0.662200 -0.691100 -0.289500
vn 0.172500 -0.309400 -0.935100
vn -0.218900 -0.434400 0.873700
vn -0.016300 0.391900 0.919900
vn -0.200000 -0.965200 -0.168400
vn 0.498100 0.847700 -0.182700
vn 0.313900 0.929600 -0.193200
vn -0.077200 0.926300 -0.368800
vn 0.064500 -0.987900 -0.140600
vn 0.084600 -0.432200 0.897800
vn 0.357000 -0.308800 -0.881500
vn 0.744700 0.664700 0.059900
vn -0.627100 0.430400 0.649200
vn -0.707400 -0.642800 -0.293800
vn 0.201500 -0.333700 -0.920800
vn -0.002800 -0.289400 -0.957200
vn 0.206900 0.364900 0.907700
vn -0.245900 0.942500 -0.226400
vn 0.389600 -0.903100 -0.180700
vn 0.705300 0.708200 0.032000
vn 0.389900 -0.307400 -0.868000
vn 0.390000 -0.311800 -0.866400
vn -0.175800 -0.290500 -0.940500
vn -0.060200 -0.335400 -0.940100
vn 0.136800 0.524700 0.840200
vn -0.637000 0.767900 0.067100
vn -0.696200 0.717600 0.018300
vn 0.436100 -0.319300 0.841300
vn 0.002100 -0.553700 -0.832700
vn 0.658600 -0.732700 -0.171500
vn 0.577400 0.027800 0.816000
vn 0.642400 -0.473000 -0.603000
vn 0.739400 0.603100 0.299000
vn 0.648700 -0.373900 -0.662800
vn -0.174800 -0.293800 -0.939700
vn 0.710100 0.660500 0.243900
vn -0.743600 0.592700 0.309500
vn 0.689300 -0.423400 -0.587900
vn -0.799700 -0.497300 -0.336300
vn -0.175400 -0.291900 -0.940200
vn 0.557900 0.142200 0.817700
vn 0.739000 0.398100 0.543400
vn -0.595400 0.803000 0.025900
vn 0.729700 0.681200 -0.059200
vn -0.693800 0.653800 0.301800
vn 0.673800 -0.714800 -0.187300
vn -0.201900 -0.335600 -0.920100
vn 0.766400 -0.639800 -0.057500
vn 0.571500 0.608400 0.550600
vn 0.635400 -0.619600 -0.460800
vn -0.623600 0.756700 -0.196000
vn -0.690700 -0.527300 -0.494900
vn 0.788500 -0.593300 -0.162000
vn 0.699400 -0.373600 -0.609200
vn -0.656600 0.718000 0.230800
vn -0.390500 -0.309500 -0.867000
vn 0.732800 -0.672200 -0.105100
vn 0.720500 -0.692200 0.041600
vn 0.578100 -0.707300 -0.406800
vn 0.538100 0.805000 -0.249800
vn -0.570100 0.757400 0.318100
vn -0.689200 -0.422300 -0.588700
vn -0.816000 0.556100 0.157400
vn -0.648200 -0.373800 -0.663300
vn 0.574500 0.619500 0.534900
vn 0.608400 -0.729300 0.312900
vn 0.410000 0.857900 0.309600
vn -0.642800 0.329500 -0.691500
vn -0.484400 -0.785100 -0.386000
vn -0.743900 -0.643400 -0.180600
vn -0.704900 -0.709200 0.000200
vn -0.564700 0.653000 0.504700
vn -0.539100 0.820900 0.188000
vn -0.759400 0.515100 0.397500
vn 0.282600 0.890600 0.356300
vn 0.131200 0.774200 0.619200
vn 0.680000 -0.730700 0.060500
vn 0.671400 -0.640800 0.372200
vn -0.742500 -0.667300 -0.056900
vn 0.713000 -0.676000 -0.186200
vn 0.804700 0.368800 -0.465300
vn -0.175200 -0.917500 0.357100
vn -0.459200 -0.716800 0.524700
vn -0.651900 0.719200 0.240300
vn -0.116100 0.875300 -0.469500
vn -0.666300 0.448300 -0.595900
vn 0.447400 -0.702000 0.554100
vn -0.450800 -0.877100 0.165700
vn -0.470700 -0.652400 0.593900
vn -0.435600 -0.285100 0.853800
vn 0.228300 0.972600 -0.043300
vn -0.192600 0.753300 0.628800
vn -0.286500 0.772600 0.566500
vn 0.013200 0.844800 0.534900
vn 0.491100 -0.729100 0.476600
vn 0.247400 -0.442800 0.861800
vn 0.464700 -0.885300 -0.019500
vn 0.679600 0.077700 -0.729400
vn -0.084700 -0.886700 0.454500
vn -0.297100 -0.198200 0.934000
vn -0.336600 -0.567600 0.751400
vn 0.386300 0.764200 -0.516500
vn -0.207700 0.710700 0.672000
vn -0.435400 0.572200 0.695000
vn 0.010400 -0.041200 -0.999100
vn -0.030300 -0.136000 -0.990200
vn -0.185800 -0.320900 -0.928700
vn -0.466800 -0.883000 -0.049700
vn -0.334600 -0.527800 0.780600
vn -0.257500 0.782700 0.566600
vn -0.275400 0.609800 0.743200
vn 0.303400 -0.304900 -0.902700
vn 0.294100 -0.613800 0.732600
vn 0.106500 -0.886000 0.451300
vn 0.317900 -0.922000 -0.220900
vn -0.033800 -0.999200 -0.021200
vn 0.083000 -0.994900 0.057400
vn 0.281600 -0.555100 0.782600
vn 0.183000 -0.558100 0.809300
vn 0.181700 -0.569800 0.801400
vn 0.044100 -0.354400 -0.934000
vn -0.002100 -0.287700 -0.957700
vn -0.089900 0.925600 -0.367500
vn -0.524800 0.831200 -0.183700
vn 0.397700 -0.358500 -0.844600
vn -0.622100 0.762300 0.178600
vn -0.388600 -0.308600 -0.868200
vn -0.708800 -0.642800 0.290500
vn 0.191800 0.792200 0.579300
vn 0.479400 0.365400 0.797800
vn -0.202400 -0.413900 0.887500
usemtl None
s off
f 125//1 117//1 109//1
f 99//2 129//2 111//2
f 95//3 108//3 107//3
f 79//4 101//4 80//4
f 86//5 74//5 87//5
f 61//6 70//6 81//6
f 76//7 77//7 56//7
f 41//8 51//8 63//8
f 78//9 38//9 37//9
f 19//10 33//10 44//10
f 53//11 46//11 28//11
f 11//12 13//12 23//12
f 16//13 15//13 10//13
f 125//14 111//14 133//14
f 117//15 120//15 109//15
f 104//16 105//16 126//16
f 120//17 117//17 104//17
f 109//18 111//18 125//18
f 104//19 126//19 120//19
f 112//20 89//20 113//20
f 129//21 99//21 90//21
f 134//22 133//22 111//22
f 90//23 123//23 129//23
f 136//24 134//24 111//24
f 90//25 112//25 123//25
f 129//26 136//26 111//26
f 112//27 90//27 89//27
f 119//28 126//28 105//28
f 105//29 107//29 119//29
f 95//3 94//3 108//3
f 107//30 105//30 95//30
f 101//4 79//4 102//4
f 113//31 89//31 80//31
f 80//32 101//32 113//32
f 98//5 108//5 94//5
f 85//5 87//5 98//5
f 83//5 75//5 74//5
f 98//5 94//5 85//5
f 84//5 88//5 75//5
f 87//5 85//5 86//5
f 83//5 84//5 75//5
f 74//5 86//5 83//5
f 62//6 60//6 63//6
f 91//6 69//6 61//6
f 91//6 102//6 79//6
f 61//6 81//6 91//6
f 60//6 62//6 70//6
f 70//6 61//6 60//6
f 69//6 91//6 79//6
f 67//7 75//7 88//7
f 76//33 56//33 55//33
f 55//7 67//7 88//7
f 56//7 77//7 78//7
f 55//7 88//7 76//7
f 43//8 41//8 44//8
f 63//8 50//8 42//8
f 50//8 63//8 60//8
f 51//8 41//8 43//8
f 42//8 41//8 63//8
f 49//9 56//9 78//9
f 78//9 37//9 49//9
f 58//9 59//9 38//9
f 38//9 78//9 68//9
f 68//9 58//9 38//9
f 22//10 19//10 23//10
f 44//10 31//10 20//10
f 31//10 44//10 41//10
f 33//10 19//10 22//10
f 20//10 19//10 44//10
f 27//11 38//11 59//11
f 53//11 28//11 27//11
f 28//11 46//11 34//11
f 34//11 36//11 28//11
f 27//11 59//11 53//11
f 13//12 11//12 14//12
f 23//12 19//12 9//12
f 9//12 11//12 23//12
f 24//13 28//13 36//13
f 14//13 11//13 10//13
f 24//13 16//13 28//13
f 16//13 24//13 15//13
f 15//13 14//13 10//13
s 1
f 2//34 3//35 4//36
f 1//37 5//38 12//39
f 3//35 2//34 13//40
f 4//36 8//41 7//42
f 3//35 6//43 8//41
f 9//44 1//37 11//45
f 10//46 1//37 7//42
f 6//43 17//47 18//48
f 9//44 19//49 20//50
f 5//38 21//51 32//52
f 2//34 23//53 13//40
f 24//54 17//47 6//43
f 7//42 8//41 18//48
f 7//42 25//55 28//56
f 18//48 17//47 29//57
f 31//58 21//51 5//38
f 22//59 12//39 33//60
f 34//61 17//47 36//62
f 26//63 37//64 38//65
f 25//55 18//48 30//66
f 35//67 40//68 29//57
f 40//68 39//69 30//66
f 31//58 41//70 42//71
f 12//39 32//52 43//72
f 46//73 35//67 34//61
f 26//63 25//55 39//69
f 50//74 45//75 21//51
f 43//72 32//52 51//76
f 52//77 32//52 21//51
f 53//78 35//67 46//73
f 47//79 48//80 49//81
f 48//80 54//82 55//83
f 39//69 40//68 57//84
f 40//68 35//67 59//85
f 50//74 60//86 61//87
f 32//52 52//77 63//88
f 45//75 64//89 71//90
f 47//79 57//84 65//91
f 48//80 65//91 66//92
f 55//83 54//82 67//93
f 68//94 57//84 40//68
f 64//89 45//75 61//87
f 62//95 52//77 70//96
f 72//97 73//98 54//82
f 54//82 73//98 75//99
f 76//100 65//91 57//84
f 68//94 78//101 77//102
f 69//103 79//104 80//105
f 70//96 52//77 71//90
f 82//106 92//107 71//90
f 66//92 65//91 84//108
f 72//97 66//92 86//109
f 74//110 73//98 87//111
f 76//100 88//112 84//108
f 82//106 89//113 90//114
f 81//115 71//90 91//116
f 86//109 66//92 83//117
f 72//97 93//118 97//119
f 96//120 93//118 94//121
f 73//98 97//119 98//122
f 90//114 100//123 103//124
f 91//116 92//107 102//125
f 82//106 103//124 114//126
f 96//120 95//127 105//128
f 97//119 106//129 108//130
f 109//131 100//123 111//132
f 101//133 92//107 112//134
f 115//135 118//136 97//119
f 96//120 116//137 115//135
f 96//120 104//138 117//139
f 118//136 110//140 106//129
f 107//141 106//129 119//142
f 106//129 110//140 109//131
f 121//143 122//144 100//123
f 100//123 122//144 124//145
f 112//134 92//107 114//126
f 103//124 124//145 130//146
f 117//139 125//147 116//137
f 106//129 120//148 126//149
f 110//140 118//136 127//150
f 123//151 114//126 128//152
f 131//153 127//150 118//136
f 116//137 132//154 131//153
f 135//155 132//154 125//147
f 121//143 132//154 135//155
f 127//150 131//153 132//154
f 124//145 122//144 135//155
f 130//146 135//155 128//152
f 129//156 128//152 136//157
f 136//157 128//152 134//158
f 1//37 2//34 4//36
f 2//34 1//37 12//39
f 14//159 6//43 3//35
f 3//35 13//40 14//159
f 14//159 15//160 6//43
f 1//37 4//36 7//42
f 4//36 3//35 8//41
f 1//37 10//46 11//45
f 1//37 9//44 5//38
f 16//161 10//46 7//42
f 8//41 6//43 18//48
f 5//38 9//44 20//50
f 12//39 5//38 32//52
f 22//59 2//34 12//39
f 2//34 22//59 23//53
f 15//160 24//54 6//43
f 25//55 7//42 18//48
f 25//55 27//162 28//56
f 28//56 16//161 7//42
f 27//162 25//55 26//63
f 30//66 18//48 29//57
f 20//50 31//58 5//38
f 17//47 24//54 36//62
f 17//47 34//61 35//67
f 27//162 26//63 38//65
f 39//69 25//55 30//66
f 17//47 35//67 29//57
f 29//57 40//68 30//66
f 21//51 31//58 42//71
f 12//39 43//72 44//163
f 44//163 33//60 12//39
f 47//79 26//63 39//69
f 42//71 50//74 21//51
f 45//75 52//77 21//51
f 49//81 26//63 47//79
f 26//63 49//81 37//64
f 48//80 55//83 56//164
f 56//164 49//81 48//80
f 47//79 39//69 57//84
f 35//67 53//78 59//85
f 59//85 58//165 40//68
f 45//75 50//74 61//87
f 52//77 62//95 63//88
f 63//88 51//76 32//52
f 52//77 45//75 71//90
f 48//80 47//79 65//91
f 54//82 48//80 66//92
f 58//165 68//94 40//68
f 69//103 64//89 61//87
f 66//92 72//97 54//82
f 73//98 74//110 75//99
f 75//99 67//93 54//82
f 77//102 76//100 57//84
f 57//84 68//94 77//102
f 64//89 69//103 80//105
f 81//115 70//96 71//90
f 64//89 82//106 71//90
f 83//117 66//92 84//108
f 85//166 72//97 86//109
f 65//91 76//100 84//108
f 80//105 82//106 64//89
f 82//106 80//105 89//113
f 73//98 72//97 97//119
f 72//97 85//166 94//121
f 94//121 95//127 96//120
f 94//121 93//118 72//97
f 87//111 73//98 98//122
f 100//123 90//114 99//167
f 90//114 103//124 82//106
f 92//107 101//133 102//125
f 92//107 91//116 71//90
f 92//107 82//106 114//126
f 104//138 96//120 105//128
f 106//129 107//141 108//130
f 108//130 98//122 97//119
f 100//123 99//167 111//132
f 100//123 109//131 110//140
f 113//168 101//133 112//134
f 93//118 115//135 97//119
f 93//118 96//120 115//135
f 97//119 118//136 106//129
f 120//148 106//129 109//131
f 110//140 121//143 100//123
f 103//124 100//123 124//145
f 123//151 112//134 114//126
f 114//126 103//124 130//146
f 96//120 117//139 116//137
f 119//142 106//129 126//149
f 121//143 110//140 127//150
f 129//156 123//151 128//152
f 115//135 131//153 118//136
f 115//135 116//137 131//153
f 135//155 134//158 128//152
f 135//155 125//147 133//169
f 125//147 132//154 116//137
f 133//169 134//158 135//155
f 122//144 121//143 135//155
f 121//143 127//150 132//154
f 130//146 124//145 135//155
f 114//126 130//146 128//152
