#name "Sister"
#participants 2

say 0 "" "..."
say 0 "" "..."
say 0 "" "..."
say 1 "Ghost" "...[wait 1.0]Bijou?"
say 2 "Bijou" "...[wait 1.0]Amos?"
say 1 "Amos" "Are you alright?"
say 1 "Amos" "Did anyone hurt you?"
say 2 "Bijou" "No...[wait 1.0] I should be asking you the same question."
say 2 "Bijou" "Where'd they take you?[wait 0.5] Did they do anything to you?"
say 1 "Amos" "No...[wait 0.5] I'm fine."
say 1 "Amos" "We need to leave this place.[wait 0.5] Away from the Cinderbreathe."
say 2 "Bijou" "...[wait 1.0]okay."
say 1 "Amos" "We can't go to the Arliss capital anymore."
say 2 "Bijou" "But...[wait 0.3] that was our plan?"
say 1 "Amos" "Sure, but they treat our kind like shit there."
say 1 "Amos" "I won't stand for it anymore.[wait 0.5] I'm tired of it."
say 0 "Bijou" "..."
say 1 "Amos" "Trust me."
say 2 "Bijou" "...[wait 1.0]okay."
say 1 "Amos" "We need to pack our things."
say 0 "" "..."
