# Blender v2.75 (sub 0) OBJ File: 'untitled.blend'
# www.blender.org
mtllib lantern_worn_COL.mtl
o group_Default
v -0.104958 2.618380 0.117470
v -0.243287 2.575500 0.012512
v -0.241980 2.536230 0.254492
v -0.104958 2.618380 -0.092446
v 0.104958 2.618380 -0.092446
v 0.000000 2.575500 -0.230775
v 0.243287 2.536250 -0.230775
v 0.104958 2.618380 0.117470
v 0.243287 2.575500 0.012512
v 0.243287 2.536250 0.255799
v 0.000000 2.575500 0.255799
v 0.243287 2.369570 -0.230775
v -0.243287 2.369570 -0.230775
v -0.243287 2.536250 -0.230775
v 0.243287 2.369570 0.255799
v -0.235574 2.376721 0.228524
v 0.466028 2.252530 -0.453516
v 0.466028 2.252530 0.478540
v -0.466028 2.252530 -0.453516
v -0.319282 2.258899 0.300276
v 0.466028 2.173250 -0.453516
v 0.466028 2.173250 0.478540
v -0.466028 2.173250 -0.453516
v -0.286525 2.181342 0.375750
v 0.333893 2.173250 0.346405
v 0.333893 2.173250 -0.321381
v -0.333893 2.173250 -0.321381
v -0.297144 1.997460 0.292801
v -0.333893 -1.018660 -0.321381
v 0.333893 -1.018660 0.346405
v -0.333893 -1.018660 0.346405
v 0.333893 -1.018660 -0.321381
vn -0.143900 0.979100 0.143900
vn -0.832900 0.553300 0.006200
vn -0.544500 0.588500 0.597700
vn -0.171400 0.970200 -0.171400
vn 0.142800 0.979400 -0.142800
vn 0.000000 0.561700 -0.827300
vn 0.543000 0.640600 -0.543000
vn 0.171400 0.970200 0.171400
vn 0.827300 0.561700 0.000000
vn 0.543000 0.640600 0.543000
vn -0.018900 0.533400 0.845700
vn 0.630500 0.452800 -0.630400
vn -0.526100 0.572200 -0.629100
vn -0.543000 0.640600 -0.543000
vn 0.484600 0.627000 0.609900
vn -0.764000 0.216700 0.607800
vn 0.431700 0.792000 -0.431700
vn 0.585000 0.452800 0.672900
vn -0.536100 0.643300 -0.546700
vn -0.736400 0.553000 0.389800
vn 0.485100 -0.727600 -0.485100
vn 0.310500 -0.887100 0.341400
vn -0.473800 -0.856400 -0.205300
vn -0.353300 0.129400 0.926500
vn 0.594100 -0.741700 0.311300
vn 0.301500 -0.904500 -0.301500
vn -0.200700 -0.639300 -0.742300
vn -0.858600 -0.023000 0.512100
vn -0.670800 -0.663200 -0.332100
vn 0.408200 -0.816500 0.408200
vn -0.410800 -0.405200 0.816700
vn 0.666700 -0.333400 -0.666600
usemtl Default
s 1
f 1//1 2//2 3//3
f 4//4 5//5 6//6
f 6//6 5//5 7//7
f 5//5 8//8 9//9
f 9//9 8//8 10//10
f 8//8 11//11 10//10
f 8//8 1//1 11//11
f 6//6 7//7 12//12
f 6//6 12//12 13//13
f 14//14 6//6 13//13
f 10//10 11//11 15//15
f 11//11 16//16 15//15
f 11//11 3//3 16//16
f 11//11 1//1 3//3
f 5//5 4//4 1//1
f 5//5 1//1 8//8
f 4//4 6//6 14//14
f 9//9 10//10 15//15
f 12//12 9//9 15//15
f 7//7 9//9 12//12
f 5//5 9//9 7//7
f 3//3 2//2 16//16
f 2//2 13//13 16//16
f 2//2 14//14 13//13
f 1//1 4//4 2//2
f 2//2 4//4 14//14
f 17//17 15//15 18//18
f 12//12 15//15 17//17
f 13//13 17//17 19//19
f 13//13 12//12 17//17
f 16//16 19//19 20//20
f 16//16 13//13 19//19
f 15//15 20//20 18//18
f 15//15 16//16 20//20
f 21//21 18//18 22//22
f 17//17 18//18 21//21
f 19//19 21//21 23//23
f 19//19 17//17 21//21
f 20//20 23//23 24//24
f 20//20 19//19 23//23
f 18//18 24//24 22//22
f 18//18 20//20 24//24
f 25//25 21//21 22//22
f 26//26 21//21 25//25
f 23//23 26//26 27//27
f 23//23 21//21 26//26
f 23//23 28//28 24//24
f 23//23 27//27 28//28
f 28//28 22//22 24//24
f 28//28 25//25 22//22
f 29//29 30//30 31//31
f 29//29 32//32 30//30
f 32//32 25//25 30//30
f 26//26 25//25 32//32
f 27//27 32//32 29//29
f 27//27 26//26 32//32
f 28//28 29//29 31//31
f 28//28 27//27 29//29
f 25//25 31//31 30//30
f 25//25 28//28 31//31
