# Blender v2.75 (sub 0) OBJ File: 'handcuffs.blend'
# www.blender.org
mtllib Handcuffs.mtl
o Cylinder.000_Cylinder.010
v 0.046382 0.003729 -0.067578
v 0.053297 0.017602 -0.070045
v 0.056784 0.014418 -0.069291
v 0.042020 0.006104 -0.066782
v 0.043232 0.001332 -0.061154
v 0.055107 0.016340 -0.065051
v 0.049383 0.007439 -0.063629
v 0.046820 0.004441 -0.049954
v 0.040988 0.004160 -0.055511
v 0.043812 0.007164 -0.050103
v 0.047910 0.005898 -0.058219
v 0.046177 0.010174 -0.054566
v 0.044984 0.008954 -0.062296
v 0.049429 0.006983 -0.054698
v 0.054260 0.018549 -0.049031
v 0.057655 0.015326 -0.049918
v 0.055659 0.016858 -0.053876
v -0.028642 0.051210 0.051691
v -0.044083 0.052709 0.054076
v -0.042077 0.051949 0.058350
v -0.029522 0.050499 0.046789
v -0.025026 0.045053 0.049249
v -0.043144 0.047703 0.056045
v -0.032852 0.046960 0.053294
v -0.028421 0.033569 0.051391
v -0.026699 0.039390 0.046086
v -0.030100 0.033725 0.047697
v -0.030622 0.041699 0.052214
v -0.033943 0.037931 0.049148
v -0.032872 0.045756 0.048606
v -0.031911 0.038067 0.053225
v -0.044047 0.031651 0.054108
v -0.042072 0.032536 0.058353
v -0.043150 0.036503 0.056095
v -0.018120 0.027088 0.035977
v -0.037101 0.038553 0.054685
v -0.011312 0.026853 0.041633
v -0.036720 0.038961 0.043905
v -0.037660 0.041214 0.050607
v -0.011058 0.030095 0.041943
v -0.038550 0.036625 0.046122
v -0.031008 0.040168 0.057974
v -0.030922 0.037184 0.058138
v -0.031990 0.039779 0.051336
v -0.014865 0.031339 0.043041
v -0.034494 0.035931 0.048028
v -0.016426 0.030896 0.035888
v -0.032587 0.038752 0.046434
v -0.018220 0.031810 0.040083
v -0.015759 0.029732 0.046937
v -0.028047 0.038385 0.052939
v -0.010531 0.028760 0.048227
v -0.030916 0.035614 0.053606
v -0.017675 0.028161 0.040973
v -0.008036 0.009620 0.042248
v -0.018931 0.036503 0.042815
v -0.001444 0.011439 0.036625
v -0.023647 0.026957 0.044597
v -0.022846 0.033621 0.042184
v -0.003384 0.012125 0.034089
v -0.022159 0.029348 0.047004
v -0.015048 0.036877 0.036872
v -0.012881 0.036494 0.038895
v -0.018225 0.031448 0.039239
v -0.005992 0.015020 0.035524
v -0.018483 0.029061 0.044363
v -0.009695 0.009394 0.038430
v -0.019989 0.027259 0.041427
v -0.009559 0.014033 0.038080
v -0.003731 0.018575 0.036423
v -0.014267 0.030831 0.037236
v 0.000556 0.017170 0.033326
v -0.013759 0.032266 0.040982
v -0.006353 0.013967 0.040110
v 0.014383 0.009399 0.035440
v -0.012919 0.019121 0.034100
v 0.014629 0.006264 0.027163
v -0.006980 0.015957 0.042540
v -0.012705 0.016689 0.038350
v 0.012382 0.003943 0.027647
v -0.007513 0.019353 0.041162
v -0.012942 0.014634 0.028586
v -0.010972 0.016660 0.027609
v -0.009481 0.013475 0.032435
v 0.009106 0.005971 0.029198
v -0.006172 0.017510 0.037241
v 0.012663 0.005605 0.035602
v -0.006279 0.013879 0.038214
v 0.008839 0.007231 0.033507
v 0.007587 0.008634 0.026172
v 0.010020 0.006027 0.022022
v -0.007370 0.016628 0.030775
v 0.011073 0.009574 0.031526
v 0.027794 0.014387 0.018820
v 0.001761 0.006891 0.029202
v 0.030122 0.006237 0.016259
v 0.008262 0.015116 0.031773
v 0.003696 0.009717 0.032708
v 0.030220 0.004984 0.019274
v 0.005443 0.014987 0.029373
v 0.004899 0.000514 0.029036
v 0.004812 0.001136 0.026114
v 0.008185 0.004642 0.029575
v 0.026498 0.005867 0.020892
v 0.007657 0.011440 0.027617
v 0.029311 0.012510 0.022219
v 0.010192 0.010903 0.030341
v 0.025456 0.009923 0.022532
v 0.023499 0.003700 0.018686
v 0.027020 0.000074 0.016591
v 0.007383 0.005144 0.025543
v 0.025316 0.009897 0.018739
v 0.027440 0.003061 -0.002916
v 0.025874 0.003707 0.026047
v 0.036145 0.001491 -0.003311
v 0.019656 0.008371 0.018556
v 0.023362 0.007663 0.024609
v 0.037032 0.004353 -0.002010
v 0.019226 0.005137 0.020311
v 0.032865 0.004661 0.025174
v 0.032570 0.001891 0.024089
v 0.029834 0.006306 0.021144
v 0.034936 0.004566 0.001569
v 0.023433 0.004273 0.018857
v 0.029290 0.006780 -0.002559
v 0.024379 0.007712 0.017668
v 0.030597 0.005731 0.001783
v 0.036369 0.001456 0.004182
v 0.041069 0.000731 0.001474
v 0.029568 0.002247 0.020366
v 0.030999 0.002128 0.000657
v 0.016989 -0.000905 -0.012757
v 0.038685 0.007066 0.004777
v 0.018077 0.005673 -0.018583
v 0.029682 0.001470 0.006814
v 0.034935 0.006191 0.007809
v 0.017277 0.008061 -0.016502
v 0.033082 0.000261 0.005977
v 0.037713 0.013128 0.001193
v 0.038647 0.011349 -0.001021
v 0.033438 0.010012 0.001574
v 0.019788 0.007491 -0.013244
v 0.032708 0.003002 0.002383
v 0.014959 0.002373 -0.011173
v 0.029633 0.004912 0.003398
v 0.019014 0.004382 -0.010088
v 0.023848 0.008182 -0.014508
v 0.022447 0.011009 -0.018978
v 0.035434 0.007799 -0.001301
v 0.020481 0.002823 -0.013223
v 0.029524 0.016145 -0.052059
v 0.052405 0.000337 -0.060320
v 0.023399 0.010430 -0.054924
v 0.051350 0.010986 -0.058899
v 0.053419 0.004860 -0.061912
v 0.024142 0.010745 -0.058089
v 0.052568 0.008393 -0.056550
v 0.047331 -0.002688 -0.064276
v 0.046378 -0.003425 -0.061540
v 0.046458 0.002375 -0.062956
v 0.028218 0.009975 -0.058286
v 0.048644 0.006316 -0.057478
v 0.029034 0.016936 -0.056122
v 0.047544 0.008389 -0.060415
v 0.031329 0.013028 -0.057176
v 0.028887 0.005860 -0.057204
v 0.023719 0.004313 -0.058119
v 0.045564 0.000719 -0.059267
v 0.029795 0.011443 -0.054087
v 0.015221 0.006450 -0.039912
v 0.033602 0.011264 -0.061835
v 0.009058 0.012199 -0.042625
v 0.035398 0.007761 -0.051784
v 0.036428 0.011398 -0.057833
v 0.010918 0.014854 -0.042223
v 0.034872 0.005834 -0.054903
v 0.029568 0.017097 -0.062313
v 0.027543 0.015000 -0.062976
v 0.031162 0.013786 -0.056686
v 0.014367 0.014050 -0.044391
v 0.031087 0.008304 -0.055286
v 0.016445 0.010182 -0.038515
v 0.031766 0.010865 -0.052618
v 0.017663 0.011416 -0.042833
v 0.013335 0.013812 -0.048567
v 0.027060 0.015562 -0.056961
v 0.008604 0.016503 -0.048009
v 0.027284 0.012154 -0.059125
v 0.014745 0.009354 -0.044112
v -0.003010 0.000217 -0.050681
v 0.019390 0.017721 -0.044890
v -0.009142 0.005286 -0.046795
v 0.019039 0.007067 -0.046594
v 0.020982 0.013258 -0.043634
v -0.007952 0.004944 -0.043773
v 0.019707 0.009824 -0.048976
v 0.014667 0.020171 -0.040175
v 0.013293 0.020902 -0.042728
v 0.014046 0.015092 -0.041573
v -0.003965 0.006062 -0.044087
v 0.015787 0.011521 -0.047451
v -0.002877 -0.000734 -0.046624
v 0.015272 0.009273 -0.044481
v -0.000792 0.003328 -0.045724
v -0.003793 0.010251 -0.045079
v -0.008899 0.011310 -0.043423
v 0.012525 0.016771 -0.045040
v -0.002857 0.004863 -0.048515
v -0.023449 0.002557 -0.034113
v 0.000477 0.009616 -0.048926
v -0.019393 0.001462 -0.026319
v -0.008793 0.005178 -0.052227
v -0.001765 0.006299 -0.051754
v -0.017618 -0.001115 -0.027257
v -0.007752 0.008733 -0.052189
v 0.003421 0.006547 -0.043229
v 0.002144 0.008926 -0.041946
v -0.001466 0.004871 -0.044433
v -0.015637 0.000169 -0.030674
v -0.006876 0.007987 -0.047802
v -0.021920 -0.001321 -0.034155
v -0.007152 0.004237 -0.047761
v -0.017617 0.000365 -0.034707
v -0.012891 0.003299 -0.029569
v -0.012818 0.001973 -0.024260
v -0.002559 0.008513 -0.042792
v -0.018628 0.003310 -0.032536
v 0.005442 0.000443 -0.017508
v -0.013400 0.007147 -0.038525
v 0.011272 0.006814 -0.019460
v -0.011517 -0.002209 -0.033482
v -0.012907 0.002281 -0.038846
v 0.012080 0.005606 -0.022385
v -0.014028 0.000413 -0.032746
v -0.007608 0.010470 -0.040964
v -0.008101 0.012034 -0.038465
v -0.007751 0.004758 -0.037424
v 0.008458 0.005172 -0.024371
v -0.010463 0.003215 -0.032704
v 0.007810 -0.001077 -0.020584
v -0.007870 0.000915 -0.034160
v 0.005674 0.001718 -0.023631
v 0.006770 0.009084 -0.025009
v -0.004385 0.007607 -0.036639
v 0.011506 0.011732 -0.024307
v -0.007782 0.008889 -0.034858
v 0.005409 0.004313 -0.020874
v 0.001956 0.001553 -0.029692
v 0.025913 0.004169 -0.010687
v 0.001542 0.010637 -0.023875
v 0.001466 0.006515 -0.029736
v 0.025312 0.009216 -0.010508
v 0.008232 -0.001992 -0.029801
v 0.003751 0.005712 -0.023238
v 0.018328 0.010571 -0.007504
v 0.008315 0.003417 -0.028675
v 0.020296 0.012859 -0.010374
v -0.000316 0.007462 -0.023442
v 0.008404 -0.000153 -0.032152
v 0.005821 0.008489 -0.024648
v 0.018971 0.009899 -0.013693
v 0.023099 0.005813 -0.015652
v 0.026955 0.001562 -0.014908
v 0.007748 0.000830 -0.025953
v 0.021547 0.002613 -0.014892
v 0.019251 0.007091 -0.011155
v -0.101267 0.007038 0.110994
v -0.044220 0.007038 0.092088
v -0.036300 0.007039 0.071729
v -0.041730 0.007040 0.050569
v -0.057509 0.007040 0.035461
v -0.079136 0.007040 0.032379
v -0.091331 0.007040 0.036803
v -0.105793 0.007040 0.037823
v -0.118863 0.007040 0.044343
v -0.128442 0.007040 0.055369
v -0.133280 0.007039 0.076557
v -0.125530 0.007039 0.096862
v -0.114504 0.007038 0.106441
v -0.100581 0.007039 0.105593
v -0.048557 0.007038 0.088798
v -0.041790 0.007039 0.071399
v -0.048951 0.007039 0.048793
v -0.070906 0.007040 0.037107
v -0.091981 0.007040 0.041707
v -0.115529 0.007040 0.048647
v -0.127126 0.007039 0.064757
v -0.124851 0.007039 0.088361
v -0.111804 0.007039 0.101714
v -0.116442 0.075842 0.099152
v -0.128265 0.075842 0.077393
v -0.120671 0.075843 0.052631
v -0.091958 0.075844 0.041371
v -0.090084 0.075844 0.041802
v -0.073266 0.075844 0.036966
v -0.050520 0.075843 0.047024
v -0.042351 0.075842 0.065115
v -0.045299 0.075842 0.084633
v -0.057402 0.075842 0.096794
v -0.121868 0.075842 0.101610
v -0.133280 0.075842 0.076559
v -0.128443 0.075843 0.055371
v -0.112822 0.075844 0.040106
v -0.092833 0.075844 0.037102
v -0.071766 0.075844 0.031725
v -0.051420 0.075843 0.039642
v -0.038306 0.075843 0.057114
v -0.039214 0.075842 0.084743
v -0.101267 0.075842 0.110996
v -0.054655 0.007038 0.101492
v -0.057403 0.007039 0.096792
v -0.054654 0.075842 0.101493
v -0.100581 0.075842 0.105595
v -0.085946 0.003129 0.042555
v -0.086965 0.079754 0.043759
v -0.094007 0.003129 0.045649
v -0.092584 0.079754 0.045660
v -0.097824 0.003129 0.038130
v -0.097611 0.079754 0.041371
v -0.094842 0.079754 0.033755
v -0.093197 0.003129 0.033526
v -0.086872 0.003129 0.035141
v -0.085794 0.079754 0.036427
v -0.090085 0.007040 0.041800
v -0.092834 0.007040 0.037100
v -0.091331 0.075844 0.036805
v -0.043310 0.035266 0.097953
v -0.054788 0.035266 0.108812
v -0.055095 0.035266 0.105861
v -0.050255 0.035266 0.107356
v -0.050389 0.035266 0.109581
v -0.050581 0.035266 0.096617
v -0.041649 0.035266 0.082934
v -0.052901 0.035265 0.104110
v -0.043310 0.041012 0.097953
v -0.055994 0.041012 0.107315
v -0.041649 0.041012 0.082934
v -0.053880 0.041012 0.110168
v -0.054624 0.041012 0.107858
v -0.052080 0.041012 0.104141
v -0.050581 0.041012 0.096617
v -0.050322 0.041012 0.107937
v -0.107237 0.041708 0.118033
v -0.113099 0.047454 0.112185
v -0.098848 0.041708 0.119359
v -0.103608 0.041708 0.115631
v -0.102329 0.041708 0.118616
v -0.097623 0.041708 0.116219
v -0.106904 0.041713 0.108088
v -0.099241 0.041708 0.117340
v -0.100564 0.041708 0.114399
v -0.120516 0.041708 0.099020
v -0.102570 0.047454 0.118936
v -0.120516 0.047454 0.099020
v -0.103040 0.047454 0.114840
v -0.106917 0.047458 0.108099
v -0.098660 0.047456 0.115509
v -0.098441 0.047454 0.119050
v 0.176612 0.044320 -0.052956
v 0.176198 0.056771 -0.052956
v 0.172657 0.058849 -0.052955
v 0.169773 0.047129 -0.052956
v 0.169885 0.030789 -0.052956
v 0.172616 0.054121 -0.052955
v 0.172205 0.060568 -0.052950
v 0.176612 0.044320 -0.058703
v 0.176685 0.058189 -0.058703
v 0.170915 0.057216 -0.058700
v 0.169885 0.030789 -0.058703
v 0.173382 0.059410 -0.058702
v 0.172966 0.054162 -0.058703
v 0.169773 0.047129 -0.058703
v 0.175810 0.056086 -0.058703
v 0.037560 0.057008 -0.059399
v 0.039860 0.070797 -0.059399
v 0.037560 0.057008 -0.065145
v 0.045739 0.071159 -0.059399
v 0.041105 0.066437 -0.059399
v 0.041592 0.070442 -0.059399
v 0.044805 0.058536 -0.059398
v 0.045219 0.068217 -0.059399
v 0.041717 0.042481 -0.059399
v 0.040163 0.068564 -0.065145
v 0.041717 0.042481 -0.065145
v 0.044141 0.066238 -0.065145
v 0.042999 0.070834 -0.065145
v 0.044816 0.058535 -0.065147
v 0.044543 0.072472 -0.065149
v 0.046721 0.064590 -0.024729
v 0.172675 0.039879 -0.024729
v 0.168324 0.018471 -0.024729
v 0.152312 0.003610 -0.024730
v 0.130868 -0.000563 -0.024730
v 0.111011 0.008543 -0.024731
v 0.106516 0.019536 -0.024731
v 0.095607 0.009958 -0.024731
v 0.081784 0.005240 -0.024730
v 0.067208 0.006170 -0.024730
v 0.048733 0.017615 -0.024729
v 0.039730 0.037396 -0.024729
v 0.040660 0.051972 -0.024729
v 0.051046 0.061283 -0.024729
v 0.167246 0.039458 -0.024729
v 0.163528 0.021163 -0.024729
v 0.145277 0.006022 -0.024730
v 0.120490 0.008069 -0.024730
v 0.102191 0.022843 -0.024731
v 0.086196 0.011212 -0.024731
v 0.061453 0.013703 -0.024730
v 0.046255 0.031906 -0.024729
v 0.045921 0.050572 -0.024729
v 0.044485 0.045471 -0.093532
v 0.051661 0.021770 -0.093533
v 0.068607 0.011433 -0.093533
v 0.088433 0.011976 -0.093534
v 0.106877 0.022418 -0.093534
v 0.118428 0.009226 -0.093534
v 0.143001 0.005384 -0.093533
v 0.159657 0.016181 -0.093532
v 0.167734 0.034192 -0.093532
v 0.164131 0.050967 -0.093532
v 0.038924 0.043338 -0.093533
v 0.048731 0.017616 -0.093533
v 0.067207 0.006171 -0.093533
v 0.089032 0.006558 -0.093534
v 0.102023 0.019952 -0.093534
v 0.116855 0.004007 -0.093534
v 0.138251 -0.000339 -0.093533
v 0.158732 0.007264 -0.093533
v 0.172912 0.030993 -0.093533
v 0.046720 0.064592 -0.093532
v 0.168983 0.053433 -0.024729
v 0.164130 0.050966 -0.024729
v 0.168985 0.053434 -0.093532
v 0.051045 0.061285 -0.093532
v 0.110576 0.020387 -0.097444
v 0.109983 0.024392 -0.020820
v 0.107484 0.027013 -0.097444
v 0.102513 0.027501 -0.020820
v 0.098095 0.021256 -0.020820
v 0.099552 0.025418 -0.097444
v 0.099113 0.017651 -0.097444
v 0.102864 0.014823 -0.020820
v 0.109468 0.017648 -0.020820
v 0.106282 0.015086 -0.097444
v 0.106875 0.022417 -0.024731
v 0.102021 0.019951 -0.024731
v 0.102189 0.022844 -0.093534
v 0.106515 0.019537 -0.093534
vt 0.955567 0.961049
vt 0.944958 0.981249
vt 0.945758 0.963142
vt 0.936470 0.978076
vt 0.943933 0.961049
vt 0.943933 0.981698
vt 0.771202 0.980749
vt 0.757921 0.978375
vt 0.771202 0.948174
vt 0.422545 0.694163
vt 0.428306 0.752090
vt 0.413246 0.758246
vt 0.957554 0.208697
vt 0.968097 0.191738
vt 0.968840 0.226757
vt 0.612971 0.981554
vt 0.612177 0.930689
vt 0.622367 0.927894
vt 0.221684 0.921158
vt 0.253277 0.923319
vt 0.250139 0.945273
vt 0.956768 0.226317
vt 0.284790 0.997620
vt 0.285733 0.982166
vt 0.294507 0.997620
vt 0.866815 0.942001
vt 0.877318 0.934929
vt 0.876762 0.947346
vt 0.955992 0.987746
vt 0.959245 0.977109
vt 0.967759 0.987746
vt 0.591967 0.627268
vt 0.570064 0.421930
vt 0.635022 0.421781
vt 0.980000 0.176514
vt 0.979559 0.217288
vt 0.968840 0.220598
vt 0.879027 0.893941
vt 0.897364 0.903668
vt 0.901808 0.914376
vt 0.954778 0.642834
vt 0.953905 0.597996
vt 0.968227 0.642210
vt 0.232173 0.964925
vt 0.233409 0.984270
vt 0.221684 0.984270
vt 0.222436 0.964227
vt 0.225861 0.945273
vt 0.936877 0.604891
vt 0.953905 0.609570
vt 0.953905 0.642503
vt 0.912364 0.956713
vt 0.924423 0.941440
vt 0.924423 0.977566
vt 0.634598 0.845133
vt 0.623906 0.843549
vt 0.624284 0.799269
vt 0.140079 0.945476
vt 0.122226 0.934626
vt 0.117855 0.923553
vt 0.912526 0.976839
vt 0.841590 0.924668
vt 0.866543 0.916555
vt 0.852514 0.929733
vt 0.680384 0.973170
vt 0.666150 0.973170
vt 0.679515 0.927617
vt 0.384114 0.983858
vt 0.386144 0.972454
vt 0.396835 0.986349
vt 0.983408 0.373987
vt 0.980306 0.323709
vt 0.992688 0.322753
vt 0.253277 0.980064
vt 0.240184 0.976928
vt 0.253277 0.945273
vt 0.475174 0.984095
vt 0.471492 0.914783
vt 0.483952 0.914684
vt 0.635022 0.627268
vt 0.632762 0.642912
vt 0.624460 0.639805
vt 0.009001 0.997294
vt 0.000212 0.987336
vt 0.009001 0.978778
vt 0.537386 0.973356
vt 0.548196 0.971549
vt 0.548196 0.986360
vt 0.727502 0.985360
vt 0.727117 0.974050
vt 0.737939 0.979341
vt 0.990763 0.254107
vt 0.981305 0.322753
vt 0.982093 0.250723
vt 0.353259 0.964531
vt 0.355029 0.984561
vt 0.344673 0.980750
vt 0.975592 0.872161
vt 0.966526 0.868736
vt 0.975592 0.813885
vt 0.427685 0.966540
vt 0.430310 0.985140
vt 0.418996 0.980194
vt 0.803669 0.953666
vt 0.808322 0.938135
vt 0.813340 0.954748
vt 0.151026 0.917342
vt 0.141108 0.923574
vt 0.154602 0.863429
vt 0.175459 0.974780
vt 0.162267 0.945977
vt 0.175453 0.951894
vt 0.988965 0.742336
vt 0.998351 0.731885
vt 0.998351 0.751152
vt 0.735420 0.985360
vt 0.735420 0.999320
vt 0.727117 0.991339
vt 0.320756 0.966256
vt 0.313136 0.984790
vt 0.311059 0.955459
vt 0.936470 0.997095
vt 0.925149 0.992333
vt 0.936470 0.978273
vt 0.370529 0.971950
vt 0.360599 0.987779
vt 0.361031 0.965097
vt 0.324061 0.957051
vt 0.332537 0.960282
vt 0.321428 0.978392
vt 0.992574 0.642960
vt 0.992574 0.718687
vt 0.984842 0.714795
vt 0.591056 0.983245
vt 0.601382 0.979818
vt 0.601382 0.996609
vt 0.977927 0.790700
vt 0.977116 0.733734
vt 0.988965 0.731885
vt 0.496349 0.914684
vt 0.492009 0.935326
vt 0.483952 0.931491
vt 0.590271 0.998281
vt 0.637370 0.985369
vt 0.635098 0.975084
vt 0.645696 0.980316
vt 0.990657 0.181267
vt 0.981305 0.250723
vt 0.983247 0.177106
vt 0.272198 0.962534
vt 0.274597 0.981771
vt 0.264161 0.978139
vt 0.452676 0.970049
vt 0.441422 0.965249
vt 0.452676 0.911317
vt 0.870247 0.934929
vt 0.866699 0.915560
vt 0.879027 0.916674
vt 0.312111 0.864813
vt 0.321428 0.856325
vt 0.308719 0.923972
vt 0.877318 0.985195
vt 0.866699 0.986406
vt 0.988144 0.624971
vt 0.997549 0.614460
vt 0.997549 0.633751
vt 0.428491 0.985140
vt 0.428491 0.997612
vt 0.418996 0.988169
vt 0.985929 0.862800
vt 0.994975 0.843701
vt 0.994975 0.872161
vt 0.208516 0.975111
vt 0.201013 0.992295
vt 0.197873 0.973825
vt 0.083387 0.983579
vt 0.093742 0.967732
vt 0.093742 0.993932
vt 0.420299 0.961891
vt 0.997116 0.086491
vt 0.997116 0.149168
vt 0.989506 0.147192
vt 0.462011 0.918897
vt 0.465039 0.988361
vt 0.452729 0.988361
vt 0.150296 0.960943
vt 0.153171 0.979873
vt 0.144383 0.979594
vt 0.321794 0.931256
vt 0.321428 0.859366
vt 0.331034 0.919170
vt 0.681831 0.967396
vt 0.692408 0.966448
vt 0.692408 0.985765
vt 0.483952 0.988582
vt 0.141108 0.950253
vt 0.144701 0.935279
vt 0.153171 0.937344
vt 0.283161 0.992574
vt 0.276093 0.990893
vt 0.283161 0.936593
vt 0.094822 0.988736
vt 0.093742 0.962587
vt 0.105825 0.965358
vt 0.391809 0.850377
vt 0.401969 0.842534
vt 0.388315 0.908619
vt 0.824196 0.984478
vt 0.823368 0.933315
vt 0.833404 0.929733
vt 0.074523 0.990353
vt 0.082348 0.978717
vt 0.082348 0.996986
vt 0.989712 0.732063
vt 0.624460 0.786945
vt 0.633439 0.768540
vt 0.633439 0.794779
vt 0.568907 0.979898
vt 0.580537 0.979210
vt 0.580537 0.997065
vt 0.978459 0.810494
vt 0.987741 0.795791
vt 0.988965 0.816236
vt 0.592493 0.952934
vt 0.601382 0.955245
vt 0.589462 0.976193
vt 0.997334 0.000000
vt 0.997334 0.061555
vt 0.989356 0.058283
vt 0.980306 0.325131
vt 0.971445 0.389578
vt 0.959722 0.388953
vt 0.625248 0.765699
vt 0.181495 0.860938
vt 0.181495 0.925765
vt 0.171838 0.870509
vt 0.651983 0.967985
vt 0.661343 0.965356
vt 0.661343 0.984900
vt 0.985645 0.941587
vt 0.995618 0.873289
vt 0.995618 0.945733
vt 0.086304 0.962587
vt 0.872764 0.204918
vt 0.829646 0.204918
vt 0.839067 0.000000
vt 0.438624 0.985947
vt 0.430310 0.976180
vt 0.438624 0.946058
vt 0.981810 0.986343
vt 0.969551 0.980643
vt 0.981810 0.956390
vt 0.738322 0.992698
vt 0.746050 0.980758
vt 0.746050 0.998289
vt 0.032422 0.889502
vt 0.022038 0.897618
vt 0.034731 0.832497
vt 0.992071 0.993382
vt 0.983958 0.947180
vt 0.992071 0.945733
vt 0.822199 0.297885
vt 0.829043 0.289870
vt 0.829043 0.308238
vt 0.223313 0.992791
vt 0.233409 0.997443
vt 0.970904 0.233072
vt 0.981305 0.245269
vt 0.956465 0.233392
vt 0.532795 0.986745
vt 0.520438 0.987491
vt 0.523171 0.967958
vt 0.321428 0.942584
vt 0.496349 0.990795
vt 0.993764 0.322753
vt 0.986845 0.841279
vt 0.959722 0.327983
vt 0.958144 0.383052
vt 0.949094 0.338166
vt 0.949974 0.862243
vt 0.960507 0.858480
vt 0.963602 0.872161
vt 0.902285 0.981277
vt 0.891432 0.979145
vt 0.892497 0.934924
vt 0.977695 0.890574
vt 0.971621 0.953007
vt 0.969551 0.884302
vt 0.983958 0.872518
vt 0.263439 0.986752
vt 0.253352 0.982301
vt 0.263439 0.936593
vt 0.117395 0.988742
vt 0.115940 0.962587
vt 0.127108 0.966046
vt 0.543610 0.918271
vt 0.561133 0.918146
vt 0.542299 0.926230
vt 0.923718 0.303399
vt 0.914784 0.309576
vt 0.927655 0.247540
vt 0.856590 0.984015
vt 0.856491 0.933535
vt 0.866543 0.929733
vt 0.320283 0.985126
vt 0.320283 0.998125
vt 0.311059 0.988359
vt 0.071197 0.977781
vt 0.333257 0.953507
vt 0.344327 0.940144
vt 0.342053 0.963383
vt 0.103863 0.988736
vt 0.829449 0.216075
vt 0.829449 0.289870
vt 0.822199 0.286730
vt 0.532795 0.967958
vt 0.515795 0.966892
vt 0.515795 0.926230
vt 0.935901 0.827949
vt 0.949919 0.823228
vt 0.949973 0.872161
vt 0.722679 0.927774
vt 0.739856 0.914892
vt 0.741288 0.921264
vt 0.283680 0.932049
vt 0.283161 0.859809
vt 0.292636 0.919590
vt 0.985929 0.820807
vt 0.997023 0.819244
vt 0.997023 0.838543
vt 0.879027 0.851314
vt 0.869835 0.848347
vt 0.344327 0.983809
vt 0.333904 0.980078
vt 0.889394 0.983855
vt 0.879027 0.977067
vt 0.889394 0.930420
vt 0.971142 0.408743
vt 0.571301 0.951958
vt 0.577304 0.936477
vt 0.580818 0.953238
vt 0.708517 0.912472
vt 0.697997 0.920743
vt 0.711923 0.857610
vt 0.154131 0.989683
vt 0.153171 0.939843
vt 0.162267 0.935279
vt 0.989356 0.071964
vt 0.998762 0.061555
vt 0.998762 0.080710
vt 0.175459 0.935279
vt 0.344327 0.954175
vt 0.355029 0.940144
vt 0.987589 0.489182
vt 0.997153 0.480685
vt 0.997153 0.500475
vt 0.921544 0.322753
vt 0.935910 0.322561
vt 0.435297 0.903989
vt 0.433872 0.911317
vt 0.412043 0.897614
vt 0.209364 0.913139
vt 0.221684 0.914227
vt 0.219067 0.970468
vt 0.321428 0.985126
vt 0.377241 0.965112
vt 0.384114 0.990517
vt 0.373764 0.990517
vt 0.836587 0.848347
vt 0.852552 0.860360
vt 0.834193 0.863222
vt 0.532795 0.968563
vt 0.454199 0.914684
vt 0.311789 0.940395
vt 0.984842 0.642960
vt 0.969896 0.704973
vt 0.973115 0.655328
vt 0.333257 0.982298
vt 0.601000 0.936477
vt 0.351034 0.865146
vt 0.360599 0.856977
vt 0.347603 0.924134
vt 0.418996 0.946058
vt 0.418996 0.984344
vt 0.407379 0.975733
vt 0.557046 0.937848
vt 0.561019 0.978802
vt 0.551730 0.978877
vt 0.989078 0.516488
vt 0.997825 0.505426
vt 0.997825 0.523566
vt 0.515795 0.985422
vt 0.515795 0.997248
vt 0.507646 0.986558
vt 0.705641 0.983430
vt 0.715261 0.965073
vt 0.715261 0.994475
vt 0.105825 0.983810
vt 0.115940 0.967333
vt 0.115940 0.993285
vt 0.568907 0.976108
vt 0.993483 0.250723
vt 0.082348 0.894865
vt 0.075565 0.913910
vt 0.068057 0.909823
vt 0.063972 0.824519
vt 0.063972 0.895127
vt 0.053579 0.836670
vt 0.300882 0.983429
vt 0.311059 0.979743
vt 0.311059 0.993656
vt 0.836885 0.986869
vt 0.833404 0.974591
vt 0.843597 0.978138
vt 0.974358 0.322753
vt 0.106400 0.962587
vt 0.823368 0.848347
vt 0.826961 0.642960
vt 0.876965 0.643069
vt 0.197873 0.981108
vt 0.186410 0.975401
vt 0.197873 0.927830
vt 0.935744 0.811280
vt 0.430310 0.946058
vt 0.515795 0.419329
vt 0.549988 0.626409
vt 0.945975 0.792286
vt 0.935818 0.800640
vt 0.949374 0.747111
vt 0.561286 0.929786
vt 0.561133 0.858512
vt 0.570878 0.916666
vt 0.989506 0.162593
vt 0.998285 0.153839
vt 0.998285 0.172012
vt 0.725586 0.980968
vt 0.727117 0.997292
vt 0.717444 0.997292
vt 0.466278 0.914684
vt 0.452729 0.901599
vt 0.479749 0.913535
vt 0.680384 0.987070
vt 0.980306 0.406001
vt 0.635022 0.714061
vt 0.727117 0.980968
vt 0.715261 0.931285
vt 0.727117 0.927774
vt 0.968227 0.593443
vt 0.996793 0.593443
vt 0.996793 0.614460
vt 0.988144 0.612508
vt 0.977116 0.734658
vt 0.977116 0.791652
vt 0.967173 0.746515
vt 0.443733 0.970049
vt 0.452676 0.971037
vt 0.452676 0.989251
vt 0.829293 0.345455
vt 0.829293 0.419329
vt 0.822199 0.416245
vt 0.992688 0.380022
vt 0.980768 0.394650
vt 0.977666 0.819244
vt 0.985929 0.828140
vt 0.975592 0.869399
vt 0.761439 0.998325
vt 0.763445 0.980749
vt 0.771202 0.998325
vt 0.954862 0.176113
vt 0.591516 0.861421
vt 0.601382 0.852333
vt 0.588046 0.919373
vt 0.979838 0.642342
vt 0.978894 0.599170
vt 0.988144 0.593443
vt 0.855514 0.994986
vt 0.843597 0.992819
vt 0.855514 0.982811
vt 0.987355 0.503667
vt 0.407114 0.982792
vt 0.396835 0.975980
vt 0.407114 0.924055
vt 0.801634 0.977867
vt 0.082348 0.977781
vt 0.673617 0.842581
vt 0.656760 0.855982
vt 0.654739 0.849639
vt 0.951337 0.245553
vt 0.951337 0.313353
vt 0.942779 0.255311
vt 0.980000 0.231707
vt 0.987355 0.585965
vt 0.995577 0.525454
vt 0.995577 0.592549
vt 0.370529 0.992678
vt 0.968840 0.174198
vt 0.687616 0.857411
vt 0.697997 0.848826
vt 0.684455 0.912287
vt 0.963602 0.816185
vt 0.890585 0.996072
vt 0.879027 0.993808
vt 0.890585 0.983855
vt 0.548196 0.931086
vt 0.561019 0.926230
vt 0.136976 0.962587
vt 0.136976 0.992185
vt 0.127108 0.973660
vt 0.536630 0.992143
vt 0.263439 0.951780
vt 0.127108 0.989251
vt 1.000000 0.642960
vt 1.000000 0.707140
vt 0.992574 0.705290
vt 0.440367 0.989456
vt 0.983958 0.953217
vt 0.941017 0.395196
vt 0.959722 0.390774
vt 0.655316 0.921236
vt 0.665844 0.909305
vt 0.990377 0.402721
vt 0.990377 0.413791
vt 0.980306 0.408975
vt 0.995424 0.718687
vt 0.995424 0.731434
vt 0.984842 0.726156
vt 0.379709 0.964468
vt 0.379158 0.936988
vt 0.396024 0.936261
vt 0.208596 0.973825
vt 0.197873 0.968230
vt 0.208596 0.913139
vt 0.813340 0.980748
vt 0.935698 0.872161
vt 0.926924 0.382939
vt 0.916418 0.390473
vt 0.930385 0.335678
vt 0.741288 0.849560
vt 0.730665 0.861181
vt 0.814675 0.985639
vt 0.813774 0.943607
vt 0.823368 0.938135
vt 0.601382 0.990267
vt 0.610414 0.983898
vt 0.610414 0.998697
vt 0.969551 0.964569
vt 0.989021 0.402721
vt 0.520360 0.912406
vt 0.628959 0.714061
vt 0.648986 0.985642
vt 0.025433 0.983270
vt 0.020816 0.964144
vt 0.039888 0.985656
vt 0.824173 0.921527
vt 0.824114 0.914074
vt 0.822199 0.334675
vt 0.829273 0.324481
vt 0.360599 0.914853
vt 0.360704 0.844225
vt 0.370547 0.903226
vt 0.209652 0.976255
vt 0.221684 0.990323
vt 0.635098 0.988038
vt 0.625146 0.983222
vt 0.635098 0.927894
vt 0.580818 0.979210
vt 0.333257 0.940144
vt 0.856747 0.909463
vt 0.208516 0.995235
vt 0.969896 0.731885
vt 0.977316 0.720187
vt 0.980855 0.731885
vt 0.274597 0.936593
vt 0.986752 0.837713
vt 0.996814 0.752744
vt 0.996814 0.816236
vt 0.988965 0.813648
vt 0.298213 0.995769
vt 0.096722 0.219750
vt 0.140984 0.408018
vt 0.075695 0.408586
vt 0.907645 0.001342
vt 0.931436 0.228002
vt 0.911359 0.227500
vt 0.887736 0.644149
vt 0.895156 0.872518
vt 0.879027 0.871903
vt 0.932540 0.395571
vt 0.943915 0.412442
vt 0.930534 0.412442
vt 0.187068 0.645730
vt 0.197873 0.850444
vt 0.141108 0.850444
vt 0.335427 0.202744
vt 0.289670 0.000000
vt 0.350453 0.004137
vt 0.887880 0.000000
vt 0.888740 0.225251
vt 0.872764 0.221530
vt 0.861813 0.204918
vt 0.871930 0.409803
vt 0.829646 0.409803
vt 0.333528 0.419527
vt 0.376665 0.419519
vt 0.376666 0.625182
vt 0.036413 0.425083
vt 0.076261 0.628871
vt 0.020816 0.631336
vt 0.987355 0.543818
vt 0.967553 0.552009
vt 0.978961 0.522887
vt 0.162267 0.974780
vt 0.174367 0.976691
vt 0.164721 0.992689
vt 0.849678 0.413921
vt 0.863492 0.413917
vt 0.854322 0.642960
vt 0.822199 0.419329
vt 0.791299 0.217077
vt 0.822199 0.221668
vt 0.376666 0.211619
vt 0.442262 0.232075
vt 0.395738 0.411071
vt 0.214339 0.419519
vt 0.194677 0.217268
vt 0.271309 0.211619
vt 0.878245 0.642960
vt 0.885310 0.413921
vt 0.916418 0.412442
vt 0.917269 0.395497
vt 0.929862 0.395196
vt 0.666150 0.963483
vt 0.649097 0.965356
vt 0.648986 0.953444
vt 0.176418 0.228812
vt 0.924101 0.996931
vt 0.912364 0.990821
vt 0.924101 0.977566
vt 0.545886 0.205572
vt 0.520349 0.002137
vt 0.565469 0.000000
vt 0.391474 0.595056
vt 0.376666 0.419329
vt 0.453428 0.435996
vt 0.194677 0.423585
vt 0.946547 0.395331
vt 0.956087 0.395306
vt 0.956493 0.412436
vt 0.742776 0.419329
vt 0.698688 0.213723
vt 0.751262 0.217207
vt 0.020111 0.995124
vt 0.010309 0.979512
vt 0.020111 0.978778
vt 0.333724 0.212449
vt 0.376666 0.217744
vt 0.369929 0.419519
vt 0.704892 0.983156
vt 0.695775 0.966986
vt 0.704892 0.966448
vt 0.969371 0.174198
vt 0.954862 0.170052
vt 0.954862 0.000000
vt 0.907645 0.001898
vt 0.907645 0.224559
vt 0.637249 0.205572
vt 0.407379 0.623556
vt 0.393030 0.606046
vt 0.407379 0.606375
vt 0.071074 0.801601
vt 0.026836 0.640130
vt 0.084291 0.631336
vt 0.635022 0.646525
vt 0.690249 0.639366
vt 0.643338 0.842581
vt 0.637453 0.997435
vt 0.639836 0.985369
vt 0.645696 0.997435
vt 0.548196 0.969215
vt 0.532795 0.971549
vt 0.532795 0.928565
vt 0.140079 0.641405
vt 0.140079 0.809092
vt 0.143648 0.996262
vt 0.140920 0.979873
vt 0.764372 0.416662
vt 0.578968 0.213132
vt 0.633626 0.210569
vt 0.633626 0.416280
vt 0.561019 0.978877
vt 0.560974 0.996215
vt 0.548795 0.979537
vt 0.666150 0.940054
vt 0.650056 0.927617
vt 0.744696 0.948237
vt 0.757921 0.948174
vt 0.757921 0.980758
vt 0.259503 0.419525
vt 0.326702 0.625190
vt 0.375379 0.933913
vt 0.360599 0.934222
vt 0.363118 0.924055
vt 0.513688 0.871635
vt 0.515795 0.909263
vt 0.499108 0.904085
vt 0.823368 0.849769
vt 0.757747 0.848963
vt 0.781997 0.644045
vt 0.014956 0.219750
vt 0.014956 0.425412
vt 0.000000 0.425413
vt 0.753287 0.207197
vt 0.694329 0.205162
vt 0.697775 0.000000
vt 0.514098 0.228196
vt 0.465571 0.419329
vt 0.953381 0.592549
vt 0.896882 0.642960
vt 0.885310 0.642097
vt 0.888950 0.414448
vt 0.499024 0.825795
vt 0.515795 0.826523
vt 0.153171 0.995093
vt 0.094744 0.816361
vt 0.074781 0.879009
vt 0.068057 0.849652
vt 0.253140 0.202404
vt 0.697997 0.931077
vt 0.697997 0.966448
vt 0.681266 0.965057
vt 0.755358 0.948174
vt 0.777480 0.917508
vt 0.777480 0.940297
vt 0.741288 0.641947
vt 0.728908 0.842581
vt 0.933019 0.006819
vt 0.954862 0.195223
vt 0.931436 0.191059
vt 0.141108 0.629174
vt 0.098272 0.423585
vt 0.463315 0.207867
vt 0.446853 0.001644
vt 0.520349 0.003766
vt 0.642074 0.206145
vt 0.638765 0.000954
vt 0.418996 0.999919
vt 0.410518 0.997357
vt 0.226383 0.004338
vt 0.668215 0.974135
vt 0.680384 0.989816
vt 0.668074 0.992122
vt 0.406661 0.206237
vt 0.389503 0.014621
vt 0.382461 0.211619
vt 0.197811 0.211619
vt 0.396915 0.623327
vt 0.094744 0.857437
vt 0.084251 0.879262
vt 0.912847 0.642960
vt 0.912847 0.871738
vt 0.020816 0.423585
vt 0.036822 0.230801
vt 0.014262 0.630831
vt 0.000000 0.631214
vt 0.000000 0.425797
vt 0.379345 0.925073
vt 0.972803 0.008927
vt 0.969371 0.037644
vt 0.972721 0.000000
vt 0.682758 0.417722
vt 0.639467 0.419329
vt 0.633626 0.215454
vt 0.275439 0.981771
vt 0.275439 0.994314
vt 0.263439 0.987151
vt 0.746050 0.984619
vt 0.757921 0.994459
vt 0.251110 0.850365
vt 0.205248 0.645759
vt 0.338619 0.416351
vt 0.276204 0.415519
vt 0.753287 0.128552
vt 0.765904 0.064598
vt 0.775272 0.070866
vt 0.129986 0.078885
vt 0.120759 0.113095
vt 0.124791 0.051039
vt 0.515795 0.425773
vt 0.515795 0.595824
vt 0.801081 0.998083
vt 0.791041 0.998083
vt 0.799735 0.980789
vt 0.914543 0.642564
vt 0.015222 0.633640
vt 0.015222 0.820162
vt 0.000000 0.817736
vt 0.009001 0.997932
vt 0.936581 0.196752
vt 0.954043 0.219817
vt 0.941416 0.228663
vt 0.650644 0.546820
vt 0.653121 0.469799
vt 0.666533 0.478458
vt 0.521645 0.693110
vt 0.529257 0.719833
vt 0.515795 0.755968
vt 0.565556 0.419031
vt 0.520892 0.214153
vt 0.405064 0.625190
vt 0.405064 0.829150
vt 0.360599 0.832432
vt 0.407379 0.694778
vt 0.451117 0.625936
vt 0.515795 0.606046
vt 0.515672 0.622027
vt 0.453341 0.808340
vt 0.515795 0.809815
vt 0.515671 0.825795
vt 0.466187 0.635058
vt 0.465188 0.797251
vt 0.622367 0.986739
vt 0.239353 0.913139
vt 0.222729 0.945273
vt 0.635022 0.626915
vt 0.253277 0.850365
vt 0.251710 0.865283
vt 0.220844 0.868396
vt 0.208773 0.855684
vt 0.217368 0.891647
vt 0.253277 0.913139
vt 0.206507 0.905521
vt 0.197873 0.872351
vt 0.251618 0.898664
vt 0.970082 0.174198
vt 0.934921 0.930420
vt 0.890351 0.927961
vt 0.891288 0.875300
vt 0.935027 0.872518
vt 0.936470 0.885676
vt 0.904632 0.887886
vt 0.936470 0.919072
vt 0.046931 0.946942
vt 0.047618 0.910367
vt 0.056929 0.918433
vt 0.067153 0.939114
vt 0.067153 0.986960
vt 0.936754 0.623088
vt 0.916186 0.619943
vt 0.914543 0.413806
vt 0.936754 0.642834
vt 0.634598 0.795370
vt 0.085560 0.905635
vt 0.128674 0.910981
vt 0.128740 0.962587
vt 0.086461 0.962587
vt 0.083952 0.951550
vt 0.115457 0.949713
vt 0.083387 0.918667
vt 0.667780 0.927641
vt 0.188395 0.927830
vt 0.195495 0.921432
vt 0.197873 0.927551
vt 0.396835 0.965112
vt 0.969551 0.882226
vt 0.969551 0.955924
vt 0.951306 0.961049
vt 0.960172 0.661672
vt 0.969896 0.651815
vt 0.952629 0.731885
vt 0.950314 0.887716
vt 0.015222 0.678203
vt 0.019043 0.631214
vt 0.019043 0.697250
vt 0.936470 0.892608
vt 0.941401 0.872518
vt 0.197873 0.996688
vt 0.187785 0.992414
vt 0.645696 0.927894
vt 0.871930 0.336079
vt 0.888564 0.322753
vt 0.878071 0.404245
vt 0.886318 0.393120
vt 0.898519 0.397756
vt 0.900850 0.409803
vt 0.903524 0.338565
vt 0.141235 0.856022
vt 0.801634 0.864058
vt 0.806639 0.937462
vt 0.000000 0.924769
vt 0.008042 0.930809
vt 0.020816 0.219750
vt 0.020816 0.288327
vt 0.019093 0.237042
vt 0.389199 0.606046
vt 0.392930 0.624543
vt 0.376666 0.624543
vt 0.981304 0.319207
vt 0.962618 0.322753
vt 0.274089 0.866322
vt 0.283161 0.856768
vt 0.268526 0.936593
vt 0.963505 0.249250
vt 0.014825 0.611364
vt 0.018645 0.572853
vt 0.018645 0.627095
vt 0.951337 0.253111
vt 0.294507 0.982166
vt 0.283161 0.943966
vt 0.294507 0.940395
vt 0.094744 0.829330
vt 0.111652 0.816361
vt 0.099740 0.898643
vt 0.108574 0.888101
vt 0.120914 0.893429
vt 0.122980 0.905635
vt 0.126488 0.833007
vt 0.452729 0.833924
vt 0.452729 0.903114
vt 0.420993 0.889157
vt 0.424283 0.825795
vt 0.439014 0.839796
vt 0.249880 0.536677
vt 0.253376 0.489040
vt 0.253376 0.554999
vt 0.419601 0.843457
vt 0.321428 0.930229
vt 0.645696 0.855806
vt 0.645696 0.922592
vt 0.627205 0.927894
vt 0.613703 0.909985
vt 0.604449 0.919395
vt 0.617850 0.845133
vt 0.631762 0.862318
vt 0.014956 0.342000
vt 0.018782 0.291471
vt 0.018782 0.362328
vt 0.612838 0.863573
vt 0.338710 0.940144
vt 0.360599 0.930723
vt 0.337750 0.847195
vt 0.332319 0.867105
vt 0.854565 0.982811
vt 0.843597 0.935366
vt 0.854565 0.929733
vt 0.407379 0.837838
vt 0.433313 0.893714
vt 0.401969 0.915318
vt 0.833404 0.988727
vt 0.163961 0.850444
vt 0.164694 0.935279
vt 0.170185 0.917061
vt 0.912364 0.986589
vt 0.902285 0.935108
vt 0.912364 0.930420
vt 0.869942 0.000160
vt 0.283161 0.925965
vt 0.263693 0.859584
vt 0.175459 0.943434
vt 0.184597 0.935279
vt 0.184597 0.992152
vt 0.262934 0.847195
vt 0.253352 0.910354
vt 0.970262 0.953217
vt 0.800948 0.849769
vt 0.800021 0.864014
vt 0.767781 0.868708
vt 0.755553 0.856167
vt 0.764227 0.892101
vt 0.800948 0.912672
vt 0.753074 0.906346
vt 0.744426 0.873140
vt 0.799921 0.897473
vt 0.020816 0.826098
vt 0.568907 0.995063
vt 0.561809 0.991532
vt 0.568907 0.936477
vt 0.455433 0.829778
vt 0.474262 0.825795
vt 0.486712 0.844780
vt 0.496349 0.835301
vt 0.466868 0.895330
vt 0.014960 0.484083
vt 0.018782 0.434122
vt 0.018782 0.504145
vt 0.485551 0.894211
vt 0.941006 0.322753
vt 0.916698 0.332442
vt 0.945943 0.377964
vt 0.902285 0.930420
vt 0.969896 0.720827
vt 0.948386 0.655300
vt 0.791041 0.920945
vt 0.800133 0.912672
vt 0.800133 0.980574
vt 0.947317 0.642960
vt 0.935698 0.706235
vt 0.915575 0.239311
vt 0.866543 0.988230
vt 0.532795 0.927297
vt 0.561133 0.852625
vt 0.529341 0.904620
vt 0.532691 0.845133
vt 0.541987 0.856636
vt 0.015560 0.738373
vt 0.019043 0.753551
vt 0.527982 0.861642
vt 0.300135 0.940395
vt 0.299135 0.847195
vt 0.293741 0.867185
vt 0.985929 0.872161
vt 0.967649 0.490699
vt 0.952394 0.503222
vt 0.967649 0.421486
vt 0.958372 0.431667
vt 0.947623 0.426003
vt 0.645968 0.852278
vt 0.654739 0.842581
vt 0.654739 0.917017
vt 0.946800 0.413806
vt 0.936754 0.478395
vt 0.955567 0.992100
vt 0.698178 0.852817
vt 0.162267 0.992658
vt 0.987589 0.418172
vt 0.995377 0.413806
vt 0.995377 0.480685
vt 0.823368 0.855647
vt 0.836336 0.907233
vt 0.866543 0.855145
vt 0.737939 0.927774
vt 0.020111 0.920209
vt 0.791041 0.912672
vt 0.791041 0.989098
vt 0.777480 0.977664
vt 0.984842 0.719761
vt 0.008253 0.909669
vt 0.967553 0.512590
vt 0.967553 0.588435
vt 0.948765 0.592549
vt 0.949331 0.518168
vt 0.015017 0.413523
vt 0.936754 0.523538
vt 0.941896 0.503222
vt 0.045012 0.816361
vt 0.046966 0.906844
vt 0.051585 0.888000
vt 0.963602 0.816845
vt 0.879027 0.848347
vt 0.502853 0.911319
vt 0.498463 0.969491
vt 0.507233 0.964487
vt 0.515795 0.974431
vt 0.515546 0.985422
vt 0.743876 0.639366
vt 0.743876 0.688010
vt 0.741288 0.679076
vt 0.915266 0.930420
vt 0.515795 0.624464
vt 0.935698 0.744291
vt 0.578764 0.936477
vt 0.601382 0.924623
vt 0.577864 0.845133
vt 0.572408 0.864720
vt 0.140079 0.825249
vt 0.140079 0.900938
vt 0.014960 0.552827
vt 0.018645 0.504145
vt 0.107071 0.836803
vt 0.959048 0.731885
vt 0.960015 0.803556
vt 0.965432 0.788522
vt 0.515795 0.856705
vt 0.541650 0.908770
vt 0.580818 0.946119
vt 0.589462 0.936477
vt 0.589462 0.995539
vt 0.551380 0.864887
vt 0.988144 0.642900
vt 0.496349 0.903401
vt 0.475239 0.838055
vt 0.914784 0.242755
vt 0.914784 0.318550
vt 0.896011 0.322753
vt 0.883245 0.305002
vt 0.873984 0.315334
vt 0.887825 0.233341
vt 0.900983 0.250211
vt 0.014956 0.270855
vt 0.018751 0.219750
vt 0.882712 0.253672
vt 0.935845 0.234144
vt 0.941423 0.304016
vt 0.612177 0.983898
vt 0.601382 0.932505
vt 0.612177 0.927894
vt 0.697997 0.916638
vt 0.954425 0.814013
vt 0.673917 0.927617
vt 0.668907 0.862020
vt 0.310063 0.940395
vt 0.299321 0.979743
vt 0.871930 0.246034
vt 0.894713 0.310542
vt 0.722522 0.842581
vt 0.727625 0.908462
vt 0.823368 0.986210
vt 0.029178 0.906844
vt 0.046931 0.909822
vt 0.033105 0.964497
vt 0.249841 0.601610
vt 0.253371 0.619467
vt 0.046931 0.971855
vt 0.916418 0.329867
vt 0.916418 0.402976
vt 0.249880 0.468687
vt 0.253371 0.419519
vt 0.884431 0.343158
vt 0.378631 0.924055
vt 0.377811 0.832432
vt 0.372360 0.852172
vt 0.843597 0.929733
vt 0.601382 0.854735
vt 0.625631 0.916178
vt 0.891613 0.995608
vt 0.899933 0.981277
vt 0.902285 0.995608
vt 0.978564 0.593443
vt 0.978894 0.641816
vt 0.968227 0.641816
vt 0.989356 0.045840
vt 0.983716 0.016269
vt 0.970544 0.086491
vt 0.984235 0.004228
vt 0.989356 0.004066
vt 0.150077 0.645424
vt 0.942308 0.395306
vt 0.831409 0.205081
vt 0.980030 0.503667
vt 0.968505 0.514884
vt 0.978746 0.508783
vt 0.987355 0.592549
vt 0.698311 0.964552
vt 0.697997 0.954984
vt 0.514098 0.410105
vt 0.396835 0.924055
vt 0.453428 0.606046
vt 0.936470 0.995622
vt 0.944887 0.981698
vt 0.944887 0.999368
vt 0.396835 0.999525
vt 0.405002 0.982792
vt 0.405002 1.000000
vt 0.912847 0.872161
vt 0.915765 0.643001
vt 0.935698 0.871421
vt 0.931436 0.000000
vt 0.792123 0.980574
vt 0.692408 0.986283
vt 0.974006 0.501550
vt 0.968860 0.490400
vt 0.979519 0.496868
vt 0.983742 0.497619
vt 0.992071 0.956414
vt 0.999801 0.945733
vt 0.999801 0.961880
vt 0.969371 0.004145
vt 0.638765 0.000424
vt 0.090930 0.889782
vt 0.090657 0.881213
vt 0.086610 0.889778
vt 0.083159 0.894865
vt 0.080063 0.887860
vt 0.548196 0.926230
vt 0.514098 0.419329
vt 0.389503 0.000000
vt 0.549267 0.996215
vt 0.751262 0.216075
vt 0.174367 0.993848
vt 0.914543 0.642960
vt 0.918968 0.625771
vt 0.931315 0.642960
vt 0.744426 0.976336
vt 0.335521 0.999694
vt 0.340777 0.983809
vt 0.344327 0.999694
vt 0.253371 0.625187
vt 0.379158 0.926168
vt 0.496917 0.870908
vt 0.715261 0.927774
vt 0.698110 0.928138
vt 0.693482 0.840390
vt 0.823368 0.644352
vt 0.000000 0.219750
vt 0.989506 0.089953
vt 0.986970 0.096268
vt 0.979782 0.086491
vt 0.379158 0.965097
vt 0.363828 0.962459
vt 0.753287 0.002364
vt 0.989506 0.131304
vt 0.978644 0.102159
vt 0.969371 0.123303
vt 0.972568 0.093168
vt 0.969954 0.172012
vt 0.979231 0.483537
vt 0.987589 0.462210
vt 0.967649 0.454315
vt 0.987589 0.413806
vt 0.924423 0.937940
vt 0.936470 0.930420
vt 0.187807 0.440586
vt 0.249687 0.439719
vt 0.199535 0.451896
vt 0.185144 0.624862
vt 0.249574 0.629289
vt 0.249687 0.645424
vt 0.249574 0.423585
vt 0.200444 0.615671
vt 0.148051 0.490775
vt 0.156913 0.511115
vt 0.163474 0.569692
vt 0.141108 0.554995
vt 0.680384 0.927617
vt 0.744426 0.930158
vt 0.754531 0.912672
vt 0.251512 0.996970
vt 0.240184 0.996970
vt 0.247414 0.980064
vt 0.936754 0.414371
vt 0.141108 0.424040
vt 0.520349 0.209515
vt 0.197873 0.892144
vt 0.182129 0.892430
vt 0.183303 0.850444
vt 0.186495 0.914037
vt 0.184298 0.919977
vt 0.744426 0.642960
vt 0.020816 0.816361
vt 0.194677 0.010631
vt 0.020048 0.860827
vt 0.020048 0.909669
vt 0.000000 0.869555
vt 0.013819 0.838658
vt 0.001070 0.834180
vt 0.011512 0.820162
vt 0.007973 0.825865
vt 0.014262 0.425413
vt 0.062481 0.906844
vt 0.344427 0.996486
vt 0.353974 0.984561
vt 0.355029 0.996486
vt 0.333257 0.996269
vt 0.323081 0.992804
vt 0.935698 0.642960
vt 0.240489 0.645424
vt 0.813340 0.996903
vt 0.802708 0.987586
vt 0.786862 0.439462
vt 0.849570 0.435596
vt 0.801509 0.448773
vt 0.789187 0.625152
vt 0.849634 0.629190
vt 0.849678 0.642960
vt 0.771451 0.585093
vt 0.849678 0.419329
vt 0.750172 0.574070
vt 0.759158 0.508858
vt 0.744426 0.509458
vt 0.764201 0.140520
vt 0.765340 0.185826
vt 0.790778 0.194333
vt 0.800376 0.215467
vt 0.829646 0.200034
vt 0.829573 0.215743
vt 0.801302 0.015886
vt 0.829573 0.015710
vt 0.805522 0.029239
vt 0.829646 0.000000
vt 0.166731 0.203219
vt 0.194600 0.202129
vt 0.194677 0.218004
vt 0.165753 0.001541
vt 0.194677 0.014410
vt 0.149034 0.032508
vt 0.170902 0.189538
vt 0.194664 0.000000
vt 0.140961 0.148797
vt 0.141141 0.019463
vt 0.141889 0.173821
vt 0.000000 0.219750
vt 0.931436 0.218468
vt 0.954043 0.195223
vt 0.652253 0.593303
vt 0.635022 0.531975
vt 0.688672 0.608131
vt 0.702403 0.632006
vt 0.744426 0.623361
vt 0.744313 0.639366
vt 0.703833 0.428678
vt 0.744313 0.435334
vt 0.709869 0.443317
vt 0.744426 0.419329
vt 0.545521 0.658097
vt 0.545347 0.787361
vt 0.546721 0.812168
vt 0.623783 0.829287
vt 0.623906 0.845133
vt 0.583050 0.836280
vt 0.581483 0.634977
vt 0.623906 0.643113
vt 0.567620 0.658760
vt 0.589137 0.821726
vt 0.623783 0.627268
vt 0.420308 0.946058
vt 0.407379 0.930336
vt 0.419049 0.911317
vt 0.441422 0.917498
vt 0.441422 0.941349
vt 0.373269 0.627257
vt 0.299564 0.641708
vt 0.360599 0.641339
vt 0.311145 0.653119
vt 0.296843 0.826115
vt 0.360496 0.831046
vt 0.360599 0.847195
vt 0.360495 0.625190
vt 0.311962 0.817035
vt 0.269007 0.712054
vt 0.275460 0.770731
vt 0.260262 0.691628
vt 0.253371 0.755847
vn -0.249300 0.147600 0.957100
vn 0.812200 0.536300 0.229600
vn 0.270000 0.957900 0.097900
vn -0.798000 0.587500 -0.134400
vn 0.203000 0.570500 -0.795800
vn -0.251700 -0.296700 -0.921200
vn 0.083200 0.449800 0.889200
vn -0.670400 0.371200 -0.642400
vn -0.648900 0.718100 0.251500
vn 0.484600 0.376600 -0.789500
vn 0.160200 0.614800 -0.772200
vn -0.205200 -0.730300 -0.651600
vn -0.931700 -0.234200 0.277600
vn -0.200800 -0.974500 -0.099700
vn 0.171500 -0.717900 0.674600
vn 0.302300 0.848800 0.433800
vn 0.369300 -0.773000 0.515800
vn 0.120500 -0.919800 0.373300
vn -0.770000 0.604400 0.204400
vn 0.603700 0.608100 0.515500
vn 0.683400 0.589500 -0.430500
vn -0.710700 0.141700 0.689100
vn -0.104300 -0.905100 0.412000
vn 0.347200 0.076000 0.934700
vn -0.608200 0.247200 0.754300
vn -0.668200 -0.066800 -0.741000
vn -0.063800 0.133000 0.989000
vn 0.016500 -0.736800 0.675900
vn 0.800300 -0.373400 -0.469100
vn 0.983600 -0.134800 -0.120100
vn -0.423100 0.817100 -0.391500
vn -0.192400 -0.667800 -0.719000
vn -0.339500 0.650000 -0.679800
vn -0.108500 0.639100 -0.761300
vn 0.746000 -0.662000 0.072000
vn -0.031600 0.597700 0.801000
vn -0.146000 0.819800 0.553800
vn 0.981700 0.154300 0.111100
vn -0.179100 0.082100 0.980400
vn 0.896200 -0.079900 -0.436200
vn 0.196400 -0.732600 -0.651700
vn -0.068100 0.802200 -0.593100
vn 0.588500 0.036500 -0.807600
vn 0.292400 0.793500 -0.533700
vn 0.761600 0.338200 0.552700
vn 0.840900 -0.352500 0.410500
vn 0.230600 -0.832100 -0.504400
vn -0.601200 0.579800 0.549900
vn -0.303100 0.611000 -0.731300
vn -0.749500 -0.037300 -0.660900
vn 0.523200 -0.224300 -0.822100
vn 0.669500 -0.647100 0.364700
vn 0.023300 -0.826300 0.562600
vn 0.429000 -0.850600 0.304100
vn 0.379600 0.164000 -0.910500
vn 0.122500 -0.662500 -0.738900
vn -0.747900 -0.591300 -0.301700
vn -0.928400 -0.094000 0.359300
vn -0.453100 0.461900 -0.762500
vn 0.933000 -0.042600 0.357300
vn -0.021700 0.845300 0.533900
vn 0.607500 -0.779700 0.151500
vn -0.124800 -0.916100 0.381100
vn -0.231700 -0.523500 -0.819900
vn 0.405100 0.505700 -0.761600
vn -0.170100 -0.260800 0.950300
vn 0.313300 -0.749600 0.583000
vn 0.821600 0.398700 0.407300
vn -0.783200 -0.157000 0.601600
vn -0.103900 -0.454800 0.884500
vn 0.088800 0.688300 0.720000
vn -0.351000 -0.930600 -0.103300
vn 0.259800 0.827800 0.497300
vn -0.035200 0.949500 0.311900
vn 0.638200 0.640700 -0.426700
vn -0.358400 -0.635400 -0.683900
vn -0.156700 -0.954300 -0.254600
vn -0.423400 0.548500 -0.721000
vn -0.104500 -0.720500 -0.685400
vn -0.878400 -0.434600 -0.198900
vn -0.573300 0.819100 0.017700
vn -0.479200 0.444200 -0.757000
vn 0.661200 -0.086900 0.745100
vn 0.797100 -0.573000 0.190600
vn 0.136600 -0.670600 0.729100
vn -0.466300 -0.799400 -0.378900
vn -0.514800 -0.440700 0.735300
vn -0.759000 0.613700 0.217400
vn -0.880600 -0.089000 -0.465300
vn -0.384500 -0.709700 0.590200
vn -0.630100 -0.731600 0.260200
vn -0.714600 -0.291500 -0.635900
vn 0.113700 -0.518800 0.847300
vn -0.266300 0.943600 -0.196400
vn -0.526400 -0.846900 0.075700
vn -0.273400 -0.520600 -0.808900
vn 0.842200 0.475500 0.254100
vn 0.252100 0.958800 -0.130400
vn 0.744600 -0.606400 0.278900
vn 0.176100 -0.583200 -0.793000
vn 0.789700 0.151700 -0.594400
vn 0.192300 0.929400 -0.315000
vn -0.441200 -0.815100 -0.375500
vn 0.141000 -0.974500 -0.174600
vn 0.467000 -0.361000 -0.807200
vn -0.279400 0.702500 -0.654500
vn 0.540400 0.727900 -0.422000
vn 0.811300 0.508900 -0.287700
vn 0.599400 -0.775400 -0.198400
vn 0.344400 0.457700 -0.819700
vn 0.170100 -0.170700 -0.970500
vn -0.827800 -0.348600 -0.439600
vn -0.236700 0.598300 -0.765400
vn -0.249900 -0.558900 -0.790600
vn 0.452500 -0.307700 0.837000
vn 0.862600 0.121600 0.491000
vn -0.214100 -0.964400 -0.155400
vn 0.529600 -0.846900 0.046000
vn -0.144200 -0.270000 0.952000
vn -0.091200 0.857000 0.507100
vn 0.633200 0.747300 0.201500
vn -0.108700 0.702600 -0.703200
vn 0.969200 0.157300 0.189200
vn -0.069900 -0.539800 0.838900
vn -0.935700 -0.349100 0.050700
vn -0.302500 0.154000 0.940600
vn -0.889800 0.410100 -0.200100
vn -0.253900 0.904100 0.343600
vn -0.477800 -0.877600 0.038100
vn -0.294200 -0.902200 -0.315200
vn -0.969300 0.013000 0.245300
vn 0.516500 0.575500 0.634100
vn 0.055800 -0.361600 -0.930600
vn -0.144000 -0.077900 -0.986500
vn -0.887900 0.103400 -0.448300
vn 0.305100 0.167100 0.937500
vn -0.584900 0.760600 0.281600
vn -0.057700 -0.668100 -0.741800
vn 0.394100 0.034900 -0.918400
vn -0.266000 -0.479800 0.836000
vn 0.614600 0.345400 0.709200
vn -0.308600 0.666000 0.679100
vn 0.011000 0.082700 0.996500
vn -0.461800 0.081400 0.883200
vn -0.614400 0.755400 -0.227700
vn -0.989700 -0.005400 -0.143000
vn 0.001900 -0.537400 -0.843300
vn 0.233200 0.572800 0.785800
vn -0.089200 0.960900 -0.261900
vn 0.511200 0.820600 -0.255500
vn -0.254200 0.886200 -0.387400
vn -0.165700 0.535700 0.828000
vn -0.604500 0.791600 -0.089000
vn -0.724400 -0.682900 -0.094100
vn 0.030900 -0.953500 0.299800
vn 0.234500 -0.234800 0.943300
vn 0.480000 0.660500 -0.577300
vn 0.481900 0.380200 -0.789400
vn -0.029800 -0.947900 0.317100
vn -0.014000 0.852300 0.522900
vn -0.837900 -0.164100 0.520600
vn -0.328100 0.280600 0.902000
vn 0.571200 -0.770400 -0.283100
vn -0.829000 0.464500 0.311300
vn 0.224900 -0.551200 -0.803500
vn -0.610700 -0.399500 -0.683600
vn -0.161500 0.783300 -0.600200
vn -0.033400 0.894000 -0.446700
vn -0.673100 -0.683600 -0.282100
vn -0.606600 -0.493000 0.623600
vn 0.294000 0.955700 -0.015300
vn -0.332900 -0.805000 0.491100
vn -0.102100 -0.993800 -0.042800
vn -0.607100 0.785900 0.116900
vn -0.408300 -0.489500 -0.770500
vn -0.909300 -0.148000 0.388900
vn -0.871900 0.427300 -0.239200
vn 0.205700 -0.975200 -0.081100
vn 0.922500 0.071800 -0.379200
vn 0.947600 -0.316400 0.043200
vn 0.569600 0.733300 0.371300
vn 0.791200 -0.100300 0.603200
vn 0.178500 0.226100 0.957600
vn -0.273800 -0.846900 0.455800
vn -0.601800 -0.522100 -0.604400
vn 0.730600 -0.258100 0.632100
vn 0.078100 0.656400 0.750300
vn 0.406400 0.787100 -0.464000
vn 0.695500 0.592300 -0.406800
vn 0.686700 -0.591400 -0.422700
vn -0.170200 -0.893100 -0.416300
vn -0.030100 -0.925700 0.377000
vn -0.223300 -0.396400 0.890500
vn -0.765500 -0.571600 -0.295400
vn 0.533700 0.679200 -0.503800
vn 0.913500 -0.390400 -0.114600
vn -0.861900 -0.172600 -0.476700
vn -0.748200 -0.473700 -0.464500
vn -0.048600 -0.927600 0.370300
vn 0.630800 0.640500 0.437900
vn 0.379000 -0.330900 -0.864200
vn 0.258600 0.827100 -0.498900
vn 0.953600 0.291200 -0.076400
vn -0.251700 0.593500 -0.764500
vn -0.093000 0.022700 0.995400
vn -0.338100 -0.524100 0.781700
vn 0.692500 0.127200 0.710100
vn 0.878100 0.179100 -0.443600
vn 0.388400 -0.775500 0.497700
vn 0.579000 0.815000 -0.021100
vn -0.303700 0.951000 -0.057500
vn -0.679800 0.354700 0.641800
vn 0.462500 -0.851700 -0.246100
vn -0.329900 -0.351000 0.876300
vn -0.637400 -0.546400 0.543200
vn -0.684000 0.729000 -0.024400
vn -0.871200 -0.429600 0.237600
vn -0.927800 0.371800 -0.031900
vn -0.539000 -0.830000 -0.143700
vn 0.922700 -0.318200 -0.217600
vn 0.465900 0.319400 0.825200
vn -0.047700 0.946400 0.319400
vn 0.378400 -0.051000 -0.924200
vn 0.497600 -0.354000 -0.791800
vn 0.936300 -0.171400 0.306300
vn 0.348600 0.890200 0.293200
vn 0.079100 0.236400 0.968400
vn 0.118400 0.311500 -0.942800
vn -0.749400 -0.042500 0.660700
vn -0.921100 -0.263600 -0.286300
vn 0.598300 0.676000 0.430200
vn 0.181500 0.590600 -0.786300
vn -0.776500 0.557100 -0.294500
vn 0.895800 0.150600 -0.418100
vn -0.516600 -0.273800 0.811300
vn 0.419100 -0.849000 0.321800
vn -0.914300 -0.311600 0.258800
vn -0.644600 0.366000 -0.671300
vn -0.815400 0.034600 0.577800
vn 0.876600 -0.324700 -0.355100
vn 0.147100 0.882900 0.445800
vn -0.103300 0.778300 0.619200
vn 0.797300 -0.535400 -0.278800
vn -0.295900 0.198700 0.934300
vn -0.435700 0.896600 -0.078500
vn 0.516700 -0.468300 0.716700
vn -0.465300 -0.859000 0.213500
vn -0.585700 -0.600600 0.544300
vn -0.981500 -0.126600 0.143300
vn 0.200400 -0.708900 0.676300
vn 0.472600 0.553400 0.685800
vn -0.373700 0.888200 0.267100
vn 0.794500 -0.344000 0.500500
vn -0.217400 0.381300 -0.898500
vn 0.530000 0.450800 -0.718200
vn 0.404600 -0.887800 -0.219100
vn -0.366200 -0.065100 -0.928200
vn 0.012600 0.672600 0.739900
vn -0.458800 -0.888500 0.000800
vn -0.384300 0.521600 0.761700
vn -0.405000 0.512600 -0.757100
vn -0.213600 0.582800 -0.784000
vn 0.226500 -0.680700 -0.696700
vn -0.278000 0.957200 -0.079700
vn -0.663800 0.651600 -0.367100
vn -0.458800 -0.667700 -0.586100
vn 0.083900 0.282200 -0.955700
vn 0.646900 0.677400 -0.350200
vn 0.873000 -0.099300 0.477500
vn 0.658800 0.751900 0.026200
vn -0.224700 0.723900 0.652300
vn -0.322500 -0.489000 -0.810400
vn -0.829800 0.041300 -0.556500
vn -0.816500 0.454100 -0.356700
vn -0.483400 0.515200 -0.707700
vn -0.702000 0.562700 -0.436600
vn -0.095400 -0.635500 0.766100
vn 0.597800 -0.045000 -0.800300
vn -0.375800 -0.361400 0.853300
vn 0.047100 0.743300 -0.667300
vn -0.003500 -0.267600 -0.963500
vn 0.658200 -0.423600 0.622300
vn 0.223800 0.965500 0.132800
vn 0.215200 -0.180200 -0.959800
vn -0.225100 -0.001400 -0.974300
vn 0.707600 0.661700 0.247700
vn 0.391800 -0.578800 0.715200
vn -0.223100 0.398900 0.889400
vn 0.105100 0.237800 0.965600
vn -0.078200 0.537500 -0.839600
vn -0.081100 -0.985300 -0.150000
vn 0.810000 -0.565600 -0.154700
vn 0.215900 -0.841300 -0.495600
vn 0.725400 0.647500 -0.233400
vn 0.757700 -0.651100 0.044300
vn 0.650100 -0.656600 -0.382300
vn -0.208800 -0.774300 0.597400
vn -0.666400 -0.441100 -0.601100
vn 0.216800 -0.767400 -0.603400
vn -0.363500 0.587400 -0.723000
vn -0.203000 -0.612000 -0.764300
vn -0.788400 -0.601800 -0.127400
vn -0.410700 -0.890500 -0.195500
vn -0.035600 0.756300 0.653200
vn 0.523200 0.715800 -0.462300
vn 0.612200 -0.662800 0.431000
vn 0.705900 0.644600 0.293600
vn -0.093400 0.567900 0.817700
vn 0.483900 -0.588700 -0.647500
vn 0.661200 -0.372500 0.651100
vn 0.340000 -0.673200 0.656600
vn 0.643300 -0.459800 0.612200
vn -0.797400 -0.591400 -0.119900
vn -0.799300 0.592200 -0.102000
vn -0.555300 0.781600 -0.284200
vn 0.297300 0.534800 -0.790900
vn 0.491500 0.430400 -0.757000
vn 0.472900 0.443000 0.761700
vn 0.333600 -0.650300 -0.682500
vn 0.044400 0.650400 -0.758300
vn 0.457300 0.656700 -0.599700
vn -0.457700 0.061800 0.886900
vn 0.737600 -0.160400 0.655900
vn 0.123100 0.292100 0.948400
vn 0.282700 0.913800 0.291400
vn -0.160200 -0.874800 0.457100
vn 0.786100 -0.097400 -0.610400
vn 0.362300 0.714800 -0.598100
vn 0.681400 0.415700 0.602400
vn 0.244900 -0.719300 -0.650100
vn 0.376100 -0.642200 0.667900
vn 0.094600 -0.738300 0.667700
vn 0.427800 0.810900 0.399200
vn 0.601400 0.796600 -0.061400
vn 0.593700 -0.788200 0.161900
vn -0.739600 -0.140200 0.658300
vn -0.766000 -0.004800 -0.642700
vn -0.586500 -0.490300 -0.644600
vn -0.222700 0.770500 0.597300
vn -0.605200 0.523800 -0.599400
vn -0.610600 -0.779100 0.142000
vn 0.305600 0.939400 -0.155200
vn 0.393300 -0.596500 0.699600
vn 0.552600 0.606900 0.571200
vn -0.180300 0.244200 -0.952800
vn 0.215900 0.285200 0.933800
vn 0.355100 -0.784200 0.508800
vn -0.619400 -0.658300 0.427700
vn -0.541600 0.642700 0.541700
vn -0.761000 0.644600 0.072800
vn -0.424900 0.096800 -0.900000
vn 0.070500 0.425400 -0.902200
vn -0.088500 -0.754500 0.650300
vn -0.372800 -0.661800 -0.650400
vn 0.060200 -0.751700 -0.656700
vn 0.168300 -0.351500 0.920900
vn -0.099200 -0.361900 -0.926900
vn 0.176700 -0.342300 0.922800
vn -0.321800 0.606000 -0.727500
vn -0.370600 0.441800 -0.817000
vn -0.126400 -0.567400 0.813700
vn 0.211100 0.794200 0.569800
vn 0.700700 0.439900 -0.561700
vn -0.283500 0.785000 0.550800
vn 0.457200 0.485800 0.744900
vn -0.619700 -0.784500 -0.019500
vn -0.628700 0.772500 0.089200
vn 0.615700 -0.036800 -0.787100
vn 0.583600 0.214900 0.783100
vn 0.709900 -0.661400 0.242000
vn 0.952500 -0.285600 0.105300
vn -0.428100 0.794200 0.431200
vn -0.461700 -0.798600 0.386100
vn 0.412800 -0.896200 0.162600
vn 0.463700 -0.610700 -0.641900
vn -0.480500 0.415100 -0.772500
vn -0.126800 0.594200 -0.794200
vn -0.179400 0.574400 0.798600
vn -0.409300 -0.583000 0.701800
vn -0.618200 0.610200 0.495400
vn -0.470700 -0.833200 0.290100
vn -0.809600 0.583200 0.066000
vn -0.413800 0.887100 -0.204400
vn 0.262900 0.548000 0.794100
vn 0.786500 -0.581500 -0.207800
vn 0.736800 -0.164300 -0.655800
vn -0.225100 0.791700 -0.567900
vn -0.718300 0.192000 0.668700
vn -0.191800 0.800800 0.567300
vn 0.783200 0.191600 0.591400
vn -0.039300 0.790900 0.610600
vn -0.075300 -0.794100 0.603100
vn 0.563000 -0.783100 -0.264200
vn 0.332700 0.736600 -0.588800
vn -0.144900 0.612300 0.777200
vn -0.288500 -0.588900 0.754900
vn 0.858100 -0.426600 0.285600
vn 0.858100 -0.426600 -0.285600
vn 0.166800 -0.892800 -0.418400
vn -0.824500 -0.284500 0.489100
vn 0.752500 -0.134900 -0.644600
vn 0.641300 0.512800 0.570700
vn 0.459100 -0.033900 0.887700
vn 0.460900 -0.022200 -0.887200
vn -0.797800 -0.008500 0.602800
vn 0.778100 0.209000 -0.592300
vn -0.197600 0.641900 -0.740800
vn -0.077100 -0.661500 -0.745900
vn 0.282100 0.536400 0.795400
vn -0.161400 0.588100 0.792500
vn 0.180500 0.757000 0.627900
vn 0.158000 -0.761700 0.628300
vn 0.748100 0.031400 0.662800
vn -0.328300 0.014400 0.944500
vn 0.363700 0.738300 -0.567900
vn 0.309400 -0.885200 -0.347300
vn 0.596500 -0.600300 -0.532700
vn -0.735600 0.330400 0.591400
vn 0.333800 0.752800 0.567400
vn -0.205100 0.584000 0.785400
vn -0.468300 -0.585700 0.661500
vn -0.591300 -0.465900 0.658300
vn -0.567000 -0.516100 -0.642000
vn 0.405100 0.567900 0.716400
vn -0.368000 -0.668700 0.646000
vn -0.229600 -0.718700 0.656300
vn -0.572200 -0.503600 0.647200
vn -0.760400 -0.647200 0.053300
vn -0.672700 -0.656300 -0.341600
vn 0.005800 -0.922100 0.386900
vn 0.435100 -0.567300 0.699100
vn 0.688600 -0.595800 0.413300
vn -0.531800 0.318800 0.784500
vn -0.620800 0.061200 -0.781600
vn -0.727400 0.346500 -0.592200
vn -0.053000 -0.656800 -0.752100
vn 0.309300 0.886300 -0.344500
vn -0.834800 0.286100 0.470300
vn 0.340800 -0.761500 -0.551300
vn -0.921300 -0.263600 0.285900
vn -0.529400 -0.761600 -0.373700
vn 0.175700 -0.783400 0.596100
vn 0.952500 0.285600 0.105300
vn -0.647400 -0.028000 0.761600
vn 0.496700 -0.565700 0.658200
vn -0.414900 -0.887000 -0.202600
vn -0.458300 0.051900 -0.887300
vn 0.631800 -0.144900 0.761500
vn -0.245300 -0.658200 -0.711700
usemtl Material.001
s 1
f 255/1/1 252/2/2 257/3/3
f 137/4/4 148/5/5 134/6/6
f 31/7/7 29/8/8 34/9/9
f 413/10/10 414/11/11 424/12/12
f 9/13/13 5/14/14 8/15/15
f 49/16/16 48/17/17 46/18/18
f 319/19/19 315/20/20 323/21/21
f 10/22/22 9/13/13 8/15/15
f 214/23/23 225/24/24 211/25/25
f 112/26/26 104/27/27 108/28/28
f 14/29/29 11/30/30 12/31/31
f 274/32/32 303/33/33 326/34/34
f 223/35/35 222/36/36 220/37/37
f 22/38/38 28/39/39 31/40/7
f 3/41/40 1/42/41 2/43/42
f 96/44/43 94/45/44 106/46/45
f 99/47/46 110/48/47 96/44/43
f 375/49/48 383/50/49 376/51/50
f 26/52/51 22/53/38 25/54/52
f 254/55/53 260/56/54 261/57/55
f 5/58/14 11/59/30 14/60/29
f 27/61/56 26/52/51 25/54/52
f 248/62/57 258/63/58 251/64/59
f 16/65/60 15/66/61 8/67/15
f 31/68/7 28/69/39 29/70/8
f 193/71/62 202/72/63 190/73/64
f 14/74/29 12/75/31 17/76/65
f 78/77/66 87/78/67 75/79/68
f 36/80/69 43/81/70 42/82/71
f 330/83/72 342/84/73 340/85/74
f 46/86/18 48/87/17 44/88/75
f 44/89/75 51/90/76 53/91/77
f 38/92/78 35/93/79 41/94/80
f 39/95/81 38/96/78 41/97/80
f 104/98/27 109/99/82 103/100/83
f 57/101/84 55/102/85 67/103/86
f 195/104/87 206/105/88 192/106/89
f 46/107/18 41/108/80 54/109/90
f 23/110/91 30/111/92 24/112/93
f 45/113/94 54/114/90 50/115/95
f 189/116/96 180/117/97 184/118/98
f 152/119/99 158/120/100 155/121/101
f 122/122/102 130/123/103 124/124/104
f 213/125/105 215/126/106 210/127/107
f 40/128/108 37/129/109 47/130/110
f 91/131/111 82/132/112 83/133/113
f 64/134/114 73/135/115 66/136/116
f 231/137/117 240/138/118 228/139/119
f 56/140/120 63/141/121 62/142/122
f 66/136/116 68/143/123 64/134/114
f 64/144/114 71/145/124 73/146/115
f 58/147/125 55/148/85 61/149/126
f 59/150/127 58/151/125 61/152/126
f 123/153/128 128/154/129 122/155/102
f 134/156/6 132/157/130 144/158/131
f 66/159/116 61/160/126 74/161/132
f 108/28/28 107/162/133 105/163/134
f 65/164/135 74/165/132 70/166/136
f 247/167/137 238/168/138 242/169/139
f 114/170/140 120/171/141 117/172/142
f 254/173/53 256/174/143 260/175/54
f 98/176/144 100/177/145 95/178/146
f 60/179/147 57/101/84 67/103/86
f 206/180/88 197/181/148 198/182/149
f 154/183/150 163/184/151 151/185/152
f 76/186/153 83/187/113 82/188/112
f 167/189/154 159/190/155 166/191/156
f 86/192/157 88/193/158 84/194/159
f 78/77/66 75/79/68 81/195/160
f 79/196/161 78/197/66 81/198/160
f 142/199/162 147/200/163 141/201/164
f 115/202/165 113/203/166 125/204/167
f 86/205/157 81/206/160 93/207/168
f 89/208/169 88/209/158 86/210/157
f 85/211/170 93/212/168 90/213/171
f 54/114/90 45/113/94 49/214/16
f 95/215/146 101/216/172 98/217/144
f 218/218/173 226/219/174 220/220/37
f 232/221/175 234/222/176 229/223/177
f 80/224/178 77/225/179 87/226/67
f 225/227/24 216/228/180 217/229/181
f 173/230/182 182/231/183 170/232/184
f 95/215/146 102/233/185 101/216/172
f 52/234/186 43/235/70 50/236/95
f 105/237/134 107/238/133 103/239/83
f 97/240/187 94/241/44 100/242/145
f 98/176/144 97/243/187 100/177/145
f 290/244/188 313/245/189 280/246/190
f 180/247/97 185/248/191 186/249/192
f 33/250/193 32/251/194 25/252/52
f 118/253/195 129/254/196 115/255/165
f 105/256/134 100/257/145 112/258/26
f 184/259/98 183/260/197 181/261/198
f 104/262/27 112/263/26 109/264/82
f 131/265/199 123/45/128 127/266/200
f 171/267/201 177/268/202 174/269/203
f 160/270/204 168/271/205 162/272/206
f 155/121/101 157/273/207 152/119/99
f 99/47/46 96/44/43 106/46/45
f 72/274/208 62/142/122 63/141/121
f 38/92/78 47/275/110 35/93/79
f 114/170/140 121/276/209 120/171/141
f 245/277/210 236/278/211 243/279/212
f 124/280/104 126/281/213 122/282/102
f 256/283/143 264/284/214 265/285/215
f 116/286/216 113/287/166 119/288/217
f 117/289/142 116/286/216 119/288/217
f 45/290/94 50/291/95 51/292/76
f 211/293/25 209/294/218 221/295/219
f 233/296/220 245/297/210 230/298/221
f 124/299/104 119/300/217 131/301/199
f 146/302/222 145/303/223 143/304/224
f 123/305/128 131/306/199 128/307/129
f 93/212/168 85/211/170 89/308/169
f 133/309/225 139/310/226 136/311/227
f 79/196/161 81/198/160 76/186/153
f 118/312/195 115/202/165 125/204/167
f 245/313/210 235/314/228 236/315/211
f 374/316/229 376/317/50 384/318/230
f 18/319/231 21/320/232 19/321/233
f 133/322/225 140/323/234 139/324/226
f 72/325/208 63/326/121 70/327/136
f 143/328/224 145/329/223 141/330/164
f 135/331/235 132/157/130 138/332/236
f 136/311/227 135/333/235 138/334/236
f 65/335/135 70/336/136 71/337/124
f 172/338/237 170/232/184 182/231/183
f 156/339/238 167/340/154 153/341/239
f 143/342/224 138/343/236 150/344/240
f 242/345/139 241/346/241 239/347/242
f 142/348/162 150/349/240 147/350/163
f 24/112/93 30/111/92 28/351/39
f 36/352/69 42/353/71 39/95/81
f 237/354/243 246/355/244 239/356/242
f 117/357/142 119/300/217 114/358/140
f 137/359/4 134/360/6 144/361/131
f 255/362/1 257/363/3 250/364/245
f 152/119/99 159/365/155 158/120/100
f 230/366/221 228/367/119 240/368/118
f 249/369/246 266/370/247 265/371/215
f 162/272/206 164/372/248 160/270/204
f 154/183/150 151/185/152 157/373/207
f 155/121/101 154/374/150 157/273/207
f 252/375/2 256/376/143 262/377/249
f 37/129/109 35/378/79 47/130/110
f 80/224/178 91/379/111 77/225/179
f 162/380/206 157/381/207 169/382/250
f 6/383/251 13/384/252 7/385/253
f 69/386/254 68/387/123 66/388/116
f 161/389/255 169/390/250 166/391/156
f 150/392/240 142/393/162 146/394/222
f 229/395/177 235/396/228 232/397/175
f 174/398/203 176/399/256 171/400/201
f 156/339/238 153/341/239 163/401/151
f 58/147/125 67/402/86 55/148/85
f 171/403/201 178/404/257 177/405/202
f 110/406/47 102/407/185 109/408/82
f 181/409/198 183/410/197 179/411/258
f 179/412/258 186/413/192 188/414/259
f 173/230/182 170/232/184 176/415/256
f 174/398/203 173/416/182 176/399/256
f 407/417/260 448/418/261 415/419/262
f 219/420/263 224/421/264 218/422/173
f 22/423/38 21/320/232 18/319/231
f 60/179/147 72/424/208 57/101/84
f 302/425/265 303/33/33 275/426/266
f 181/427/198 176/428/256 189/429/96
f 206/430/88 198/431/149 205/432/267
f 180/433/97 189/434/96 185/435/191
f 262/436/249 266/437/247 261/438/55
f 191/439/268 197/440/148 194/441/269
f 84/194/159 92/442/270 86/192/157
f 175/443/271 172/338/237 182/231/183
f 52/444/186 42/82/71 43/81/70
f 212/445/272 221/446/219 209/447/218
f 1/42/41 4/448/273 2/43/42
f 191/449/268 198/450/149 197/451/148
f 187/452/274 178/453/257 185/454/191
f 201/455/275 203/456/276 199/457/277
f 148/458/5 139/459/226 140/460/234
f 193/71/62 190/73/64 196/461/278
f 194/462/269 193/71/62 196/461/278
f 238/463/138 243/464/212 244/465/279
f 77/225/179 75/135/68 87/226/67
f 175/466/271 187/467/274 172/468/237
f 9/13/13 4/469/273 5/14/14
f 201/470/275 196/471/278 208/472/280
f 165/473/281 164/474/248 162/475/206
f 200/476/282 208/477/280 205/478/267
f 169/390/250 161/389/255 165/479/281
f 39/95/81 41/97/80 36/352/69
f 200/480/282 205/481/267 199/482/277
f 195/104/87 192/106/89 202/483/63
f 187/484/274 177/405/202 178/404/257
f 97/240/187 106/289/45 94/241/44
f 210/485/107 217/486/181 216/487/180
f 129/488/196 121/489/209 128/490/129
f 220/37/37 222/36/36 218/491/173
f 212/492/272 209/493/218 215/494/106
f 213/125/105 212/495/272 215/126/106
f 5/14/14 4/469/273 1/496/41
f 220/497/37 215/498/106 227/499/283
f 127/500/200 126/281/213 124/280/104
f 219/501/263 227/502/283 224/503/264
f 74/504/132 65/505/135 69/386/254
f 251/506/59 259/507/284 248/508/57
f 44/88/75 53/509/77 46/86/18
f 59/150/127 61/152/126 56/510/120
f 214/511/23 211/293/25 221/295/219
f 167/512/154 158/513/100 159/514/155
f 199/457/277 207/515/285 201/455/275
f 116/286/216 125/516/167 113/287/166
f 229/517/177 236/278/211 235/518/228
f 225/519/24 217/486/181 224/520/264
f 239/521/242 241/522/241 237/523/243
f 237/524/243 244/525/279 246/526/244
f 335/527/286 342/528/73 331/529/287
f 231/137/117 228/139/119 234/222/176
f 232/221/175 231/137/117 234/222/176
f 161/530/255 166/531/156 160/532/204
f 192/106/89 190/533/64 202/483/63
f 20/534/288 18/319/231 19/321/233
f 239/535/242 234/536/176 247/537/137
f 148/538/5 140/323/234 147/539/163
f 204/540/289 203/541/276 201/542/275
f 238/543/138 247/544/137 243/545/212
f 7/1/253 13/546/252 11/30/30
f 76/186/153 82/188/112 79/196/161
f 194/462/269 196/461/278 191/547/268
f 233/296/220 230/298/221 240/548/118
f 110/549/47 101/216/172 102/233/185
f 103/239/83 111/550/290 105/237/134
f 210/551/107 216/552/180 213/553/105
f 135/331/235 144/158/131 132/157/130
f 248/62/57 259/554/284 253/555/291
f 249/556/246 263/557/292 252/458/2
f 91/558/111 83/559/113 90/560/171
f 255/362/1 250/364/245 258/561/58
f 251/562/59 258/561/58 250/364/245
f 85/563/170 90/564/171 84/565/159
f 153/341/239 151/566/152 163/401/151
f 40/128/108 52/567/186 37/129/109
f 258/63/58 254/568/53 266/370/247
f 256/174/143 254/173/53 264/569/214
f 208/570/280 200/571/282 204/572/289
f 56/510/120 62/573/122 59/150/127
f 141/330/164 149/574/293 143/328/224
f 136/311/227 138/334/236 133/309/225
f 129/575/196 120/576/141 121/577/209
f 179/411/258 188/578/259 181/409/198
f 307/579/294 269/580/295 270/581/296
f 443/582/297 442/583/298 445/584/299
f 320/585/300 321/586/301 318/587/302
f 350/588/303 353/589/304 357/590/305
f 268/591/306 308/592/307 312/593/308
f 429/594/309 391/595/310 392/596/311
f 445/597/299 444/598/312 443/599/297
f 311/600/313 299/601/314 298/602/315
f 417/603/316 416/604/317 446/605/318
f 271/606/319 305/607/320 306/608/321
f 362/609/322 359/610/323 364/611/324
f 357/612/305 355/613/325 351/614/326
f 436/615/327 438/616/328 437/617/329
f 425/618/330 396/619/331 397/620/332
f 292/621/333 291/622/334 287/623/335
f 400/624/336 422/625/337 423/626/338
f 439/627/339 438/616/328 441/628/340
f 328/629/341 339/630/342 342/631/73
f 345/632/343 358/633/344 353/634/304
f 269/580/295 307/579/294 308/635/307
f 385/636/345 383/637/49 378/638/346
f 292/639/333 287/640/335 286/641/347
f 278/642/348 300/643/349 301/644/350
f 268/645/306 269/580/295 308/635/307
f 373/646/351 371/647/352 364/648/324
f 393/649/353 427/650/354 428/651/355
f 379/652/356 383/653/49 386/654/357
f 424/655/12 425/656/330 397/657/332
f 361/658/358 368/659/359 370/660/360
f 311/661/313 310/662/361 312/663/308
f 436/664/327 437/665/329 444/598/312
f 293/666/362 292/639/333 286/641/347
f 367/667/363 365/668/364 360/669/365
f 282/670/366 298/671/315 297/672/367
f 413/673/10 412/674/368 410/675/369
f 227/676/283 219/677/263 223/678/35
f 335/679/286 327/680/370 333/681/371
f 297/672/367 296/682/372 283/683/373
f 346/684/374 355/685/325 353/187/304
f 396/619/331 425/618/330 449/686/375
f 419/687/376 418/688/377 405/689/378
f 373/690/351 360/691/365 370/692/360
f 343/693/379 353/634/304 344/694/380
f 329/695/381 336/696/382 341/697/383
f 418/698/377 417/603/316 406/699/384
f 348/700/385 357/701/305 358/702/344
f 366/703/386 367/704/363 360/705/365
f 431/706/387 422/707/337 401/708/388
f 431/709/387 389/710/389 402/711/390
f 296/712/372 295/713/391 284/714/392
f 291/622/334 290/715/188 288/716/393
f 388/717/394 383/50/49 375/49/48
f 317/718/395 319/719/19 316/720/396
f 363/721/397 369/722/398 366/703/386
f 347/723/399 346/684/374 353/187/304
f 352/724/400 343/725/379 344/726/380
f 391/595/310 429/594/309 430/727/401
f 377/728/402 380/729/403 387/730/404
f 443/731/297 439/732/339 440/733/405
f 412/674/368 435/734/406 402/735/390
f 319/736/19 318/737/302 316/738/396
f 304/739/407 305/607/320 272/740/408
f 414/741/11 409/742/409 408/743/410
f 295/713/391 294/744/411 324/745/412
f 329/746/381 328/747/341 336/384/382
f 390/748/413 391/595/310 430/727/401
f 381/749/414 386/750/357 385/751/345
f 414/741/11 413/752/10 409/742/409
f 392/596/311 393/753/353 428/754/355
f 390/748/413 430/727/401 434/755/415
f 365/668/364 367/667/363 370/756/360
f 343/725/379 349/757/416 346/758/374
f 320/585/300 323/759/21 322/760/417
f 270/581/296 271/761/319 306/762/321
f 433/763/418 432/764/419 434/765/415
f 331/529/287 342/528/73 338/766/420
f 381/767/414 380/768/403 377/769/402
f 394/770/421 447/771/422 426/772/423
f 19/773/233 23/774/91 20/775/288
f 15/776/61 16/697/60 17/777/65
f 309/778/424 300/592/349 279/779/425
f 398/780/426 399/781/427 423/626/338
f 270/782/296 269/783/295 282/784/366
f 287/785/335 277/786/428 276/787/429
f 301/644/350 302/788/265 276/789/429
f 340/790/74 339/791/342 334/792/430
f 315/793/20 317/718/395 316/720/396
f 309/794/424 267/795/431 280/796/190
f 379/652/356 378/797/346 383/653/49
f 314/798/432 318/799/302 321/800/301
f 405/801/378 391/802/310 404/803/433
f 398/804/426 409/805/409 399/806/427
f 404/807/433 420/808/434 419/687/376
f 433/809/418 421/810/435 420/811/434
f 445/597/299 436/664/327 444/598/312
f 413/10/10 424/12/12 423/812/338
f 422/813/337 431/814/387 435/815/406
f 425/816/330 448/817/261 449/818/375
f 422/813/337 435/815/406 412/819/368
f 415/820/262 448/817/261 425/816/330
f 413/10/10 422/813/337 412/819/368
f 423/812/338 422/813/337 413/10/10
f 414/11/11 415/820/262 425/816/330
f 414/11/11 425/816/330 424/12/12
f 54/821/90 49/16/16 46/18/18
f 319/19/19 317/822/395 315/20/20
f 323/21/21 320/823/300 319/19/19
f 11/30/30 13/546/252 12/31/31
f 273/824/436 274/32/32 326/34/34
f 32/825/194 34/826/9 29/827/8
f 29/827/8 27/828/56 32/825/194
f 30/829/92 19/830/233 21/831/232
f 26/832/51 27/828/56 29/827/8
f 30/829/92 26/832/51 29/827/8
f 30/829/92 23/833/91 19/830/233
f 21/831/232 26/832/51 30/829/92
f 227/834/283 223/35/35 220/37/37
f 31/40/7 33/835/193 25/836/52
f 28/39/39 22/38/38 18/837/231
f 20/838/288 23/839/91 24/840/93
f 31/40/7 34/841/9 33/835/193
f 18/837/231 20/838/288 24/840/93
f 18/837/231 24/840/93 28/39/39
f 22/38/38 31/40/7 25/836/52
f 344/842/380 353/843/304 355/844/325
f 356/845/437 354/846/438 344/842/380
f 344/842/380 355/844/325 356/845/437
f 323/847/21 315/848/20 314/849/432
f 374/850/229 375/49/48 376/51/50
f 381/749/414 379/65/356 386/750/357
f 266/851/247 254/55/53 261/57/55
f 14/60/29 16/852/60 8/853/15
f 11/59/30 5/58/14 1/854/41
f 3/855/40 6/856/251 7/857/253
f 14/60/29 17/858/65 16/852/60
f 1/854/41 3/855/40 7/857/253
f 1/854/41 7/857/253 11/59/30
f 5/58/14 14/60/29 8/853/15
f 15/66/61 10/859/22 8/67/15
f 328/860/341 330/861/72 331/862/287
f 28/69/39 30/863/92 29/70/8
f 42/864/71 52/865/186 40/866/108
f 49/867/16 47/868/110 39/869/81
f 44/870/75 42/864/71 40/866/108
f 48/871/17 49/872/16 39/873/81
f 44/870/75 48/874/17 39/875/81
f 39/875/81 42/864/71 44/870/75
f 334/876/430 330/877/72 340/420/74
f 70/878/136 73/146/115 71/145/124
f 97/879/187 98/880/144 106/881/45
f 106/881/45 108/882/28 104/883/27
f 104/883/27 99/884/46 106/881/45
f 103/885/83 99/884/46 104/883/27
f 41/108/80 35/886/79 54/109/90
f 259/887/284 252/542/2 263/888/292
f 257/889/3 261/890/55 260/654/54
f 251/891/59 257/892/3 260/893/54
f 251/706/59 252/542/2 259/887/284
f 251/894/59 260/895/54 256/896/143
f 177/268/202 187/897/274 175/898/271
f 184/899/98 182/900/183 174/901/203
f 179/902/258 177/268/202 175/898/271
f 183/903/197 184/904/98 174/905/203
f 179/902/258 183/906/197 174/269/203
f 174/269/203 177/268/202 179/902/258
f 224/907/264 226/908/174 218/909/173
f 116/910/216 117/911/142 125/912/167
f 125/912/167 127/913/200 123/914/128
f 123/914/128 118/915/195 125/912/167
f 122/916/102 118/915/195 123/914/128
f 139/917/226 148/918/5 137/359/4
f 146/919/222 144/361/131 136/920/227
f 141/921/164 139/917/226 137/359/4
f 145/922/223 146/923/222 136/924/227
f 141/921/164 145/925/223 136/920/227
f 136/920/227 139/917/226 141/921/164
f 61/160/126 55/926/85 74/161/132
f 112/26/26 108/28/28 105/163/134
f 82/927/112 91/928/111 80/929/178
f 89/930/169 87/931/67 79/932/161
f 84/933/159 82/927/112 80/929/178
f 88/934/158 89/935/169 79/936/161
f 84/933/159 88/937/158 79/932/161
f 79/932/161 82/927/112 84/933/159
f 166/191/156 153/938/239 167/189/154
f 169/382/250 151/939/152 153/938/239
f 152/940/99 157/381/207 162/380/206
f 152/940/99 162/380/206 168/941/205
f 159/190/155 152/940/99 168/941/205
f 166/191/156 169/382/250 153/938/239
f 166/191/156 159/190/155 168/941/205
f 147/942/163 149/943/293 141/944/164
f 135/945/235 136/920/227 144/361/131
f 144/361/131 146/919/222 142/946/162
f 142/946/162 137/359/4 144/361/131
f 141/921/164 137/359/4 142/946/162
f 81/206/160 75/947/68 93/207/168
f 93/948/168 89/208/169 86/210/157
f 50/236/95 37/949/109 52/234/186
f 54/109/90 35/886/79 37/949/109
f 36/950/69 41/108/80 46/107/18
f 36/950/69 46/107/18 53/951/77
f 43/235/70 36/950/69 53/951/77
f 50/236/95 54/109/90 37/949/109
f 50/236/95 43/235/70 53/951/77
f 166/952/156 168/953/205 160/954/204
f 289/955/439 290/244/188 280/246/190
f 173/956/182 174/901/203 182/900/183
f 182/900/183 184/899/98 180/957/97
f 186/958/192 179/959/258 175/960/271
f 180/957/97 175/961/271 182/900/183
f 186/962/192 175/961/271 180/957/97
f 32/251/194 27/963/56 25/252/52
f 15/964/61 17/965/65 12/966/31
f 12/966/31 10/967/22 15/964/61
f 13/968/252 2/969/42 4/970/273
f 9/971/13 10/967/22 12/966/31
f 13/968/252 9/971/13 12/966/31
f 13/968/252 6/972/251 2/969/42
f 4/970/273 9/971/13 13/968/252
f 100/257/145 94/973/44 112/258/26
f 189/974/96 184/975/98 181/976/198
f 197/440/148 206/977/88 195/978/87
f 204/979/289 202/980/63 194/441/269
f 199/981/277 197/440/148 195/978/87
f 203/982/276 204/983/289 194/984/269
f 199/981/277 203/985/276 194/441/269
f 194/441/269 197/440/148 199/981/277
f 243/279/212 230/986/221 245/277/210
f 247/537/137 228/987/119 230/986/221
f 229/517/177 234/536/176 239/535/242
f 229/517/177 239/535/242 246/988/244
f 236/278/211 229/517/177 246/988/244
f 243/279/212 247/537/137 230/986/221
f 243/279/212 236/278/211 246/988/244
f 256/283/143 265/285/215 262/989/249
f 38/990/78 39/869/81 47/868/110
f 47/868/110 49/867/16 45/991/94
f 51/992/76 44/993/75 40/994/108
f 45/991/94 40/995/108 47/868/110
f 51/996/76 40/995/108 45/991/94
f 119/300/217 113/997/166 131/301/199
f 150/998/240 146/302/222 143/304/224
f 382/999/440 374/316/229 384/318/230
f 235/1000/228 245/297/210 233/296/220
f 242/1001/139 240/548/118 232/1002/175
f 237/1003/243 235/1000/228 233/296/220
f 241/1004/241 242/873/139 232/1005/175
f 237/1003/243 241/1006/241 232/1002/175
f 232/1002/175 235/1000/228 237/1003/243
f 70/327/136 57/1007/84 72/325/208
f 74/161/132 55/926/85 57/1007/84
f 56/1008/120 61/160/126 66/159/116
f 56/1008/120 66/159/116 73/1009/115
f 63/326/121 56/1008/120 73/1009/115
f 70/327/136 74/161/132 57/1007/84
f 70/327/136 63/326/121 73/1009/115
f 243/464/212 246/1010/244 244/465/279
f 58/1011/125 59/1012/127 67/1013/86
f 67/1013/86 69/1014/254 65/1015/135
f 71/1016/124 64/1017/114 60/1018/147
f 65/1015/135 60/1019/147 67/1013/86
f 71/1020/124 60/1019/147 65/1015/135
f 249/1021/246 252/2/2 255/1/1
f 138/343/236 132/1022/130 150/344/240
f 247/1023/137 242/345/139 239/347/242
f 253/1024/291 259/1025/284 263/1026/292
f 254/568/53 258/63/58 248/62/57
f 265/371/215 263/1027/292 249/369/246
f 264/1028/214 254/568/53 248/62/57
f 264/1028/214 248/62/57 253/555/291
f 265/371/215 264/1028/214 253/555/291
f 249/369/246 255/1029/1 266/370/247
f 265/371/215 253/555/291 263/1027/292
f 50/1030/95 53/91/77 51/90/76
f 262/1031/249 261/890/55 257/889/3
f 257/1032/3 251/1033/59 250/1034/245
f 252/375/2 251/1035/59 256/376/143
f 262/1031/249 257/889/3 252/1036/2
f 157/381/207 151/939/152 169/382/250
f 74/504/132 69/386/254 66/388/116
f 62/1037/122 72/1038/208 60/1039/147
f 69/1014/254 67/1013/86 59/1012/127
f 64/1040/114 62/1037/122 60/1039/147
f 68/1041/123 69/936/254 59/983/127
f 64/1040/114 68/1042/123 59/1043/127
f 59/1043/127 62/1037/122 64/1040/114
f 109/408/82 96/1044/43 110/406/47
f 112/258/26 94/973/44 96/1044/43
f 95/1045/146 100/257/145 105/256/134
f 95/1045/146 105/256/134 111/1046/290
f 102/407/185 95/1045/146 111/1046/290
f 109/408/82 112/258/26 96/1044/43
f 109/408/82 102/407/185 111/1046/290
f 109/99/82 111/1047/290 103/100/83
f 408/1048/410 407/417/260 415/419/262
f 212/1049/272 213/704/105 221/1050/219
f 221/1050/219 223/1051/35 219/1052/263
f 219/1052/263 214/1053/23 221/1050/219
f 218/1054/173 214/1055/23 219/1056/263
f 26/52/51 21/1057/232 22/53/38
f 276/1058/429 302/425/265 275/426/266
f 176/428/256 170/1059/184 189/429/96
f 205/432/267 192/1060/89 206/430/88
f 208/472/280 190/1061/64 192/1060/89
f 191/1062/268 196/471/278 201/470/275
f 191/1062/268 201/470/275 207/1063/285
f 198/431/149 191/1062/268 207/1063/285
f 205/432/267 208/472/280 192/1060/89
f 205/432/267 198/431/149 207/1063/285
f 120/1064/141 129/1065/196 118/915/195
f 127/913/200 125/912/167 117/911/142
f 122/916/102 120/1064/141 118/915/195
f 126/1066/213 127/1067/200 117/904/142
f 122/916/102 126/1068/213 117/911/142
f 117/911/142 120/1064/141 122/916/102
f 185/454/191 172/1069/237 187/452/274
f 189/429/96 170/1059/184 172/1069/237
f 171/1070/201 176/428/256 181/427/198
f 171/1070/201 181/427/198 188/1071/259
f 178/453/257 171/1070/201 188/1071/259
f 185/454/191 189/429/96 172/1069/237
f 185/454/191 178/453/257 188/1071/259
f 231/1072/117 232/1002/175 240/548/118
f 240/548/118 242/1001/139 238/1073/138
f 244/1074/279 237/1075/243 233/1076/220
f 238/1073/138 233/296/220 240/548/118
f 244/1077/279 233/296/220 238/1073/138
f 196/471/278 190/1061/64 208/472/280
f 169/1078/250 165/473/281 162/475/206
f 193/1079/62 194/441/269 202/980/63
f 202/980/63 204/979/289 200/1080/282
f 200/1080/282 195/978/87 202/980/63
f 199/981/277 195/978/87 200/1080/282
f 158/1081/100 167/1082/154 156/1083/238
f 165/1084/281 163/1085/151 155/1086/101
f 160/1087/204 158/1081/100 156/1083/238
f 164/1088/248 165/1089/281 155/935/101
f 160/1087/204 164/1090/248 155/1086/101
f 155/1086/101 158/1081/100 160/1087/204
f 128/490/129 115/1091/165 129/488/196
f 131/301/199 113/997/166 115/1091/165
f 114/358/140 119/300/217 124/299/104
f 114/358/140 124/299/104 130/1092/103
f 121/489/209 114/358/140 130/1092/103
f 128/490/129 131/301/199 115/1091/165
f 128/490/129 121/489/209 130/1092/103
f 90/1093/171 92/1094/270 84/1095/159
f 215/498/106 209/1096/218 227/499/283
f 131/1097/199 127/500/200 124/280/104
f 224/520/264 211/1098/25 225/519/24
f 227/499/283 209/1096/218 211/1098/25
f 210/485/107 215/498/106 220/497/37
f 210/485/107 220/497/37 226/1099/174
f 217/486/181 210/485/107 226/1099/174
f 224/520/264 227/499/283 211/1098/25
f 224/520/264 217/486/181 226/1099/174
f 205/1100/267 207/410/285 199/1101/277
f 327/863/370 335/527/286 331/529/287
f 154/1102/150 155/1086/101 163/1085/151
f 163/1085/151 165/1084/281 161/1103/255
f 161/1103/255 156/1083/238 163/1085/151
f 160/1087/204 156/1083/238 161/1103/255
f 234/536/176 228/987/119 247/537/137
f 147/539/163 134/1104/6 148/538/5
f 150/344/240 132/1022/130 134/1104/6
f 133/322/225 138/343/236 143/342/224
f 133/322/225 143/342/224 149/1105/293
f 140/323/234 133/322/225 149/1105/293
f 147/539/163 150/344/240 134/1104/6
f 147/539/163 140/323/234 149/1105/293
f 208/1106/280 204/540/289 201/542/275
f 216/552/180 225/1107/24 214/1108/23
f 223/1051/35 221/1050/219 213/704/105
f 218/1109/173 216/552/180 214/1108/23
f 222/1110/36 223/924/35 213/1111/105
f 218/1109/173 222/1112/36 213/553/105
f 213/553/105 216/552/180 218/1109/173
f 101/1113/172 110/1114/47 99/884/46
f 108/882/28 106/881/45 98/880/144
f 103/885/83 101/1113/172 99/884/46
f 107/1115/133 108/1116/28 98/923/144
f 103/885/83 107/1117/133 98/880/144
f 98/880/144 101/1113/172 103/885/83
f 90/560/171 77/1118/179 91/558/111
f 93/207/168 75/947/68 77/1118/179
f 76/1119/153 81/206/160 86/205/157
f 76/1119/153 86/205/157 92/1120/270
f 83/559/113 76/1119/153 92/1120/270
f 90/560/171 93/207/168 77/1118/179
f 90/560/171 83/559/113 92/1120/270
f 185/1121/191 188/414/259 186/413/192
f 78/1122/66 79/932/161 87/931/67
f 87/931/67 89/930/169 85/1123/170
f 85/1123/170 80/929/178 87/931/67
f 84/933/159 80/929/178 85/1123/170
f 258/63/58 266/370/247 255/1029/1
f 265/1124/215 266/1125/247 262/1126/249
f 128/1127/129 130/1128/103 122/1129/102
f 374/1130/229 380/768/403 378/1131/346
f 374/1130/229 382/1132/440 380/768/403
f 377/769/402 379/1133/356 381/767/414
f 375/1134/48 374/1130/229 378/1131/346
f 375/1134/48 379/1133/356 377/769/402
f 375/1134/48 378/1131/346 379/1133/356
f 310/1135/361 268/591/306 312/593/308
f 350/588/303 347/1136/399 353/589/304
f 281/1137/441 311/600/313 298/602/315
f 406/699/384 417/603/316 446/605/318
f 364/611/324 365/1138/364 362/609/322
f 359/610/323 360/1139/365 364/611/324
f 364/611/324 361/1140/358 365/1138/364
f 362/609/322 363/1141/397 359/610/323
f 439/627/339 437/617/329 438/616/328
f 370/1142/360 368/1143/359 365/396/364
f 399/781/427 400/624/336 423/626/338
f 288/716/393 290/715/188 289/1144/439
f 330/590/72 328/629/341 342/631/73
f 343/693/379 345/632/343 353/634/304
f 331/529/287 338/766/420 328/1145/341
f 393/649/353 394/770/421 427/650/354
f 277/1146/428 278/642/348 301/644/350
f 319/736/19 320/663/300 318/737/302
f 360/589/365 373/646/351 364/648/324
f 350/1147/303 357/1148/305 351/1149/326
f 368/1150/359 364/1151/324 371/1152/352
f 439/1153/339 441/1154/340 440/1155/405
f 398/780/426 424/655/12 397/657/332
f 443/582/297 440/1156/405 442/583/298
f 339/791/342 329/1157/381 334/792/430
f 368/659/359 361/658/358 364/1158/324
f 338/1159/420 342/1160/73 339/1161/342
f 338/1159/420 339/1161/342 336/1162/382
f 336/1163/382 328/1164/341 338/1165/420
f 299/1166/314 311/661/313 312/663/308
f 285/1167/442 293/666/362 286/641/347
f 348/1168/385 351/1169/326 349/757/416
f 350/1170/303 351/1169/326 348/1168/385
f 345/1171/343 347/1172/399 350/1170/303
f 345/1171/343 343/725/379 347/1172/399
f 345/1171/343 350/1170/303 348/1168/385
f 337/1173/443 335/679/286 333/681/371
f 282/670/366 297/672/367 283/683/373
f 404/807/433 403/1174/444 420/808/434
f 410/1175/369 409/742/409 413/752/10
f 274/32/32 275/426/266 303/33/33
f 360/691/365 361/1176/358 370/692/360
f 395/1177/445 396/619/331 449/686/375
f 404/807/433 419/687/376 405/689/378
f 351/614/326 355/613/325 346/1178/374
f 377/1179/402 388/1180/394 375/1181/48
f 332/1182/446 329/695/381 341/697/383
f 288/716/393 287/623/335 291/622/334
f 329/1183/381 339/1184/342 328/1185/341
f 405/1186/378 418/698/377 406/699/384
f 345/1187/343 348/700/385 358/702/344
f 359/1188/323 366/703/386 360/705/365
f 368/1143/359 362/1189/322 365/396/364
f 362/1189/322 368/1143/359 372/1190/447
f 410/675/369 412/674/368 411/1191/448
f 389/1192/389 431/706/387 401/708/388
f 435/1193/406 431/709/387 402/711/390
f 367/1194/363 373/1195/351 370/1196/360
f 357/701/305 348/700/385 349/1197/416
f 349/1197/416 356/1198/437 357/701/305
f 283/1199/373 296/712/372 284/714/392
f 366/1200/386 373/1195/351 367/1194/363
f 371/1201/352 373/1195/351 366/1200/386
f 372/1202/447 368/1203/359 371/1201/352
f 372/1202/447 371/1201/352 366/1200/386
f 366/1200/386 369/1204/398 372/1202/447
f 340/1205/74 341/1206/383 336/1162/382
f 341/1206/383 335/1207/286 337/1208/443
f 336/1162/382 339/1161/342 340/1205/74
f 340/1205/74 342/1160/73 335/1207/286
f 341/1206/383 340/1205/74 335/1207/286
f 359/1188/323 363/721/397 366/703/386
f 354/1209/438 352/1210/400 344/124/380
f 427/1211/354 416/1212/317 417/1213/316
f 430/1214/401 421/1215/435 434/1216/415
f 427/1211/354 426/1217/423 416/1212/317
f 430/1214/401 420/1218/434 421/1215/435
f 428/1219/355 417/1213/316 418/1220/377
f 419/1221/376 420/1218/434 430/1214/401
f 428/1219/355 427/1211/354 417/1213/316
f 419/1221/376 430/1214/401 429/1222/309
f 418/1220/377 419/1221/376 429/1222/309
f 418/1220/377 429/1222/309 428/1219/355
f 387/730/404 388/1223/394 377/728/402
f 443/731/297 444/1224/312 437/1225/329
f 439/732/339 443/731/297 437/1225/329
f 378/1226/346 381/1227/414 385/1228/345
f 411/1191/448 412/674/368 402/735/390
f 322/1229/417 323/847/21 314/849/432
f 325/1230/449 304/739/407 272/740/408
f 415/1231/262 414/741/11 408/743/410
f 327/1232/370 332/1233/446 333/1234/371
f 330/861/72 327/1232/370 331/862/287
f 334/1235/430 327/1232/370 330/861/72
f 334/1235/430 329/1236/381 332/1233/446
f 332/1233/446 327/1232/370 334/1235/430
f 400/1237/336 401/708/388 422/707/337
f 284/714/392 295/713/391 324/745/412
f 282/670/366 281/1238/441 298/671/315
f 429/594/309 392/596/311 428/754/355
f 432/1239/419 390/748/413 434/755/415
f 346/758/374 347/1172/399 343/725/379
f 349/757/416 351/1169/326 346/758/374
f 343/725/379 352/724/400 349/757/416
f 387/1240/404 384/1241/230 376/1242/50
f 376/1242/50 385/1243/345 387/1240/404
f 376/1242/50 383/1244/49 385/1243/345
f 388/1245/394 387/1240/404 385/1243/345
f 388/1245/394 385/1243/345 386/1246/357
f 388/1245/394 386/1246/357 383/1244/49
f 321/586/301 320/585/300 322/760/417
f 307/579/294 270/581/296 306/762/321
f 421/1247/435 433/763/418 434/765/415
f 356/845/437 355/844/325 357/1248/305
f 357/1249/305 353/1250/304 358/1251/344
f 32/378/194 33/1252/193 34/1253/9
f 380/768/403 381/767/414 378/1131/346
f 427/650/354 394/770/421 426/772/423
f 441/1154/340 442/1254/298 440/1155/405
f 267/1255/431 309/778/424 279/779/425
f 424/655/12 398/780/426 423/626/338
f 2/533/42 6/1256/251 3/1257/40
f 300/1258/349 313/1259/189 290/1260/188
f 303/1261/33 293/1262/362 326/1263/34
f 292/1264/333 293/1262/362 303/1261/33
f 300/1258/349 309/1265/424 313/1259/189
f 292/1264/333 303/1261/33 302/1266/265
f 300/1258/349 290/1260/188 291/1267/334
f 291/1267/334 292/1264/333 302/1266/265
f 301/1268/350 300/1258/349 291/1267/334
f 291/1267/334 302/1266/265 301/1268/350
f 283/1269/373 271/1270/319 270/782/296
f 284/1271/392 272/1272/408 271/1270/319
f 272/1272/408 324/1273/412 325/1274/449
f 268/1275/306 311/1276/313 281/1277/441
f 284/1271/392 324/1273/412 272/1272/408
f 268/1275/306 281/1277/441 282/784/366
f 268/1275/306 310/1278/361 311/1276/313
f 283/1269/373 284/1271/392 271/1270/319
f 269/783/295 268/1275/306 282/784/366
f 282/784/366 283/1269/373 270/782/296
f 279/1279/425 280/1280/190 267/1281/431
f 274/1282/32 285/1283/442 286/1284/347
f 279/1279/425 289/1285/439 280/1280/190
f 274/1282/32 273/1286/436 285/1283/442
f 288/1287/393 289/1285/439 279/1279/425
f 275/1288/266 274/1282/32 286/1284/347
f 288/1287/393 279/1279/425 278/1289/348
f 276/787/429 286/1284/347 287/785/335
f 276/787/429 275/1288/266 286/1284/347
f 288/1287/393 278/1289/348 277/786/428
f 287/785/335 288/1287/393 277/786/428
f 277/1146/428 301/644/350 276/789/429
f 278/1289/348 279/1279/425 300/1290/349
f 365/1138/364 361/1140/358 360/1139/365
f 314/849/432 315/793/20 316/720/396
f 313/764/189 309/794/424 280/796/190
f 321/800/301 322/1291/417 314/798/432
f 314/798/432 316/1292/396 318/799/302
f 405/801/378 393/1293/353 392/1294/311
f 406/1295/384 394/1296/421 393/1293/353
f 394/1296/421 446/1297/318 447/1298/422
f 390/1299/413 433/1300/418 403/1301/444
f 406/1295/384 446/1297/318 394/1296/421
f 390/1299/413 403/1301/444 404/803/433
f 390/1299/413 432/1302/419 433/1300/418
f 405/801/378 406/1295/384 393/1293/353
f 391/802/310 390/1299/413 404/803/433
f 391/802/310 405/801/378 392/1294/311
f 409/805/409 398/804/426 397/1303/332
f 410/1304/369 400/1305/336 399/806/427
f 402/1306/390 389/1307/389 401/1308/388
f 396/1309/331 407/1310/260 408/1311/410
f 411/1312/448 402/1306/390 401/1308/388
f 396/1309/331 395/1313/445 407/1310/260
f 410/1304/369 411/1312/448 401/1308/388
f 410/1304/369 401/1308/388 400/1305/336
f 397/1303/332 396/1309/331 408/1311/410
f 397/1303/332 408/1311/410 409/805/409
f 409/805/409 410/1304/369 399/806/427
f 436/1314/327 445/1315/299 442/1316/298
f 436/1314/327 442/1316/298 441/1317/340
f 441/1317/340 438/1318/328 436/1314/327
f 403/1319/444 433/809/418 420/811/434
f 271/606/319 272/740/408 305/607/320
f 305/1320/320 294/1321/411 295/1322/391
f 308/1323/307 299/1324/314 312/1325/308
f 305/1320/320 304/1326/407 294/1321/411
f 308/1323/307 298/1327/315 299/1324/314
f 305/1320/320 295/1322/391 296/1328/372
f 297/1329/367 298/1327/315 308/1323/307
f 306/1330/321 305/1320/320 296/1328/372
f 297/1329/367 308/1323/307 307/1331/294
f 296/1328/372 297/1329/367 307/1331/294
f 296/1328/372 307/1331/294 306/1330/321
