# Blender v2.75 (sub 0) OBJ File: 'ribs.blend'
# www.blender.org
mtllib ribs_18.mtl
o fuscc.010_fuscc.068
v 2.043250 10.226542 -5.487240
v 1.931134 10.599410 -5.433456
v 1.936034 10.285842 -5.665443
v 2.047004 10.033523 -5.717937
v 3.134768 10.091193 -7.684830
v 3.002273 10.407152 -7.821503
v 3.186793 10.061893 -8.018871
v 3.334443 9.792768 -7.896465
v 13.171542 2.774573 0.647391
v 12.955317 1.887374 2.314536
v 12.866759 2.095413 2.279135
v 12.780883 2.260669 2.264826
v 13.263858 3.356742 -0.653028
v 13.230157 3.168796 -0.722928
v 13.183059 2.723258 0.636687
v 6.724605 8.983896 -8.982998
v 6.778184 9.121315 -8.804504
v 5.930186 9.443714 -8.903221
v 5.888659 9.366722 -8.939014
v 7.562720 8.416872 -8.842918
v 7.371638 8.065495 -8.867512
v 9.003842 7.690582 -8.086746
v 9.008540 7.744377 -8.064541
v 11.187640 6.633882 -6.489960
v 11.155265 6.177199 -6.462685
v 12.401557 5.488528 -4.702443
v 12.387958 5.534244 -4.693841
v 12.268497 5.645741 -4.642533
v 12.381278 6.211795 -4.599995
v 10.981478 6.908622 -6.377625
v 11.180371 6.686227 -6.475007
v 6.061158 9.931488 -9.211563
v 6.138125 10.136629 -9.131500
v 7.305381 9.691208 -9.344856
v 6.993819 9.205276 -9.503544
v 5.732886 9.031479 -9.102837
v 5.281701 9.352156 -8.935944
v 5.905885 9.505419 -9.376953
v 6.769471 8.907070 -9.415623
v 9.417567 7.935892 -8.271881
v 7.631396 8.371288 -9.120903
v 7.920695 8.718813 -9.257843
v 8.043679 8.931841 -9.192993
v 2.122655 10.222535 -5.480358
v 2.014585 10.599645 -5.423855
v 2.095946 10.027574 -5.626488
v 2.472407 10.540336 -5.893127
v 2.063622 10.887168 -5.443211
v 1.945430 10.800364 -5.445923
v 2.182242 11.101139 -5.633240
v 2.471152 11.402122 -6.034309
v 2.195836 11.225267 -5.824379
v 2.090652 11.101424 -5.825291
v 1.825034 10.309657 -6.163071
v 1.952695 10.029506 -6.067730
v 1.810130 10.311128 -6.061909
v 1.751351 10.717801 -6.152882
v 1.962440 10.992940 -6.022316
v 2.041184 11.096043 -6.067211
v 1.772252 10.707107 -6.254101
v 2.363570 9.953736 -6.097313
v 2.471841 10.058343 -5.966988
v 2.205657 9.899085 -5.724419
v 2.147925 9.910270 -5.991344
v 1.955789 10.330794 -6.332359
v 1.862781 10.691056 -6.355034
v 2.126649 10.661548 -6.631733
v 3.518630 9.682918 -7.514351
v 3.261552 9.842883 -7.339874
v 3.379838 9.710055 -7.533623
v 3.500821 9.714450 -7.880016
v 3.789479 9.743937 -7.721973
v 4.613366 9.741173 -8.370045
v 3.885756 9.802543 -7.690430
v 3.679193 9.751323 -7.388390
v 2.936307 10.191592 -7.235695
v 2.836816 10.307929 -7.123848
v 2.859157 10.325833 -7.361382
v 2.921334 10.246030 -7.376659
v 3.501027 9.817953 -8.131516
v 3.940040 9.840696 -8.192009
v 3.581262 9.702758 -7.870907
v 2.211640 10.146037 -6.557274
v 2.328204 10.003964 -6.471386
v 2.071185 10.036275 -6.297173
v 2.816888 10.689513 -7.332066
v 3.013453 10.480186 -7.838676
v 2.931081 10.489035 -7.607311
v 5.445867 9.649763 -8.599216
v 5.402627 9.585007 -8.653522
v 6.034062 9.557470 -8.630459
v 2.478124 10.229733 -5.896175
v 2.174621 10.030448 -5.588543
v 13.267486 2.563892 0.634493
v 13.176909 2.579784 0.594367
v 12.533931 1.440425 3.678706
v 12.146140 1.073333 4.470595
v 12.341582 0.810615 4.599658
v 12.430617 1.662784 4.936110
v 6.478488 8.587315 -9.041679
v 7.381166 8.079937 -8.958603
v 9.058402 7.287324 -8.074032
v 3.897265 9.896843 -8.317574
v 4.564008 10.189867 -8.824917
v 4.496701 9.734531 -8.624409
v 4.522378 9.674725 -8.519794
v 11.365617 7.824828 -6.339493
v 12.618226 6.670712 -4.487084
v 11.444332 7.834226 -6.382027
v 9.660846 8.746968 -8.047195
v 8.247754 9.408918 -8.978867
v 8.258046 9.292665 -9.075752
v 6.170360 10.197336 -9.019440
v 7.336156 9.774212 -9.237442
v 5.641915 10.375452 -8.885357
v 4.229678 10.927038 -7.959915
v 4.910308 10.679413 -8.359104
v 4.225919 10.909592 -8.092548
v 3.285108 11.068066 -7.561066
v 3.068746 11.158604 -7.418911
v 2.922305 11.258393 -7.367893
v 3.020555 11.228917 -7.297153
v 3.371020 11.097160 -7.439686
v 12.202064 1.596416 4.547076
v 12.176204 1.389873 4.471083
v 12.687936 1.246025 3.769469
v 13.043790 1.854175 2.385993
v 12.809936 1.536815 3.930838
v 12.468951 1.021514 4.845793
v 12.551082 2.044883 3.812823
v 12.611918 2.178894 3.927187
v 12.903749 2.811987 2.461432
v 12.822923 2.613914 2.336131
v 13.152173 2.151725 2.536356
v 13.033469 2.950682 2.615550
v 13.311770 3.645972 1.021582
v 13.204185 2.617877 2.657317
v 12.822898 1.929988 4.057005
v 13.483199 2.859111 0.842326
v 13.185246 3.788307 -2.064500
v 12.400260 5.154187 -4.732907
v 13.400985 4.221542 -1.879468
v 13.504272 3.505576 -0.533467
v 13.227923 3.912246 -0.458973
v 13.319852 4.965404 -1.588566
v 13.114039 4.622451 -1.825963
v 13.040832 4.247406 -1.964684
v 13.492339 4.294211 -0.267732
v 13.395446 3.644061 1.064040
v 13.587333 4.029601 -0.316697
v 13.471705 4.734169 -1.718247
v 13.157947 4.104244 -1.973412
v 13.145686 4.150459 -1.964139
v 12.364532 5.151126 -4.722489
v 12.627913 5.687863 -4.742630
v 11.373399 6.875552 -6.582901
v 12.759320 6.380292 -4.663914
v 11.185151 6.182731 -6.497521
v 11.545239 7.647719 -6.517506
v 7.255599 9.777210 -8.948380
v 6.173188 9.715040 -8.684444
v 6.977889 9.432796 -8.827740
v 7.843274 8.990913 -8.719227
v 6.700736 8.939476 -9.008648
v 7.577483 8.466948 -8.819294
v 7.608933 8.621332 -8.614994
v 5.349917 9.812708 -9.148632
v 5.546880 9.740461 -8.415855
v 5.648709 9.927872 -8.397671
v 4.853093 10.162764 -8.024010
v 4.296920 10.714315 -7.831543
v 4.989314 10.463367 -8.204285
v 3.365401 10.117388 -8.334850
v 3.849084 10.451523 -8.412376
v 3.926661 10.174906 -8.515266
v 2.644139 10.279086 -6.981239
v 2.755715 10.417470 -7.154606
v 3.434606 10.849450 -7.257240
v 2.598565 11.052187 -7.225204
v 2.588006 10.968209 -7.219505
v 2.490832 11.366025 -6.722015
v 2.530211 11.381090 -6.950207
v 3.053235 10.599374 -6.721970
v 2.947087 10.960485 -6.885521
v 2.713803 11.094809 -6.382641
v 2.552022 10.727174 -7.178146
v 2.530038 10.419801 -7.033604
v 2.144597 10.759818 -6.673271
v 2.566064 11.391834 -6.610516
v 2.690713 10.226472 -6.189545
v 3.094996 10.239295 -6.640198
v 2.729806 10.471522 -6.263641
v 1.947717 10.606057 -5.637333
v 1.835511 10.306731 -5.932613
v 1.969228 10.031911 -5.912884
v 2.161534 10.355247 -6.595703
v 3.266995 9.821868 -7.583168
v 5.496770 10.110273 -9.020355
v 4.782376 10.500416 -8.555000
v 9.230247 8.263162 -7.896049
v 11.103266 7.313729 -6.360516
v 9.587844 8.734210 -7.964973
v 8.098405 9.438854 -8.801136
v 9.022374 7.299736 -8.025993
v 13.254443 3.405612 -0.639596
v 13.103042 3.804058 -2.082982
v 13.110045 2.909747 2.659907
v 13.485118 3.347812 1.002932
v 12.460132 1.535938 3.658152
v 12.505372 1.855163 3.692656
v 12.263738 1.662231 4.710146
v 12.352595 1.727985 4.859629
v 12.653775 2.218948 3.980196
v 2.643695 10.076232 -6.205376
v 1.856280 10.663171 -5.922752
v 1.972632 10.808629 -5.639755
v 1.936431 10.903108 -5.876175
v 3.187501 10.827353 -7.545952
v 3.201364 10.753532 -7.667789
v 2.573649 10.845756 -7.218403
v 3.180678 9.942616 -7.381157
v 3.011130 10.116303 -7.284199
v 2.955157 10.400257 -7.604321
v 3.066619 10.159301 -7.471642
v 13.081719 2.930022 0.655055
v 13.085885 3.318446 0.787234
v 13.201261 3.503592 0.917483
v 4.711484 9.822168 -8.210175
v 13.158406 3.549644 -0.618356
v 9.078103 7.940172 -7.856857
v 6.483127 8.565897 -9.129070
v 9.580873 8.411204 -8.180595
v 3.078595 10.458236 -6.682709
v 3.506478 10.457065 -7.098701
v 2.117246 10.972355 -5.475990
v 2.577085 11.167475 -5.869030
v 2.061086 11.007071 -5.671143
v 2.158460 9.925900 -5.721443
v 2.080701 9.940190 -5.921661
v 2.195418 9.940391 -6.225513
v 2.464574 10.035661 -6.356152
v 2.117665 11.054955 -6.247368
v 2.562148 10.876916 -5.816078
v 2.770083 10.751229 -6.232769
v 2.333034 11.385995 -6.181213
v 2.294404 11.022288 -6.660606
v 4.715562 10.393723 -8.636158
v 3.177136 10.928578 -7.518040
v 4.110744 10.756075 -8.123684
v 3.976218 10.579361 -8.242226
v 3.629785 9.721072 -7.433868
v 3.156980 10.331989 -8.217571
v 3.203322 10.406713 -8.259388
v 3.303166 10.070681 -8.261650
v 3.435649 9.808519 -8.077171
v 3.260568 9.873143 -7.280563
v 2.011203 10.893626 -5.486202
v 2.816697 11.290386 -7.096905
v 2.715133 11.322599 -7.207985
v 2.972795 11.062772 -7.432190
v 4.862107 10.658138 -8.462814
v 3.423615 9.876521 -7.178242
v 3.388682 9.857427 -7.225475
v 3.786023 9.857564 -7.285477
v 3.476789 9.937448 -7.024261
v 4.811681 9.914190 -8.049202
v 4.143376 10.109000 -7.599125
v 4.052022 9.925780 -7.632923
v 3.032813 10.076552 -6.696808
v 12.619666 1.252719 3.702086
v 2.844066 11.203653 -7.412052
v 12.399894 0.798107 4.688376
v 13.345263 3.178809 -0.689748
v 5.729417 9.034952 -8.998676
v 5.287091 9.342321 -8.825218
v 2.886847 10.137197 -6.970299
v 3.132268 10.063245 -7.121696
v 12.732085 2.190849 4.044062
v 13.399970 4.268504 -0.310887
v 12.695300 6.684836 -4.506978
v 13.405120 4.975993 -1.551945
v 5.678393 10.408993 -8.799900
v 12.487193 1.394729 4.967223
v 9.649400 8.605748 -8.138943
v 6.325074 10.101616 -8.859962
v 5.776546 10.239504 -8.610733
v 3.523353 10.124017 -6.996410
v 4.219981 10.395243 -7.679550
v 2.611472 11.242728 -7.290943
v 2.948733 10.113418 -6.868748
v 1.923327 10.035939 -5.973602
v 12.222621 1.201175 4.851763
vt 0.429142 0.772395
vt 0.412302 0.760804
vt 0.434723 0.761874
vt 0.526439 0.733857
vt 0.544957 0.739909
vt 0.529674 0.753029
vt 0.593308 0.715362
vt 0.592699 0.701747
vt 0.593308 0.690559
vt 0.973996 0.198093
vt 0.980648 0.112327
vt 0.983441 0.113043
vt 0.779086 0.735777
vt 0.785990 0.736180
vt 0.777385 0.790626
vt 0.852868 0.778003
vt 0.875556 0.780451
vt 0.859568 0.862247
vt 0.970468 0.595647
vt 0.993467 0.477444
vt 0.995881 0.478144
vt 0.393228 0.648457
vt 0.376369 0.787502
vt 0.363981 0.777052
vt 0.394345 0.246978
vt 0.404221 0.250360
vt 0.386243 0.323445
vt 0.079481 0.790897
vt 0.100239 0.816538
vt 0.056800 0.803683
vt 0.688476 0.983692
vt 0.668712 0.997765
vt 0.654013 0.998761
vt 0.883292 0.021157
vt 0.864324 0.007182
vt 0.884219 0.016842
vt 0.854896 0.041467
vt 0.847062 0.004811
vt 0.830823 0.010565
vt 0.804467 0.027652
vt 0.821287 0.012261
vt 0.453648 0.737723
vt 0.460639 0.752760
vt 0.450114 0.742428
vt 0.415800 0.718133
vt 0.401704 0.723117
vt 0.411590 0.712018
vt 0.334546 0.888334
vt 0.356451 0.889691
vt 0.345018 0.899735
vt 0.331368 0.929661
vt 0.338558 0.946847
vt 0.330698 0.944865
vt 0.226170 0.870034
vt 0.242100 0.881896
vt 0.229566 0.877743
vt 0.568852 0.703857
vt 0.568852 0.763909
vt 0.565931 0.708819
vt 0.255418 0.904167
vt 0.263390 0.909143
vt 0.250744 0.914897
vt 0.195153 0.891015
vt 0.177601 0.872946
vt 0.206283 0.877123
vt 0.313154 0.918479
vt 0.314618 0.906753
vt 0.331452 0.914969
vt 0.552804 0.710474
vt 0.549498 0.739973
vt 0.546102 0.727370
vt 0.856367 0.630560
vt 0.859985 0.631288
vt 0.847802 0.665156
vt 0.872341 0.047661
vt 0.454402 0.773401
vt 0.454402 0.779263
vt 0.448682 0.777480
vt 0.931304 0.168988
vt 0.923454 0.164468
vt 0.914804 0.157801
vt 0.044407 0.681216
vt 0.061278 0.742074
vt 0.039471 0.683594
vt 0.433725 0.809670
vt 0.429787 0.779568
vt 0.433725 0.773401
vt 0.518170 0.571071
vt 0.594145 0.648457
vt 0.516441 0.575854
vt 0.402787 0.380858
vt 0.442210 0.467357
vt 0.394633 0.382301
vt 0.411959 0.251736
vt 0.394291 0.324626
vt 0.479666 0.128727
vt 0.454640 0.171886
vt 0.472037 0.128885
vt 0.509931 0.056422
vt 0.514616 0.046969
vt 0.518101 0.052883
vt 0.692955 0.062346
vt 0.686977 0.150115
vt 0.671921 0.060122
vt 0.730219 0.825149
vt 0.719393 0.827804
vt 0.719455 0.732268
vt 0.686094 0.261473
vt 0.666045 0.148769
vt 0.706289 0.737113
vt 0.637699 0.153796
vt 0.647932 0.063298
vt 0.684352 0.439803
vt 0.685196 0.625658
vt 0.653764 0.439222
vt 0.704800 0.456238
vt 0.731878 0.452294
vt 0.756017 0.454887
vt 0.611448 0.353071
vt 0.616865 0.264979
vt 0.625171 0.348168
vt 0.996491 0.291006
vt 0.974504 0.470347
vt 0.653566 0.638115
vt 0.652060 0.778235
vt 0.612948 0.650623
vt 0.689800 0.757276
vt 0.664626 0.912417
vt 0.606890 0.793197
vt 0.429787 0.811958
vt 0.424659 0.797974
vt 0.429787 0.773401
vt 0.786769 0.370670
vt 0.810324 0.307911
vt 0.812030 0.359823
vt 0.846532 0.720237
vt 0.849032 0.720865
vt 0.850316 0.776771
vt 0.138669 0.855571
vt 0.084136 0.832168
vt 0.821876 0.268459
vt 0.822054 0.302307
vt 0.809907 0.270219
vt 0.813512 0.215743
vt 0.792215 0.220670
vt 0.779360 0.214937
vt 0.567631 0.796820
vt 0.559592 0.782962
vt 0.567631 0.763909
vt 0.276988 0.913468
vt 0.263734 0.916841
vt 0.790777 0.106860
vt 0.790499 0.082711
vt 0.805996 0.111867
vt 0.450819 0.662303
vt 0.416377 0.670565
vt 0.423437 0.659245
vt 0.832529 0.086450
vt 0.811785 0.076655
vt 0.277116 0.924156
vt 0.308535 0.939120
vt 0.305179 0.942196
vt 0.554200 0.671187
vt 0.531817 0.656922
vt 0.553657 0.648457
vt 0.865681 0.064420
vt 0.853231 0.094094
vt 0.850318 0.063239
vt 0.419209 0.750968
vt 0.445172 0.748638
vt 0.311384 0.927795
vt 0.230001 0.887471
vt 0.212455 0.891795
vt 0.406865 0.211638
vt 0.438956 0.165553
vt 0.421525 0.218689
vt 0.872525 0.721924
vt 0.854331 0.489385
vt 0.897357 0.583642
vt 0.821286 0.501353
vt 0.997627 0.608803
vt 0.980330 0.729747
vt 0.961237 0.716691
vt 0.988861 0.199262
vt 0.994014 0.290336
vt 0.974706 0.289151
vt 0.623580 0.161905
vt 0.632630 0.259962
vt 0.592699 0.714899
vt 0.590405 0.709987
vt 0.592699 0.690559
vt 0.961237 0.632718
vt 0.914634 0.448931
vt 0.922368 0.451139
vt 0.439400 0.778793
vt 0.448682 0.773401
vt 0.448682 0.785568
vt 0.446151 0.768930
vt 0.442291 0.773401
vt 0.428564 0.735485
vt 0.409857 0.743104
vt 0.414871 0.728441
vt 0.495126 0.065588
vt 0.486719 0.067079
vt 0.510721 0.027810
vt 0.590405 0.648847
vt 0.593549 0.648457
vt 0.593549 0.690559
vt 0.241984 0.889581
vt 0.251101 0.899833
vt 0.235008 0.919000
vt 0.239673 0.903446
vt 0.248522 0.910141
vt 0.227352 0.903977
vt 0.940364 0.071144
vt 0.961237 0.018407
vt 0.946170 0.074444
vt 0.906836 0.271367
vt 0.914888 0.274433
vt 0.733131 0.628681
vt 0.734195 0.730724
vt 0.718392 0.630933
vt 0.986104 0.198765
vt 0.879531 0.583642
vt 0.792194 0.823383
vt 0.813538 0.869914
vt 0.806694 0.873268
vt 0.852277 0.666119
vt 0.979239 0.794200
vt 0.983769 0.729835
vt 0.982670 0.794084
vt 0.994617 0.608311
vt 0.971019 0.000000
vt 0.904403 0.357819
vt 0.912692 0.359865
vt 0.924064 0.962557
vt 0.897357 0.817433
vt 0.906100 0.820416
vt 0.795360 0.677246
vt 0.846532 0.583642
vt 0.803450 0.679341
vt 1.000000 0.722987
vt 0.996030 0.786529
vt 0.363981 0.307584
vt 0.373902 0.240227
vt 0.021121 0.684632
vt 0.034102 0.559936
vt 0.030888 0.747629
vt 0.056944 0.743555
vt 0.634764 0.918409
vt 0.840590 0.089816
vt 0.828982 0.120454
vt 0.841014 0.006717
vt 0.818081 0.035032
vt 0.892977 0.025856
vt 0.892046 0.029468
vt 0.853781 0.000000
vt 0.865521 0.002772
vt 0.400741 0.733977
vt 0.393228 0.732051
vt 0.440072 0.718342
vt 0.436219 0.722703
vt 0.357952 0.892564
vt 0.350463 0.901861
vt 0.331626 0.904585
vt 0.332381 0.893797
vt 0.315639 0.898304
vt 0.316958 0.887190
vt 0.416896 0.773401
vt 0.424659 0.774940
vt 0.414650 0.794265
vt 0.424659 0.800323
vt 0.835387 0.038756
vt 0.535170 0.703857
vt 0.548072 0.692696
vt 0.566927 0.703857
vt 0.394470 0.718335
vt 0.398184 0.695329
vt 0.456475 0.667040
vt 0.447159 0.696307
vt 0.432596 0.686746
vt 0.391736 0.204639
vt 0.415541 0.154629
vt 0.431571 0.162269
vt 0.499169 0.064372
vt 0.465960 0.122823
vt 0.454488 0.115912
vt 0.208383 0.881421
vt 0.226665 0.861231
vt 0.226246 0.863854
vt 0.206553 0.864729
vt 0.541220 0.727888
vt 0.198458 0.923909
vt 0.194327 0.925006
vt 0.187354 0.911226
vt 0.193361 0.910837
vt 0.200060 0.892335
vt 0.244857 0.881240
vt 0.403558 0.752540
vt 0.399825 0.747029
vt 0.538670 0.021797
vt 0.529634 0.039845
vt 0.524025 0.033806
vt 0.209284 0.909557
vt 0.414650 0.773401
vt 0.414650 0.813247
vt 0.412264 0.813242
vt 0.410431 0.787725
vt 0.506370 0.051176
vt 0.500850 0.070237
vt 0.448290 0.169324
vt 0.532743 0.715690
vt 0.534199 0.703857
vt 0.244567 0.871087
vt 0.243505 0.873406
vt 0.433725 0.777115
vt 0.439400 0.773401
vt 0.439400 0.796263
vt 0.227506 0.856605
vt 0.250026 0.866300
vt 0.789844 0.788001
vt 0.800140 0.820144
vt 0.820206 0.866674
vt 0.844218 0.910125
vt 0.393228 0.777039
vt 0.404068 0.773401
vt 0.404068 0.822785
vt 0.862724 0.094706
vt 0.874721 0.064930
vt 0.881281 0.051746
vt 0.172369 0.879848
vt 0.932166 0.065609
vt 0.740181 0.876076
vt 0.731633 0.883221
vt 0.510507 0.042642
vt 0.928700 0.061680
vt 0.909729 0.153048
vt 0.222220 0.110123
vt 0.289573 0.048969
vt 0.223883 0.114866
vt 0.291771 0.054886
vt 0.050579 0.388273
vt 0.105716 0.256006
vt 0.053326 0.388577
vt 0.107426 0.257297
vt 0.037576 0.560689
vt 0.084738 0.788405
vt 0.105627 0.813082
vt 0.143449 0.849909
vt 0.362252 0.000000
vt 0.270598 0.897889
vt 0.255576 0.888416
vt 0.574411 0.762650
vt 0.574450 0.800967
vt 0.568852 0.763252
vt 0.489684 0.689438
vt 0.494669 0.687439
vt 0.501673 0.737681
vt 0.707014 0.544343
vt 0.706615 0.632934
vt 0.703128 0.546204
vt 0.558159 0.757756
vt 0.552805 0.759237
vt 0.559592 0.703857
vt 0.465424 0.734099
vt 0.489684 0.855017
vt 0.460639 0.733544
vt 0.701976 0.458141
vt 0.700058 0.250365
vt 0.446022 0.462847
vt 0.427151 0.220521
vt 0.508512 0.074989
vt 0.344205 0.930635
vt 0.346768 0.914198
vt 0.595419 0.791451
vt 0.594145 0.650461
vt 0.743844 0.823745
vt 0.753237 0.877562
vt 0.506276 0.675632
vt 0.514870 0.727611
vt 0.700058 0.003325
vt 0.683508 0.000000
vt 0.526439 0.796685
vt 0.635767 0.071424
vt 0.662315 0.256107
vt 0.659272 0.347087
vt 0.682670 0.348402
vt 0.731970 0.545663
vt 0.755934 0.546811
vt 0.621735 0.443116
vt 0.606088 0.440853
vt 0.701491 0.251625
vt 0.731889 0.257479
vt 0.739823 0.129196
vt 0.763174 0.139038
vt 0.700058 0.887853
vt 0.777385 0.026225
vt 0.759254 0.015673
vt 0.622417 0.920616
vt 0.612629 0.919188
vt 0.590405 0.784578
vt 0.576667 0.784578
vt 0.576982 0.648457
vt 0.007848 0.567085
vt 0.850666 0.406027
vt 0.875444 0.486424
vt 0.824854 0.413740
vt 0.412529 0.371317
vt 0.017028 0.748095
vt 0.418789 0.261201
vt 0.409652 0.319123
vt 0.794555 0.420742
vt 0.833040 0.354309
vt 0.872708 0.635872
vt 0.872505 0.669961
vt 0.783977 0.312004
vt 0.787722 0.275041
vt 0.777385 0.269720
vt 0.827915 0.218566
vt 0.441502 0.109302
vt 0.793293 0.171573
vt 0.780761 0.166094
vt 0.147419 0.843641
vt 0.221249 0.919383
vt 0.250966 0.926477
vt 0.267012 0.935745
vt 0.263452 0.939199
vt 0.547468 0.761983
vt 0.848791 0.125873
vt 0.814371 0.170730
vt 0.832725 0.170517
vt 0.513841 0.028035
vt 0.404568 0.796230
vt 0.404068 0.812256
vt 0.440805 0.648457
vt 0.447110 0.658822
vt 0.550454 0.019002
vt 0.557454 0.023151
vt 0.834240 0.059672
vt 0.813876 0.052708
vt 0.273780 0.891662
vt 0.460639 0.673472
vt 0.418808 0.705059
vt 0.588459 0.016112
vt 0.579529 0.008204
vt 0.594145 0.000000
vt 0.576290 0.688758
vt 0.576667 0.671416
vt 0.454598 0.759918
vt 0.361004 0.900707
vt 0.353892 0.909410
vt 0.792609 0.066936
vt 0.796631 0.042937
vt 0.517071 0.028166
vt 0.279821 0.882174
vt 0.445919 0.070319
vt 0.469731 0.057575
vt 0.501619 0.043525
vt 0.159596 0.891661
vt 0.123238 0.870773
vt 0.429220 0.115650
vt 0.433470 0.226902
vt 0.779052 0.304454
vt 0.378206 0.371544
vt 0.879531 0.875118
vt 0.628852 1.000000
vt 0.708670 0.117029
vt 0.730981 0.000000
vt 0.764093 0.270375
vt 0.756713 0.632169
vt 0.754991 0.736433
vt 0.715305 0.829673
vt 0.660608 0.002878
vt 0.761986 0.830498
vt 0.770132 0.886114
vt 0.559592 0.827668
vt 0.554657 0.828292
vt 0.489684 0.648457
vt 0.546900 0.834132
vt 0.551350 0.763047
vt 0.551350 0.834708
vt 0.574450 0.703857
vt 0.352354 0.913254
vt 0.897357 0.267352
vt 0.902459 0.269957
vt 0.943381 0.000000
vt 0.946236 0.005258
vt 0.846532 0.911403
vt 0.559592 0.717372
vt 0.526439 0.779262
vt 0.544736 0.778950
vt 0.546900 0.790977
vt 0.856291 0.150245
vt 0.859734 0.127296
vt 0.435151 0.081761
vt 0.222639 0.922754
vt 0.457371 0.756960
vt 0.552804 0.763047
vt 0.545960 0.768420
vt 0.530068 0.769508
vt 0.443048 0.714132
vt 0.897357 0.035966
vt 0.397706 0.749243
vt 0.394252 0.744404
vt 0.349702 0.928695
vt 0.363981 0.895855
vt 0.363264 0.891294
vt 0.393228 0.944351
vt 0.924064 0.632718
vt 0.971962 0.111140
vt 0.723008 0.889706
vt 0.752561 0.903353
vt 0.777385 0.900756
vt 0.723209 0.895811
vt 0.502006 0.659773
vt 0.526439 0.648457
vt 0.519936 0.658893
vt 0.774851 0.906028
vt 0.774071 0.140385
vt 0.546900 0.763047
vt 0.363980 0.008406
vt 0.000000 0.683483
vt 0.165252 0.900442
vt 0.526439 0.679831
vt 0.765254 0.834408
vt 1.000000 0.293782
vn -0.493600 -0.416300 0.763500
vn -0.754200 -0.037700 0.655500
vn -0.908600 -0.261600 0.325600
vn -0.874500 -0.469800 -0.120700
vn -0.956000 -0.151300 -0.251200
vn -0.837900 -0.474300 -0.269900
vn -0.478500 -0.766300 -0.428600
vn 0.254700 -0.925100 0.281500
vn -0.954300 -0.149100 -0.259000
vn -0.674300 -0.670600 -0.309100
vn -0.950200 -0.192900 -0.244700
vn -0.917000 -0.321300 -0.236200
vn -0.345000 -0.519900 0.781400
vn -0.228400 -0.368000 0.901300
vn -0.085000 -0.681100 0.727300
vn -0.376700 -0.082100 0.922700
vn -0.523500 -0.661900 0.536500
vn -0.542300 -0.067900 0.837400
vn -0.719300 -0.656800 0.226100
vn -0.921300 -0.136800 0.363900
vn -0.845400 -0.516100 0.137500
vn -0.839000 0.197100 0.507200
vn -0.745800 -0.333700 0.576600
vn -0.734400 -0.470700 0.488900
vn -0.091300 0.391200 -0.915800
vn 0.031900 0.646200 -0.762400
vn 0.240600 0.468900 -0.849800
vn -0.542600 -0.669800 -0.506900
vn -0.571100 -0.641800 -0.511800
vn -0.260700 0.009200 -0.965400
vn 0.169100 -0.431400 -0.886100
vn 0.528700 0.581900 -0.617900
vn 0.361000 -0.119900 -0.924800
vn 0.343300 -0.253200 0.904400
vn 0.273700 -0.032400 0.961300
vn 0.742700 -0.138800 0.655100
vn 0.087700 0.266500 0.959800
vn -0.264200 0.792300 0.550000
vn 0.306300 0.897700 0.316800
vn -0.490700 0.799200 0.347000
vn -0.874600 -0.324400 -0.360100
vn -0.683600 -0.686400 -0.247800
vn -0.964100 -0.265000 0.015700
vn -0.802400 0.591600 0.078500
vn -0.750000 0.622900 0.222500
vn -0.744700 0.655300 -0.126100
vn 0.676900 -0.589100 0.441300
vn 0.196900 -0.898100 0.393100
vn -0.110500 -0.991500 -0.067700
vn -0.741000 -0.280500 -0.610100
vn -0.862200 0.219300 -0.456600
vn -0.749700 0.151300 -0.644200
vn -0.028400 -0.980500 0.194500
vn -0.546700 -0.795300 0.261700
vn -0.428100 -0.895400 0.122600
vn 0.283600 -0.954800 0.088500
vn 0.087700 -0.898600 0.429900
vn 0.442600 -0.827000 0.346500
vn -0.731000 -0.681800 0.028700
vn -0.628700 -0.669500 -0.395600
vn -0.866700 -0.386900 -0.314800
vn -0.211700 -0.794600 -0.569000
vn -0.232000 -0.917800 -0.322200
vn 0.045300 -0.980600 -0.190800
vn -0.587400 -0.500300 -0.636000
vn -0.120900 -0.924000 -0.362800
vn -0.611300 -0.643200 -0.461100
vn -0.685600 -0.324800 -0.651500
vn -0.841100 0.362100 -0.401800
vn -0.926500 -0.152100 -0.344200
vn 0.034700 -0.815200 0.578100
vn 0.150400 -0.653600 0.741800
vn 0.785200 -0.121300 0.607200
vn 0.432700 -0.771200 -0.466900
vn -0.422500 -0.283900 -0.860700
vn -0.375300 -0.590100 0.714800
vn -0.192800 -0.788600 -0.583800
vn -0.352100 0.242100 -0.904100
vn -0.939300 -0.243000 -0.242100
vn -0.412500 -0.905600 -0.098500
vn -0.264300 0.713200 0.649200
vn -0.426600 0.671500 0.605800
vn 0.506900 0.860500 0.051300
vn 0.493100 0.817100 -0.298700
vn 0.567900 0.794400 -0.215200
vn 0.517700 0.301000 -0.800800
vn 0.294600 0.941100 -0.165900
vn 0.353900 0.873400 -0.334400
vn 0.384800 0.880400 0.277000
vn 0.404500 0.883700 0.235400
vn -0.074700 0.827400 -0.556600
vn 0.034900 0.650000 -0.759100
vn 0.157500 0.865100 -0.476100
vn 0.490200 0.862200 0.127400
vn 0.661300 -0.734000 -0.154200
vn 0.582400 -0.781100 -0.225100
vn 0.950800 -0.263100 0.163400
vn -0.915900 0.389500 -0.096700
vn -0.824700 0.564200 0.037300
vn -0.863800 0.500500 0.057500
vn 0.961400 -0.258800 0.093400
vn -0.336600 0.875500 0.346800
vn 0.962600 0.076900 0.259900
vn 0.932000 0.104600 0.346900
vn 0.512400 -0.732000 -0.449000
vn 0.450000 -0.690800 -0.565900
vn 0.945200 -0.192100 -0.263900
vn -0.665900 0.590900 0.455500
vn -0.823000 0.023000 0.567600
vn -0.941400 -0.336300 0.025400
vn 0.419600 0.819500 0.390400
vn 0.525700 0.745800 0.409200
vn 0.994800 0.091000 0.045700
vn -0.855400 -0.507600 -0.103000
vn -0.730500 -0.679700 -0.065200
vn 0.836400 -0.223500 -0.500500
vn 0.676200 -0.176800 -0.715100
vn 0.928500 0.094000 -0.359100
vn 0.275500 -0.696400 -0.662600
vn 0.476600 -0.245600 -0.844100
vn 0.794400 0.281900 -0.537900
vn 0.273100 0.748200 0.604600
vn 0.338800 0.164400 0.926400
vn 0.096700 0.160600 0.982200
vn -0.171400 -0.212900 0.961900
vn -0.507200 -0.448100 0.736100
vn -0.346300 0.082900 -0.934400
vn 0.164300 -0.623700 0.764200
vn 0.072200 -0.533700 0.842600
vn 0.453400 0.044300 0.890200
vn 0.471200 0.088600 0.877500
vn 0.258400 0.521800 0.813000
vn -0.281600 0.534300 -0.797000
vn -0.660100 -0.165700 -0.732600
vn -0.312300 -0.674400 -0.669000
vn -0.434100 -0.628700 -0.645200
vn -0.652500 -0.442000 -0.615500
vn 0.364700 0.903500 0.225100
vn 0.571000 0.503200 0.648600
vn -0.694800 0.114700 -0.710000
vn -0.665200 0.720600 -0.195100
vn -0.592900 0.776000 -0.215200
vn 0.771400 0.354200 0.528600
vn 0.733600 0.520300 0.437100
vn -0.583100 -0.438400 -0.683900
vn -0.736600 -0.162900 -0.656400
vn -0.777300 0.146100 -0.611900
vn 0.872400 0.429300 0.233700
vn 0.357300 0.931500 0.067000
vn 0.786800 -0.133900 0.602400
vn 0.680900 -0.118200 0.722700
vn 0.790800 -0.061000 0.608900
vn -0.990900 0.070400 0.114400
vn -0.940100 -0.186000 0.285700
vn -0.721000 -0.243800 -0.648600
vn -0.790200 -0.609900 -0.061000
vn -0.647000 -0.723700 -0.239800
vn -0.169100 0.502500 -0.847900
vn -0.209000 0.618200 -0.757700
vn -0.023700 0.754600 -0.655800
vn -0.391000 0.357200 0.848200
vn -0.632800 0.238900 0.736500
vn -0.087400 0.763800 0.639400
vn -0.628700 -0.570600 0.528200
vn -0.929300 -0.340200 -0.143300
vn -0.987500 -0.091300 0.128400
vn -0.762000 -0.625200 -0.168400
vn 0.615000 0.645100 0.453400
vn 0.983100 0.094900 0.156700
vn -0.742700 -0.414900 -0.525600
vn -0.471900 -0.074100 -0.878500
vn -0.957400 0.177100 -0.227900
vn 0.327300 -0.940900 0.086900
vn 0.598000 -0.717700 0.356800
vn -0.749600 -0.583600 0.312300
vn -0.549000 -0.628400 0.551000
vn -0.919500 0.124100 0.373100
vn -0.948200 0.299300 0.105900
vn -0.862200 0.437200 0.256000
vn -0.396200 0.525700 -0.752800
vn -0.355400 0.767500 -0.533400
vn -0.662600 -0.001300 -0.749000
vn -0.793200 -0.597600 -0.116900
vn -0.747700 -0.647000 -0.149700
vn -0.873400 -0.357600 -0.330500
vn -0.777600 -0.539100 -0.323400
vn -0.745700 -0.582100 -0.324000
vn -0.914500 -0.365000 -0.174200
vn -0.951200 -0.215400 -0.220900
vn -0.962800 0.269900 -0.014000
vn -0.962600 0.262000 -0.069500
vn -0.854100 0.507700 0.113100
vn -0.999700 -0.020000 0.011700
vn 0.093900 -0.889300 0.447500
vn 0.073700 -0.359500 0.930200
vn -0.607300 -0.365600 0.705400
vn -0.736300 -0.102400 0.668800
vn -0.975700 -0.202000 -0.084700
vn -0.917600 -0.342500 0.201600
vn -0.432900 -0.201300 0.878600
vn -0.574900 -0.093900 0.812800
vn 0.066300 -0.008900 -0.997700
vn -0.032700 -0.823700 -0.566100
vn -0.120500 -0.376700 -0.918500
vn -0.430900 -0.800300 -0.417000
vn 0.589800 -0.042700 -0.806400
vn 0.744000 0.212300 0.633500
vn 0.641300 0.320000 0.697300
vn 0.024600 0.535600 0.844100
vn 0.727700 0.404100 0.554100
vn 0.262400 -0.530600 0.806000
vn -0.757900 0.310400 0.573700
vn -0.753900 0.607400 0.250300
vn -0.964600 0.262600 0.022900
vn -0.519800 -0.787600 0.330900
vn -0.513400 -0.854900 0.074800
vn -0.145200 -0.956900 -0.251500
vn 0.230400 -0.970800 -0.066200
vn -0.700800 0.590100 -0.400700
vn 0.743000 -0.105300 0.661000
vn 0.890900 0.052900 0.451000
vn -0.499700 0.862700 -0.077900
vn -0.781900 0.470900 -0.408500
vn -0.136400 0.693900 -0.707000
vn -0.463100 0.157700 -0.872200
vn -0.329600 0.549700 -0.767600
vn -0.208700 0.767700 -0.605900
vn -0.233300 -0.944200 -0.232300
vn 0.302800 -0.861300 0.408000
vn 0.175400 -0.931200 0.319500
vn -0.827700 -0.076200 -0.555900
vn -0.515600 0.438000 -0.736400
vn -0.349300 -0.276600 -0.895300
vn -0.625900 -0.500900 -0.597700
vn -0.442700 -0.776700 -0.448000
vn -0.449000 -0.774000 0.446400
vn -0.704200 0.625100 0.336500
vn 0.530500 0.825200 0.194100
vn 0.004500 0.957100 -0.289700
vn -0.779500 -0.033100 -0.625500
vn -0.310200 -0.007000 -0.950600
vn -0.265400 0.649700 -0.712300
vn -0.038100 0.813200 -0.580700
vn -0.132800 -0.900900 0.413200
vn -0.253100 -0.831600 0.494400
vn 0.558500 -0.566200 0.606100
vn 0.329500 -0.686300 0.648400
vn 0.267100 -0.584900 0.765900
vn 0.654700 -0.185100 0.732900
vn 0.574600 -0.640800 0.509100
vn 0.232000 -0.891000 0.390100
vn -0.325700 -0.814500 -0.480100
vn -0.944600 0.327200 0.022500
vn -0.866500 0.434800 0.245100
vn -0.286100 0.289700 -0.913300
vn 0.640200 -0.690900 -0.335800
vn -0.348100 -0.709500 0.612700
vn -0.197600 -0.867000 0.457400
vn -0.375300 -0.838800 -0.394300
vn -0.624700 -0.770800 -0.124300
vn -0.435800 0.842900 0.315600
vn -0.485400 0.648100 0.586700
vn 0.474900 0.707800 0.523000
vn 0.162100 0.411800 0.896800
vn -0.704600 0.634600 0.317300
vn -0.543200 0.786300 0.294200
vn 0.633400 0.754100 0.173700
vn 0.510000 0.784400 0.353000
vn 0.361700 0.932200 -0.011400
vn -0.988300 0.119200 -0.094900
vn 0.424200 -0.052900 0.904000
vn 0.153600 -0.905700 0.395000
vn 0.473100 -0.479500 0.739100
vn 0.956400 -0.290600 -0.027800
vn 0.960900 -0.243700 -0.131300
vn -0.957000 0.262000 0.124100
vn 0.988500 0.099900 -0.113600
vn 0.654400 0.167100 -0.737400
vn -0.168000 0.326200 0.930200
vn 0.107100 0.779400 0.617300
vn 0.381200 0.712900 0.588600
vn 0.524600 0.562400 0.639100
vn 0.558400 0.418400 0.716300
vn -0.661400 -0.225300 -0.715300
vn 0.644500 -0.017600 0.764400
vn 0.584200 0.171200 0.793300
vn -0.663100 0.337000 -0.668300
vn -0.250400 -0.964800 -0.079600
vn -0.712900 -0.590200 0.378700
vn -0.781600 -0.605500 0.149500
vn -0.414200 -0.904300 -0.103400
vn -0.730700 -0.179700 0.658600
usemtl None
s 1
f 1/1/1 2/2/2 3/3/3
f 5/4/4 6/5/5 7/6/6
f 10/7/7 11/8/8 12/9/9
f 14/10/10 15/11/11 9/12/12
f 16/13/13 17/14/14 18/15/15
f 20/16/16 21/17/17 22/18/18
f 25/19/19 26/20/20 27/21/21
f 29/22/22 30/23/23 31/24/24
f 32/25/25 33/26/26 34/27/27
f 36/28/28 37/29/29 38/30/30
f 41/31/31 42/32/32 43/33/33
f 44/34/34 45/35/35 1/36/1
f 45/35/35 47/37/36 48/38/37
f 50/39/38 51/40/39 52/41/40
f 54/42/41 55/43/42 56/44/43
f 58/45/44 53/46/45 59/47/46
f 62/48/47 63/49/48 64/50/49
f 65/51/50 60/52/51 66/53/52
f 68/54/53 69/55/54 70/56/55
f 72/57/56 73/58/57 74/59/58
f 76/60/59 77/61/60 78/62/61
f 80/63/62 81/64/63 82/65/64
f 83/66/65 84/67/66 85/68/67
f 86/69/68 87/70/69 88/71/70
f 89/72/71 90/73/72 18/74/15
f 92/75/73 47/37/36 44/34/34
f 94/76/74 95/77/75 15/78/11
f 12/79/9 11/80/8 10/81/7
f 21/82/17 100/83/76 101/84/77
f 104/85/78 105/86/79 106/87/80
f 107/88/81 108/89/82 109/90/83
f 111/91/84 110/92/85 112/93/86
f 113/94/87 114/95/88 33/26/26
f 116/96/89 117/97/90 118/98/91
f 120/99/92 121/100/93 122/101/94
f 126/102/95 127/103/96 128/104/97
f 130/105/98 131/106/99 132/107/100
f 127/103/96 94/108/74 134/109/101
f 132/107/100 131/106/99 135/110/102
f 137/111/103 138/112/104 134/109/101
f 140/113/105 141/114/106 142/115/107
f 145/116/108 146/117/109 147/118/110
f 148/119/111 149/120/112 150/121/113
f 153/122/114 26/20/20 154/123/115
f 155/124/116 156/125/117 157/126/118
f 158/127/119 40/128/120 156/125/117
f 156/125/117 40/128/120 159/129/121
f 43/130/33 42/131/32 41/132/31
f 160/133/122 161/134/123 162/135/124
f 16/136/13 164/137/125 165/138/126
f 37/29/29 105/139/79 167/140/127
f 168/141/128 91/142/129 169/143/130
f 170/144/131 172/145/132 117/146/90
f 174/147/133 175/148/134 103/149/135
f 77/61/60 176/150/136 177/151/137
f 123/152/138 122/153/94 178/154/139
f 180/155/140 181/156/141 182/157/142
f 183/158/143 178/154/139 184/159/144
f 187/160/145 67/161/146 188/162/147
f 185/163/148 184/164/144 189/165/149
f 190/166/150 191/167/151 192/168/152
f 3/3/3 193/169/153 194/170/154
f 176/150/136 196/171/155 187/160/145
f 197/172/156 8/173/157 70/56/55
f 198/174/158 199/175/159 115/176/160
f 100/177/76 21/17/17 164/137/125
f 200/178/161 201/179/162 202/180/163
f 31/181/24 22/182/18 204/183/164
f 205/184/165 152/185/166 206/186/167
f 149/120/112 207/187/168 208/188/169
f 96/189/170 209/190/171 210/191/172
f 26/192/20 153/193/114 147/194/110
f 61/195/173 214/196/174 62/197/47
f 4/198/175 46/199/176 1/1/1
f 215/200/177 216/201/178 217/202/179
f 215/200/177 193/169/153 216/201/178
f 218/203/180 219/204/181 220/205/182
f 220/206/182 180/207/140 218/208/180
f 221/209/183 69/55/54 222/210/184
f 223/211/185 224/212/186 79/213/187
f 8/173/157 197/172/156 5/214/4
f 96/215/170 97/216/188 209/217/171
f 9/218/12 12/79/9 225/219/189
f 132/107/100 226/220/190 133/221/191
f 132/107/100 227/222/192 226/220/190
f 13/223/193 9/12/12 205/184/165
f 89/72/71 73/224/57 90/73/72
f 89/225/71 228/226/194 73/227/57
f 16/136/13 19/228/195 164/137/125
f 20/229/16 23/230/196 165/231/126
f 24/232/197 27/21/21 31/181/24
f 9/12/12 15/11/11 10/233/7
f 153/193/114 205/234/165 147/194/110
f 205/234/165 229/235/198 147/194/110
f 31/236/24 27/237/21 28/238/199
f 165/239/126 23/240/196 166/241/200
f 23/230/196 230/242/201 166/243/200
f 32/25/25 35/244/202 38/245/30
f 41/246/31 102/247/203 101/84/77
f 39/248/204 231/249/205 36/28/28
f 43/33/33 232/250/206 40/128/120
f 233/251/207 234/252/208 183/158/143
f 235/253/209 236/254/210 51/40/39
f 46/255/176 93/256/211 44/34/34
f 49/257/212 2/258/2 45/35/35
f 53/46/45 237/259/213 50/260/38
f 60/261/51 54/42/41 57/262/214
f 63/49/48 238/263/215 239/264/216
f 239/264/216 64/50/49 63/49/48
f 60/261/51 57/262/214 58/45/44
f 235/253/209 51/40/39 50/39/38
f 64/50/49 240/265/217 61/266/173
f 61/266/173 241/267/218 214/268/174
f 66/269/52 60/270/51 242/271/219
f 60/270/51 59/272/46 242/271/219
f 47/37/36 192/168/152 243/273/220
f 192/274/152 244/275/221 243/276/220
f 52/277/40 245/278/222 59/47/46
f 67/161/146 196/171/155 65/51/50
f 220/279/182 188/280/147 180/155/140
f 188/280/147 246/281/223 180/155/140
f 198/174/158 167/282/127 104/283/78
f 104/283/78 247/284/224 198/174/158
f 218/203/180 248/285/225 249/286/226
f 249/286/226 250/287/227 218/203/180
f 68/54/53 71/288/228 82/65/64
f 75/289/229 251/290/230 72/291/56
f 79/213/187 222/210/184 76/60/59
f 6/5/5 223/292/185 87/70/69
f 223/292/185 88/71/70 87/70/69
f 252/293/231 253/294/232 173/295/233
f 173/295/233 254/296/234 252/293/231
f 71/288/228 255/297/235 80/63/62
f 69/55/54 76/60/59 222/210/184
f 69/55/54 256/298/236 76/60/59
f 216/201/178 49/299/212 257/300/237
f 257/300/237 237/259/213 216/201/178
f 182/301/142 258/302/238 259/303/239
f 7/304/6 252/293/231 254/296/234
f 248/305/225 180/306/140 179/307/240
f 179/307/240 260/308/241 248/305/225
f 65/51/50 196/171/155 83/66/65
f 248/285/225 260/309/241 120/99/92
f 120/99/92 119/310/242 248/285/225
f 249/286/226 118/98/91 261/311/243
f 261/311/243 199/175/159 249/286/226
f 86/69/68 78/312/61 177/313/137
f 251/290/230 75/289/229 262/314/244
f 262/314/244 263/315/245 251/290/230
f 75/316/229 264/317/246 262/318/244
f 264/319/246 265/320/247 262/314/244
f 81/64/63 72/291/56 82/65/64
f 91/321/129 168/322/128 89/225/71
f 266/323/248 267/324/249 228/226/194
f 267/325/249 268/326/250 228/327/194
f 191/167/151 190/166/150 269/328/251
f 190/166/150 214/329/174 269/328/251
f 93/256/211 62/330/47 92/75/73
f 80/63/62 103/331/135 81/64/63
f 96/215/170 10/81/7 270/332/252
f 131/106/99 130/105/98 124/333/253
f 124/333/253 211/334/254 131/106/99
f 120/99/92 260/309/241 271/335/255
f 271/335/255 121/100/93 120/99/92
f 270/332/252 10/81/7 126/336/95
f 10/81/7 127/337/96 126/336/95
f 140/338/105 273/339/256 206/340/167
f 273/339/256 14/341/10 206/340/167
f 158/342/119 141/343/106 25/344/19
f 141/343/106 154/345/115 25/344/19
f 102/247/203 204/346/164 21/82/17
f 37/29/29 36/28/28 274/347/257
f 274/347/257 275/348/258 37/29/29
f 103/331/135 106/349/80 81/64/63
f 85/68/67 84/67/66 240/265/217
f 14/341/10 273/339/256 94/350/74
f 276/351/259 77/61/60 277/352/260
f 276/351/259 176/150/136 77/61/60
f 213/353/261 212/354/262 278/355/263
f 212/356/262 99/357/264 278/358/263
f 279/359/265 136/360/266 148/361/111
f 136/362/266 149/363/112 148/364/111
f 108/365/82 145/366/108 280/367/267
f 145/116/108 281/368/268 280/369/267
f 202/370/163 107/88/81 110/92/85
f 114/95/88 111/91/84 34/27/27
f 282/371/269 113/94/87 115/176/160
f 119/310/242 123/372/138 116/96/89
f 120/99/92 123/372/138 119/310/242
f 118/98/91 117/97/90 261/311/243
f 54/373/41 85/68/67 55/374/42
f 54/373/41 65/51/50 85/68/67
f 109/375/83 280/376/267 159/129/121
f 280/376/267 157/126/118 159/129/121
f 124/333/253 210/377/172 125/378/270
f 124/333/253 130/105/98 210/377/172
f 99/357/264 283/379/271 138/380/104
f 138/380/104 278/358/263 99/357/264
f 272/381/272 126/102/95 129/382/273
f 130/105/98 133/221/191 210/377/172
f 278/358/263 138/380/104 137/383/103
f 137/111/103 207/187/168 278/384/263
f 227/222/192 132/107/100 136/360/266
f 139/385/274 208/188/169 137/111/103
f 136/360/266 279/359/265 227/222/192
f 139/385/274 143/386/275 208/188/169
f 143/386/275 150/121/113 208/188/169
f 273/387/256 140/113/105 143/386/275
f 144/388/276 147/118/110 229/389/198
f 148/119/111 151/390/277 281/391/268
f 206/186/167 152/185/166 154/123/115
f 145/116/108 108/392/82 29/393/22
f 145/116/108 29/393/22 146/117/109
f 151/390/277 142/115/107 155/124/116
f 141/114/106 158/127/119 155/124/116
f 29/393/22 201/394/162 30/395/23
f 40/128/120 158/127/119 102/396/203
f 201/394/162 230/397/201 30/395/23
f 201/394/162 200/398/161 230/397/201
f 109/375/83 284/399/278 110/400/85
f 109/401/83 159/402/121 284/403/278
f 40/404/120 102/247/203 41/246/31
f 200/178/161 166/405/200 230/406/201
f 200/178/161 163/407/279 166/405/200
f 111/91/84 202/370/163 110/92/85
f 111/91/84 203/408/280 202/370/163
f 35/409/202 41/246/31 39/248/204
f 38/30/30 35/409/202 39/248/204
f 114/95/88 113/94/87 285/410/281
f 285/410/281 160/411/122 114/95/88
f 163/407/279 203/412/280 160/133/122
f 166/241/200 17/14/14 16/13/13
f 162/135/124 91/142/129 17/413/14
f 162/135/124 161/134/123 91/142/129
f 275/414/258 19/228/195 90/73/72
f 275/414/258 274/415/257 19/228/195
f 161/134/123 285/416/281 286/417/282
f 286/417/282 169/143/130 161/134/123
f 172/145/132 286/417/282 117/146/90
f 286/417/282 282/418/269 117/146/90
f 266/419/248 168/141/128 170/144/131
f 199/175/159 198/174/158 247/284/224
f 247/284/224 174/420/133 250/287/227
f 247/284/224 104/283/78 174/420/133
f 171/421/283 117/146/90 116/422/89
f 106/349/80 73/423/57 72/291/56
f 72/291/56 81/64/63 106/349/80
f 103/331/135 80/63/62 173/295/233
f 219/424/181 86/425/68 186/426/284
f 186/426/284 220/427/182 219/424/181
f 6/5/5 252/428/231 7/6/6
f 171/421/283 116/422/89 123/152/138
f 287/429/285 288/430/286 234/252/208
f 287/429/285 267/431/249 288/430/286
f 68/54/53 263/315/245 256/298/236
f 68/54/53 251/290/230 263/315/245
f 287/429/285 234/252/208 233/251/207
f 233/251/207 191/167/151 287/429/285
f 218/203/180 180/432/140 248/285/225
f 271/433/255 260/308/241 179/307/240
f 271/433/255 179/307/240 289/434/287
f 182/157/142 289/435/287 179/436/240
f 182/301/142 181/437/141 189/438/149
f 189/438/149 258/302/238 182/301/142
f 244/439/221 183/158/143 185/440/148
f 276/351/259 290/441/288 241/267/218
f 241/267/218 84/67/66 276/351/259
f 186/442/284 188/280/147 220/279/182
f 59/47/46 245/278/222 242/443/219
f 2/2/2 193/169/153 3/3/3
f 57/262/214 56/44/43 194/170/154
f 194/170/154 215/200/177 57/262/214
f 58/45/44 217/202/179 53/46/45
f 51/444/39 245/445/222 52/446/40
f 243/273/220 235/253/209 48/38/37
f 243/273/220 236/254/210 235/253/209
f 236/447/210 243/276/220 244/275/221
f 244/275/221 185/163/148 236/447/210
f 185/163/148 51/448/39 236/447/210
f 47/37/36 92/75/73 190/166/150
f 47/37/36 45/35/35 44/34/34
f 217/202/179 216/201/178 237/259/213
f 237/259/213 53/46/45 217/202/179
f 217/202/179 57/262/214 215/200/177
f 217/202/179 58/45/44 57/262/214
f 4/198/175 3/3/3 195/449/289
f 239/264/216 238/263/215 4/450/175
f 239/264/216 4/450/175 195/451/289
f 246/281/223 245/278/222 181/156/141
f 246/281/223 242/443/219 245/278/222
f 241/267/218 61/266/173 240/265/217
f 240/265/217 84/67/66 241/267/218
f 191/167/151 233/251/207 192/168/152
f 184/159/144 258/452/238 189/453/149
f 182/301/142 259/303/239 289/454/287
f 180/155/140 246/281/223 181/156/141
f 271/335/255 289/454/287 259/303/239
f 259/303/239 121/100/93 271/335/255
f 184/159/144 122/153/94 258/452/238
f 178/154/139 183/158/143 234/252/208
f 262/314/244 265/320/247 269/455/251
f 269/455/251 290/441/288 262/314/244
f 263/315/245 262/314/244 277/352/260
f 262/314/244 276/351/259 277/352/260
f 178/154/139 288/430/286 171/421/283
f 178/154/139 234/252/208 288/430/286
f 219/204/181 253/456/232 87/457/69
f 219/204/181 174/420/133 253/456/232
f 86/458/68 219/204/181 87/457/69
f 219/204/181 218/203/180 250/287/227
f 174/420/133 219/204/181 250/287/227
f 221/209/183 197/172/156 69/55/54
f 288/430/286 170/144/131 171/421/283
f 103/331/135 175/459/134 104/460/78
f 104/283/78 175/461/134 174/420/133
f 106/349/80 275/348/258 73/423/57
f 275/414/258 90/73/72 73/224/57
f 169/143/130 286/417/282 172/145/132
f 170/144/131 169/143/130 172/145/132
f 32/25/25 198/174/158 33/26/26
f 286/462/282 285/410/281 113/94/87
f 286/417/282 113/463/87 282/418/269
f 105/139/79 104/460/78 167/140/127
f 91/142/129 161/134/123 169/143/130
f 100/177/76 19/228/195 274/415/257
f 17/413/14 166/405/200 162/135/124
f 166/405/200 163/407/279 162/135/124
f 161/134/123 160/133/122 285/416/281
f 43/464/33 35/244/202 34/27/27
f 34/27/27 112/93/86 43/464/33
f 203/408/280 111/91/84 114/95/88
f 114/95/88 160/411/122 203/408/280
f 203/412/280 163/407/279 200/178/161
f 21/17/17 204/465/164 22/18/18
f 232/250/206 43/33/33 112/466/86
f 112/466/86 284/399/278 232/250/206
f 107/467/81 202/468/163 201/394/162
f 159/129/121 232/250/206 284/399/278
f 204/183/164 25/19/19 24/232/197
f 108/392/82 107/467/81 201/394/162
f 108/392/82 201/394/162 29/393/22
f 26/20/20 25/19/19 154/123/115
f 141/114/106 155/124/116 142/115/107
f 157/126/118 280/376/267 281/391/268
f 151/390/277 157/126/118 281/391/268
f 146/117/109 29/393/22 28/469/199
f 146/117/109 28/469/199 147/118/110
f 142/115/107 151/390/277 150/121/113
f 142/115/107 150/121/113 143/386/275
f 279/359/265 145/116/108 144/388/276
f 13/223/193 206/186/167 14/10/10
f 143/386/275 139/385/274 94/108/74
f 94/108/74 273/387/256 143/386/275
f 94/108/74 139/385/274 134/109/101
f 207/187/168 137/111/103 208/188/169
f 225/470/189 12/471/9 133/221/191
f 133/221/191 226/220/190 225/470/189
f 128/104/97 134/109/101 138/112/104
f 213/472/261 135/110/102 131/106/99
f 210/377/172 133/221/191 12/471/9
f 128/104/97 138/112/104 283/473/271
f 129/382/273 128/104/97 283/473/271
f 213/472/261 131/106/99 211/334/254
f 209/474/171 97/475/188 125/378/270
f 125/378/270 210/377/172 209/474/171
f 229/389/198 225/470/189 144/388/276
f 225/470/189 226/220/190 144/388/276
f 267/431/249 266/419/248 288/430/286
f 266/419/248 170/144/131 288/430/286
f 188/162/147 67/161/146 66/53/52
f 149/363/112 135/476/102 207/477/168
f 149/363/112 136/362/266 135/476/102
f 189/438/149 181/437/141 245/445/222
f 245/445/222 51/444/39 189/438/149
f 117/97/90 282/371/269 261/311/243
f 282/371/269 115/176/160 261/311/243
f 34/27/27 33/26/26 114/95/88
f 110/400/85 284/399/278 112/466/86
f 280/367/267 109/478/83 108/365/82
f 281/368/268 145/116/108 279/359/265
f 279/359/265 148/361/111 281/368/268
f 135/479/102 213/480/261 207/481/168
f 213/353/261 278/355/263 207/482/168
f 100/83/76 231/249/205 101/84/77
f 291/483/290 239/264/216 195/451/289
f 176/150/136 276/351/259 84/67/66
f 84/67/66 83/66/65 176/150/136
f 105/139/79 37/29/29 106/349/80
f 37/29/29 275/348/258 106/349/80
f 36/28/28 231/249/205 274/347/257
f 231/249/205 100/83/76 274/347/257
f 25/344/19 204/346/164 158/342/119
f 204/346/164 102/247/203 158/342/119
f 141/343/106 140/338/105 206/340/167
f 206/340/167 154/345/115 141/343/106
f 94/484/74 127/337/96 10/81/7
f 10/81/7 95/485/75 94/484/74
f 126/336/95 272/486/272 98/487/291
f 98/487/291 270/332/252 126/336/95
f 258/302/238 122/101/94 121/100/93
f 121/100/93 259/303/239 258/302/238
f 96/215/170 270/332/252 98/487/291
f 98/487/291 97/216/188 96/215/170
f 73/227/57 228/226/194 268/488/250
f 268/489/250 74/59/58 73/58/57
f 264/490/246 268/491/250 267/492/249
f 267/431/249 287/429/285 264/493/246
f 287/429/285 265/494/247 264/493/246
f 190/166/150 92/75/73 62/330/47
f 62/330/47 214/329/174 190/166/150
f 269/328/251 265/494/247 191/167/151
f 265/494/247 287/429/285 191/167/151
f 228/226/194 89/225/71 168/322/128
f 168/322/128 266/323/248 228/226/194
f 18/15/15 17/14/14 91/321/129
f 76/60/59 256/298/236 277/352/260
f 277/352/260 77/61/60 76/60/59
f 263/315/245 277/352/260 256/298/236
f 5/214/4 197/172/156 221/209/183
f 221/209/183 224/212/186 5/214/4
f 253/456/232 174/420/133 173/495/233
f 249/286/226 119/310/242 118/98/91
f 249/286/226 248/285/225 119/310/242
f 186/426/284 86/425/68 177/151/137
f 186/426/284 177/151/137 187/160/145
f 176/150/136 83/66/65 196/171/155
f 223/211/185 6/496/5 5/214/4
f 224/212/186 223/211/185 5/214/4
f 7/304/6 254/296/234 255/297/235
f 8/173/157 7/304/6 255/297/235
f 193/169/153 215/200/177 194/170/154
f 194/170/154 291/497/290 195/449/289
f 194/170/154 56/44/43 291/497/290
f 68/54/53 256/298/236 69/55/54
f 254/296/234 173/295/233 80/63/62
f 255/297/235 254/296/234 80/63/62
f 87/70/69 253/498/232 252/428/231
f 252/428/231 6/5/5 87/70/69
f 223/292/185 78/312/61 88/71/70
f 223/211/185 79/213/187 78/62/61
f 74/499/58 268/491/250 264/490/246
f 264/490/246 75/500/229 74/499/58
f 68/54/53 82/65/64 72/291/56
f 251/290/230 68/54/53 72/291/56
f 71/288/228 8/173/157 255/297/235
f 247/284/224 250/287/227 249/286/226
f 249/286/226 199/175/159 247/284/224
f 199/175/159 261/311/243 115/176/160
f 188/280/147 66/501/52 246/281/223
f 66/501/52 242/443/219 246/281/223
f 67/161/146 187/160/145 196/171/155
f 47/37/36 243/273/220 48/38/37
f 233/251/207 183/158/143 244/439/221
f 244/439/221 192/168/152 233/251/207
f 62/330/47 93/256/211 63/502/48
f 241/267/218 269/455/251 214/268/174
f 241/267/218 290/441/288 269/455/251
f 240/265/217 64/50/49 55/374/42
f 55/374/42 85/68/67 240/265/217
f 55/374/42 64/50/49 239/264/216
f 291/483/290 55/374/42 239/264/216
f 257/300/237 49/299/212 48/503/37
f 235/504/209 257/300/237 48/503/37
f 291/483/290 56/505/43 55/374/42
f 53/46/45 52/277/40 59/47/46
f 237/259/213 257/300/237 235/504/209
f 237/259/213 235/504/209 50/260/38
f 2/258/2 1/36/1 45/35/35
f 46/506/176 63/49/48 93/507/211
f 46/506/176 238/263/215 63/49/48
f 65/51/50 54/373/41 60/52/51
f 232/250/206 159/129/121 40/128/120
f 39/248/204 101/84/77 231/249/205
f 39/248/204 41/246/31 101/84/77
f 32/25/25 38/245/30 167/282/127
f 198/174/158 32/25/25 167/282/127
f 20/16/16 164/137/125 21/17/17
f 31/24/24 30/23/23 230/508/201
f 230/242/201 23/230/196 31/181/24
f 27/237/21 147/509/110 28/238/199
f 205/234/165 9/218/12 225/219/189
f 205/234/165 225/219/189 229/235/198
f 22/182/18 31/181/24 23/230/196
f 164/137/125 20/16/16 165/138/126
f 90/73/72 19/228/195 18/74/15
f 205/184/165 153/122/114 152/185/166
f 10/233/7 15/11/11 95/510/75
f 227/222/192 279/359/265 144/388/276
f 227/222/192 144/388/276 226/220/190
f 8/173/157 71/288/228 70/56/55
f 224/212/186 221/209/183 79/213/187
f 221/209/183 222/210/184 79/213/187
f 262/314/244 290/441/288 276/351/259
f 122/153/94 184/159/144 178/154/139
f 193/169/153 2/2/2 49/299/212
f 193/169/153 49/299/212 216/201/178
f 4/450/175 238/263/215 46/506/176
f 213/472/261 211/334/254 212/511/262
f 212/511/262 211/334/254 292/512/292
f 211/334/254 124/333/253 292/512/292
f 124/333/253 125/378/270 292/512/292
f 97/475/188 98/513/291 292/512/292
f 99/514/264 212/511/262 292/512/292
f 283/379/271 99/357/264 292/515/292
f 272/516/272 129/517/273 292/515/292
f 129/517/273 283/379/271 292/515/292
f 125/378/270 97/475/188 292/512/292
f 98/513/291 272/518/272 292/512/292
f 4/198/175 1/1/1 3/3/3
f 8/173/157 5/214/4 7/304/6
f 9/218/12 10/81/7 12/79/9
f 13/223/193 14/10/10 9/12/12
f 19/228/195 16/136/13 18/74/15
f 23/230/196 20/229/16 22/182/18
f 24/232/197 25/19/19 27/21/21
f 28/469/199 29/393/22 31/519/24
f 35/244/202 32/25/25 34/27/27
f 39/248/204 36/28/28 38/30/30
f 40/128/120 41/31/31 43/33/33
f 46/255/176 44/34/34 1/36/1
f 49/257/212 45/35/35 48/38/37
f 53/46/45 50/260/38 52/277/40
f 57/262/214 54/42/41 56/44/43
f 60/261/51 58/45/44 59/47/46
f 61/266/173 62/48/47 64/50/49
f 67/161/146 65/51/50 66/53/52
f 71/288/228 68/54/53 70/56/55
f 75/500/229 72/520/56 74/499/58
f 79/213/187 76/60/59 78/62/61
f 71/288/228 80/63/62 82/65/64
f 65/51/50 83/66/65 85/68/67
f 78/312/61 86/69/68 88/71/70
f 91/321/129 89/225/71 18/15/15
f 93/256/211 92/75/73 44/34/34
f 14/341/10 94/350/74 15/521/11
f 96/215/170 12/79/9 10/81/7
f 102/247/203 21/82/17 101/84/77
f 103/331/135 104/460/78 106/349/80
f 110/92/85 107/88/81 109/90/83
f 34/27/27 111/91/84 112/93/86
f 115/176/160 113/94/87 33/26/26
f 119/310/242 116/96/89 118/98/91
f 123/372/138 120/99/92 122/101/94
f 129/382/273 126/102/95 128/104/97
f 133/221/191 130/105/98 132/107/100
f 128/104/97 127/103/96 134/109/101
f 136/360/266 132/107/100 135/110/102
f 139/385/274 137/111/103 134/109/101
f 143/386/275 140/113/105 142/115/107
f 144/388/276 145/116/108 147/118/110
f 151/390/277 148/119/111 150/121/113
f 152/185/166 153/122/114 154/123/115
f 151/390/277 155/124/116 157/126/118
f 155/124/116 158/127/119 156/125/117
f 157/126/118 156/125/117 159/129/121
f 35/409/202 43/522/33 41/246/31
f 163/407/279 160/133/122 162/135/124
f 166/241/200 16/13/13 165/239/126
f 38/30/30 37/29/29 167/140/127
f 170/144/131 168/141/128 169/143/130
f 171/421/283 170/144/131 117/146/90
f 173/295/233 174/523/133 103/331/135
f 78/62/61 77/61/60 177/151/137
f 171/421/283 123/152/138 178/154/139
f 179/436/240 180/155/140 182/157/142
f 185/163/148 183/524/143 184/164/144
f 186/426/284 187/160/145 188/162/147
f 51/448/39 185/163/148 189/165/149
f 47/37/36 190/166/150 192/168/152
f 195/449/289 3/3/3 194/170/154
f 177/151/137 176/150/136 187/160/145
f 69/55/54 197/172/156 70/56/55
f 33/26/26 198/174/158 115/176/160
f 19/228/195 100/177/76 164/137/125
f 203/412/280 200/178/161 202/180/163
f 24/232/197 31/181/24 204/183/164
f 13/223/193 205/184/165 206/186/167
f 150/121/113 149/120/112 208/188/169
f 12/471/9 96/525/170 210/377/172
f 27/21/21 26/20/20 147/526/110
