# Blender v2.75 (sub 0) OBJ File: 'untitled.blend'
# www.blender.org
mtllib ribs_14.mtl
o fuscc.000_fuscc.005
v 5.137638 15.534183 -8.119452
v 5.585674 15.329143 -8.449710
v 5.090955 15.433284 -8.186400
v 13.914922 10.512324 -4.263867
v 14.005425 10.504504 -4.318584
v 14.802316 8.823366 0.492153
v 14.577249 7.420702 2.126846
v 14.433339 7.299585 1.964197
v 14.273789 11.678477 -3.266563
v 14.007905 11.588260 -3.256144
v 14.497998 9.697886 0.838933
v 14.377050 10.248343 -0.199899
v 13.948586 9.512110 1.088462
v 9.720853 15.018435 -7.642807
v 11.585191 13.944026 -6.830038
v 9.851029 15.131351 -7.825483
v 5.946306 15.928050 -7.523883
v 6.289819 15.447398 -7.696069
v 6.361679 15.842029 -7.621587
v 5.243734 16.152355 -7.446063
v 4.152778 16.322300 -6.888927
v 5.237964 16.038868 -7.345546
v 6.817106 14.559147 -8.924641
v 6.927160 15.136310 -8.730948
v 7.618955 14.450619 -8.915199
v 5.511144 14.845820 -8.484233
v 6.127695 15.229770 -8.625377
v 6.014017 14.662333 -8.721221
v 7.861761 15.688487 -7.920040
v 7.867912 15.594646 -8.285010
v 7.833484 15.343829 -8.523620
v 9.826806 14.619990 -8.393969
v 7.774690 14.946528 -8.750690
v 5.588010 15.045901 -8.183396
v 6.108526 14.938899 -8.369458
v 5.746225 15.169879 -7.801021
v 5.701259 15.073749 -7.945550
v 6.197170 15.086146 -7.955755
v 6.978944 15.298244 -7.741703
v 7.635692 14.955970 -7.939709
v 7.089380 15.722056 -7.697261
v 6.836084 14.833423 -8.442271
v 6.888608 14.889976 -8.118570
v 14.770368 9.195871 0.695167
v 14.608815 8.201571 2.750526
v 14.396527 11.267825 -3.753819
v 13.860753 10.810443 -3.950896
v 13.840821 11.286326 -3.482999
v 12.624791 12.023517 -5.645145
v 11.640695 13.455554 -7.430590
v 11.836198 13.964053 -7.088293
v 13.303712 12.269565 -5.876221
v 13.063386 11.735126 -6.115903
v 9.683469 14.236041 -8.542742
v 9.919885 14.971324 -8.168328
v 7.809404 15.575572 -7.773889
v 6.221918 15.632220 -8.368886
v 6.290248 15.931674 -7.977308
v 7.064489 15.761729 -8.181823
v 6.350807 15.958758 -7.741512
v 7.108978 15.840312 -7.830347
v 7.594827 14.685412 -8.274568
v 3.835252 15.772029 -7.230867
v 3.930763 15.968104 -7.144083
v 11.159089 13.287707 -7.061065
v 11.191895 13.196918 -7.214035
v 12.954572 11.714908 -6.067242
v 11.259988 12.883922 -7.606186
v 14.593938 9.136934 -1.844277
v 14.776090 9.392900 -1.734748
v 14.534715 8.188982 -0.014987
v 14.712956 8.382769 0.173435
v 13.285211 12.884303 -5.363740
v 14.429811 10.676928 -1.130618
v 14.141038 10.567255 -1.131572
v 13.775876 8.546037 3.229413
v 14.093926 8.706063 3.134308
v 5.237201 15.888377 -7.791151
v 5.935815 16.023418 -7.626689
v 9.478906 14.257785 -7.927097
v 9.481481 14.146777 -8.088984
v 7.591918 14.413235 -8.824409
v 5.081228 15.014049 -8.188308
v 7.024721 15.457698 -8.500016
v 5.895713 16.010448 -7.782329
v 5.680135 15.701648 -8.208716
v 6.156782 14.951678 -8.113778
v 5.881265 15.505954 -7.524265
v 5.123666 15.165683 -7.916702
v 5.255750 15.229007 -7.739986
v 9.508851 14.119311 -8.368267
v 7.546714 14.649173 -8.489383
v 14.190915 9.537859 -1.577153
v 13.957551 10.132761 -1.273908
v 11.277345 13.092586 -7.483019
v 12.988427 12.839862 -5.243625
v 12.669518 12.447330 -5.364694
v 14.295629 8.662766 3.125797
v 14.666226 7.824487 2.442345
v 14.288857 7.412309 1.987896
v 14.350560 8.334322 0.033388
v 14.163926 8.163996 2.574430
v 14.247182 9.232302 0.545655
v 14.668038 10.544367 -1.183547
v 14.790395 10.141535 -1.424517
v 14.779428 9.788103 -1.543512
v 14.330724 9.253664 -1.773181
v 13.926938 10.599681 -4.193987
v 13.398316 12.687846 -5.566181
v 12.741521 11.709758 -5.795468
v 11.257699 13.565799 -6.879581
v 9.605077 13.879748 -8.575644
v 9.520009 14.536258 -7.711376
v 5.260137 15.613338 -7.279075
v 5.318883 15.324756 -7.587255
v 3.775314 15.322658 -7.194770
v 3.782204 15.552684 -7.253421
v 5.246452 15.772410 -7.975400
v 4.043129 16.147778 -7.015765
v 4.212073 15.809985 -6.750930
v 4.090956 15.567561 -6.866086
v 3.997091 15.340777 -6.950248
v 4.234270 16.268894 -6.781734
v 3.935579 15.309688 -7.038368
v 11.769727 14.057132 -6.910146
v 14.247849 7.862253 2.932987
v 3.875259 15.813609 -6.893266
vt 0.106306 0.468914
vt 0.101070 0.478100
vt 0.103969 0.468608
vt 0.455320 0.894947
vt 0.466746 0.858869
vt 0.470854 0.860087
vt 0.915833 0.407227
vt 0.918836 0.386209
vt 0.925841 0.412724
vt 0.748508 0.845406
vt 0.761460 0.883505
vt 0.744406 0.847128
vt 0.961288 0.800386
vt 0.953862 0.791662
vt 0.961293 0.792549
vt 0.631520 0.947260
vt 0.634278 0.928242
vt 0.634278 0.947298
vt 0.089753 0.504257
vt 0.100035 0.503248
vt 0.091553 0.519199
vt 0.293033 0.923962
vt 0.283201 0.914871
vt 0.293820 0.913152
vt 0.746682 0.809481
vt 0.740422 0.808709
vt 0.108842 0.518403
vt 0.108958 0.557816
vt 0.100596 0.519432
vt 0.151524 0.845416
vt 0.148234 0.845663
vt 0.150379 0.837088
vt 0.953681 0.779663
vt 0.949946 0.766164
vt 0.961806 0.779767
vt 0.543643 0.173663
vt 0.554058 0.170309
vt 0.551943 0.215522
vt 0.753013 0.079710
vt 0.764310 0.077731
vt 0.754005 0.124835
vt 0.287236 0.682196
vt 0.279174 0.682459
vt 0.282346 0.643222
vt 0.116732 0.557636
vt 0.123006 0.555482
vt 0.125456 0.596804
vt 0.099564 0.488389
vt 0.108397 0.487961
vt 0.117601 0.487549
vt 0.115706 0.502373
vt 0.753487 0.781805
vt 0.750023 0.795670
vt 0.749515 0.780071
vt 0.705231 0.904703
vt 0.704319 0.917296
vt 0.702085 0.904221
vt 0.994081 0.911185
vt 0.990235 0.911185
vt 0.993404 0.881467
vt 0.844962 0.975580
vt 0.841739 0.934234
vt 0.844962 0.933915
vt 0.276038 0.548921
vt 0.288459 0.500387
vt 0.294708 0.553030
vt 0.470854 0.898560
vt 0.465179 0.897495
vt 0.918467 0.367557
vt 0.927666 0.325448
vt 0.923748 0.368080
vt 0.927666 0.455575
vt 0.921909 0.453092
vt 0.128725 0.446855
vt 0.123399 0.467476
vt 0.115491 0.468804
vt 0.707564 0.952684
vt 0.701025 0.917335
vt 0.756578 0.774401
vt 0.758750 0.775018
vt 0.761460 0.761993
vt 0.160425 0.738129
vt 0.154281 0.774340
vt 0.157425 0.737058
vt 0.150780 0.773671
vt 0.744104 0.793982
vt 0.107517 0.503299
vt 0.292288 0.934160
vt 0.284667 0.935898
vt 0.284018 0.925310
vt 0.119661 0.480005
vt 0.109320 0.477833
vt 0.048560 0.859370
vt 0.049896 0.868274
vt 0.045142 0.869479
vt 0.158731 0.837665
vt 0.159960 0.845078
vt 0.048246 0.878908
vt 0.051936 0.877121
vt 0.056678 0.797449
vt 0.061670 0.798969
vt 0.051057 0.832582
vt 0.046969 0.832683
vt 0.752102 0.032660
vt 0.142279 0.533717
vt 0.155075 0.532918
vt 0.159133 0.579287
vt 0.542702 0.791617
vt 0.547064 0.792396
vt 0.542797 0.830772
vt 0.771770 0.075859
vt 0.772129 0.123464
vt 0.763303 0.124399
vt 0.918113 0.453017
vt 0.543755 0.214765
vt 0.536751 0.174449
vt 0.129098 0.496986
vt 0.129626 0.456511
vt 0.132861 0.456940
vt 0.133357 0.497234
vt 0.148562 0.452443
vt 0.160899 0.487860
vt 0.150480 0.495089
vt 0.544122 0.130507
vt 0.535574 0.131138
vt 0.463042 0.935153
vt 0.280482 0.501328
vt 0.279556 0.463901
vt 0.135561 0.534975
vt 0.763777 0.000187
vt 0.772129 0.036239
vt 0.763081 0.035897
vt 0.160332 0.533684
vt 0.548705 0.129640
vt 0.542979 0.086058
vt 0.273735 0.502828
vt 0.579207 0.485895
vt 0.580125 0.436613
vt 0.581231 0.485627
vt 0.142423 0.586950
vt 0.130768 0.535326
vt 0.548658 0.039885
vt 0.543155 0.038950
vt 0.532037 0.082970
vt 0.162054 0.622055
vt 0.143989 0.586397
vt 0.149195 0.583790
vt 0.147129 0.810255
vt 0.763320 0.167749
vt 0.756917 0.168610
vt 0.270467 0.641499
vt 0.272029 0.595545
vt 0.281741 0.596808
vt 0.943348 0.041125
vt 0.939494 0.000187
vt 0.947978 0.001296
vt 0.934579 0.042493
vt 0.160792 0.775305
vt 0.166732 0.738109
vt 0.101589 0.557234
vt 0.115289 0.517676
vt 0.961806 0.767007
vt 0.960615 0.813729
vt 0.953333 0.799946
vt 0.952874 0.812463
vt 0.161853 0.856478
vt 0.154439 0.853759
vt 0.293820 0.965156
vt 0.289547 0.965506
vt 0.111634 0.469615
vt 0.124427 0.445810
vt 0.166732 0.875744
vt 0.590773 0.976568
vt 0.586017 0.975887
vt 0.590773 0.949372
vt 0.054917 0.876494
vt 0.061670 0.903005
vt 0.581641 0.975156
vt 0.952311 0.834645
vt 0.960802 0.835629
vt 0.285382 0.965891
vt 0.150970 0.854332
vt 0.753939 0.773247
vt 0.216841 0.972885
vt 0.207711 0.970076
vt 0.216841 0.939728
vt 0.860429 0.985622
vt 0.865891 0.947378
vt 0.865891 0.986676
vt 0.964813 0.293912
vt 0.959923 0.295603
vt 0.955685 0.260347
vt 0.961253 0.260316
vt 0.128725 0.595083
vt 0.389757 0.976421
vt 0.394188 0.928057
vt 0.394188 0.976705
vt 0.933034 0.593904
vt 0.920027 0.553037
vt 0.925970 0.550551
vt 0.560913 0.000187
vt 0.564417 0.001882
vt 0.964813 0.215189
vt 0.748259 0.123051
vt 0.754404 0.169609
vt 0.581231 0.528103
vt 0.921394 0.514542
vt 0.136454 0.977380
vt 0.130104 0.976130
vt 0.136454 0.936006
vt 0.530141 0.132967
vt 0.552528 0.148395
vt 0.913920 0.366997
vt 0.457488 0.856184
vt 0.564417 0.216112
vt 0.771399 0.167595
vt 0.947978 0.084212
vt 0.541319 0.868688
vt 0.534074 0.866902
vt 0.051205 0.845994
vt 0.045120 0.845782
vt 0.059846 0.903817
vt 0.043713 0.859315
vt 0.146447 0.837013
vt 0.435522 0.726945
vt 0.433757 0.726659
vt 0.435522 0.689212
vt 0.707794 0.975415
vt 0.707794 0.997193
vt 0.705241 0.996457
vt 0.473678 0.799884
vt 0.469503 0.800394
vt 0.476589 0.756697
vt 0.703691 0.891041
vt 0.706587 0.891995
vt 0.964161 0.412347
vt 0.955094 0.367546
vt 0.961058 0.366887
vt 0.964161 0.324801
vt 0.476589 0.843558
vt 0.469134 0.934549
vt 0.933034 0.468522
vt 0.919427 0.514606
vt 0.120035 0.444743
vt 0.162054 0.444049
vt 0.687487 0.955464
vt 0.689681 0.952778
vt 0.696322 0.967783
vt 0.995930 0.985952
vt 0.992923 0.987606
vt 0.995930 0.967873
vt 0.696322 0.951325
vt 0.686477 0.967624
vt 0.688254 0.975599
vt 0.990401 0.983712
vt 0.456243 0.845512
vt 0.145598 0.444070
vt 0.953113 0.983736
vt 0.955380 0.987479
vt 0.951519 0.991666
vt 0.864680 0.760875
vt 0.865386 0.756564
vt 0.871459 0.765532
vt 0.986402 0.406706
vt 0.991610 0.401030
vt 0.991610 0.411039
vt 0.982516 0.151266
vt 0.983180 0.155833
vt 0.977904 0.156646
vt 0.869437 0.756168
vt 0.871459 0.756676
vt 0.983180 0.160141
vt 0.982269 0.163852
vt 0.981837 0.146808
vt 0.996264 0.871159
vt 0.998948 0.870921
vt 0.998948 0.880773
vt 0.958335 0.991666
vt 0.116045 0.444049
vt 0.922797 0.324801
vt 0.707564 0.885014
vt 0.999587 0.194813
vt 0.999587 0.207175
vt 0.996875 0.206540
vt 0.435472 0.741491
vt 0.271238 0.681770
vt 0.293405 0.597235
vt 0.291896 0.898433
vt 0.543660 0.905234
vt 0.536901 0.905773
vt 0.541660 0.895641
vt 0.533189 0.896100
vt 0.541863 0.882264
vt 0.537336 0.827908
vt 0.531990 0.881564
vt 0.294296 0.501076
vt 0.294708 0.643584
vt 0.293627 0.680032
vt 0.056388 0.906166
vt 0.043194 0.878739
vt 0.541432 0.913995
vt 0.547064 0.913813
vt 0.980115 0.882618
vt 0.985214 0.881467
vt 0.985214 0.927161
vt 0.388655 0.446822
vt 0.394078 0.493929
vt 0.386621 0.446297
vt 0.394078 0.404462
vt 0.155088 0.811100
vt 0.165842 0.812005
vt 0.148731 0.823830
vt 0.159193 0.824683
vn -0.326000 0.603500 -0.727700
vn -0.325600 0.342200 -0.881400
vn -0.453500 0.329800 -0.828000
vn 0.997600 -0.067200 0.015300
vn 0.699700 -0.684600 0.204200
vn 0.082700 -0.992600 -0.088700
vn 0.494300 0.772300 0.399100
vn 0.060900 0.906800 0.417000
vn -0.898600 0.422600 0.117700
vn -0.016400 0.472500 0.881200
vn -0.267400 0.506700 0.819600
vn 0.352900 0.927700 0.121600
vn 0.308100 0.351400 0.884100
vn 0.119800 -0.418200 0.900400
vn 0.202500 0.293700 0.934200
vn 0.125900 0.991000 0.045900
vn -0.417300 0.902800 0.103600
vn 0.405700 0.387000 0.828100
vn -0.189700 -0.715600 -0.672300
vn -0.002300 0.450400 -0.892800
vn -0.015700 -0.379800 -0.924900
vn -0.463800 -0.776900 -0.425800
vn -0.173400 0.388000 -0.905200
vn -0.393300 -0.789400 -0.471400
vn 0.232300 0.951600 0.201400
vn 0.193700 0.837300 -0.511300
vn 0.155300 0.579200 -0.800300
vn 0.403000 0.317300 -0.858500
vn 0.142400 0.373400 -0.916700
vn 0.073400 -0.755600 0.650900
vn -0.105800 -0.913600 0.392700
vn 0.038200 -0.688200 0.724500
vn 0.031500 -0.401400 0.915400
vn -0.122900 -0.531500 0.838100
vn 0.177800 0.315200 0.932200
vn 0.960100 0.237000 0.148600
vn 0.876700 -0.015200 0.480900
vn -0.924300 -0.344000 0.165600
vn -0.953000 -0.009100 0.303000
vn -0.834900 -0.363800 0.413100
vn 0.349300 0.120400 -0.929200
vn 0.609700 0.077500 -0.788800
vn 0.456300 0.652800 -0.604700
vn 0.698400 0.530400 -0.480500
vn -0.059300 0.676700 -0.733800
vn 0.039500 0.916600 -0.397800
vn 0.103100 0.870700 -0.480900
vn 0.204100 0.941300 0.268900
vn 0.203300 0.947700 0.246100
vn 0.091500 0.318300 0.943600
vn -0.813000 0.395800 -0.427000
vn -0.705400 0.604200 -0.370600
vn -0.701600 -0.497700 0.510000
vn -0.657000 -0.730800 0.185000
vn 0.956400 0.123300 -0.264600
vn 0.949200 -0.230000 -0.214800
vn 0.426300 -0.686800 -0.588700
vn 0.141500 -0.895500 -0.421900
vn 0.923600 -0.363900 -0.120100
vn 0.120100 0.899800 0.419500
vn -0.625700 0.616100 0.478500
vn -0.698400 0.628400 0.342500
vn -0.687200 0.016500 0.726200
vn 0.024000 0.576300 0.816900
vn -0.135800 0.819300 -0.557100
vn 0.235800 0.928900 0.285600
vn -0.441900 -0.643800 0.624600
vn -0.440000 -0.857100 0.267900
vn 0.033300 0.643300 -0.764900
vn -0.454900 -0.802700 -0.385600
vn 0.003900 0.936400 -0.351000
vn -0.185500 0.704200 -0.685300
vn -0.094000 -0.926300 0.364900
vn -0.065800 -0.918200 0.390500
vn 0.270400 -0.372000 0.888000
vn 0.097500 -0.914200 0.393500
vn 0.034700 -0.912400 0.407900
vn -0.423300 -0.830200 0.362800
vn -0.229300 -0.882100 0.411500
vn -0.239900 -0.892600 0.381600
vn -0.937000 -0.329300 -0.116500
vn -0.996300 0.007600 0.085300
vn -0.318700 -0.801700 -0.505700
vn -0.711400 -0.573200 0.406600
vn -0.308900 0.666200 0.678800
vn -0.781500 0.044600 0.622300
vn 0.474200 0.344900 0.810000
vn 0.896100 -0.298600 0.328400
vn -0.825000 -0.565000 -0.007000
vn -0.868700 -0.452400 -0.201800
vn -0.936100 -0.322000 -0.141700
vn -0.961500 -0.248800 -0.116700
vn 0.812600 0.537100 0.226200
vn 0.990900 0.134000 -0.008100
vn 0.997300 0.014300 -0.072500
vn -0.733800 -0.625200 -0.265900
vn 0.515300 0.811100 0.276700
vn -0.743300 -0.663400 -0.085500
vn -0.934800 -0.272700 0.227600
vn 0.294600 -0.830900 -0.472000
vn 0.527000 0.828200 0.190600
vn 0.853800 0.395700 -0.338100
vn -0.675400 -0.737400 0.001600
vn -0.569400 0.004700 0.822000
vn 0.814000 0.057700 -0.577900
vn -0.347000 -0.276200 0.896300
vn 0.346700 -0.305500 0.886900
vn 0.146500 -0.769400 0.621800
vn -0.820900 -0.567400 -0.065100
vn -0.905300 0.072100 -0.418700
vn -0.251100 0.717600 -0.649600
vn -0.679900 0.658700 -0.322300
vn 0.067500 -0.179700 0.981400
vn -0.002700 -0.383700 0.923400
vn -0.192100 -0.642600 0.741700
vn 0.037400 0.573300 0.818500
vn -0.129700 -0.793100 -0.595100
vn 0.354100 0.889500 0.288700
vn -0.222500 -0.868700 -0.442400
vn -0.222000 -0.972000 0.076600
vn -0.122300 -0.852000 0.509100
vn -0.128100 -0.925700 0.356000
vn -0.397000 -0.782500 0.479700
vn -0.084500 -0.921300 0.379500
vn -0.211000 -0.686700 0.695600
vn -0.793800 0.127800 0.594700
vn 0.448600 -0.521700 -0.725600
usemtl None
s 1
f 1/1/1 2/2/2 3/3/3
f 6/4/4 7/5/5 8/6/6
f 11/7/7 12/8/8 13/9/9
f 14/10/10 15/11/11 16/12/12
f 17/13/13 18/14/14 19/15/15
f 20/16/16 21/17/17 22/18/18
f 23/19/19 24/20/20 25/21/21
f 26/22/22 27/23/23 28/24/24
f 29/25/25 16/12/12 30/26/26
f 31/27/27 32/28/28 33/29/29
f 36/30/30 37/31/31 38/32/32
f 39/33/33 40/34/34 41/35/35
f 44/36/36 11/37/7 45/38/37
f 47/39/38 48/40/39 49/41/40
f 54/42/41 32/43/28 50/44/42
f 55/45/43 16/46/12 51/47/44
f 27/48/23 2/2/2 57/49/45
f 58/50/46 59/51/47 57/49/45
f 60/52/48 61/53/49 58/54/46
f 41/55/35 56/56/50 61/57/49
f 63/58/51 64/59/52 1/60/1
f 49/61/40 65/62/53 66/63/54
f 46/64/55 70/65/56 5/66/57
f 8/6/6 71/67/58 72/68/59
f 74/69/60 10/70/61 75/71/62
f 13/9/9 76/72/63 77/73/64
f 21/74/17 20/75/16 78/76/65
f 56/56/50 14/77/10 29/78/25
f 60/52/48 79/79/66 17/80/13
f 17/80/13 79/79/66 20/81/16
f 65/82/53 80/83/67 66/84/54
f 80/83/67 81/85/68 66/84/54
f 29/25/25 59/86/47 61/53/49
f 31/27/27 24/20/20 84/87/69
f 83/88/70 3/89/3 2/90/2
f 78/76/65 20/75/16 85/91/71
f 86/92/72 78/76/65 85/91/71
f 87/93/73 37/94/31 34/95/74
f 18/96/14 88/97/75 36/30/30
f 19/15/15 18/14/14 39/33/33
f 89/98/76 34/95/74 90/99/77
f 34/95/74 37/94/31 90/99/77
f 91/100/78 81/101/68 62/102/79
f 62/102/79 92/103/80 91/100/78
f 93/104/81 48/40/39 47/39/38
f 93/105/81 94/106/82 48/107/39
f 68/108/83 95/109/84 91/110/78
f 10/111/61 96/112/85 48/40/39
f 96/112/85 97/113/86 48/40/39
f 77/73/64 98/114/87 11/7/7
f 44/36/36 99/115/88 6/116/4
f 71/117/58 8/118/6 100/119/89
f 71/117/58 100/119/89 101/120/90
f 102/121/91 13/122/9 103/123/92
f 104/124/93 11/37/7 105/125/94
f 11/37/7 44/36/36 105/125/94
f 6/4/4 72/68/59 70/126/56
f 70/65/56 106/127/95 6/128/4
f 93/105/81 107/129/96 101/120/90
f 103/130/92 75/131/62 94/132/82
f 103/123/92 13/122/9 75/133/62
f 74/134/60 104/124/93 9/135/97
f 46/64/55 105/136/94 106/127/95
f 4/137/98 107/138/96 108/139/99
f 4/140/98 69/141/100 107/129/96
f 73/142/101 9/135/97 109/143/102
f 9/135/97 46/144/55 109/143/102
f 110/145/103 108/146/99 47/147/38
f 62/148/79 81/85/68 80/83/67
f 49/41/40 111/149/104 65/150/53
f 49/41/40 97/113/86 111/149/104
f 51/151/44 109/152/102 52/153/105
f 111/154/104 14/155/10 113/156/106
f 111/154/104 15/157/11 14/155/10
f 80/83/67 65/82/53 113/158/106
f 65/82/53 111/159/104 113/158/106
f 32/28/28 54/160/41 33/29/29
f 16/46/12 55/45/43 30/161/26
f 27/48/23 84/87/69 24/20/20
f 40/34/34 56/162/50 41/35/35
f 22/163/18 88/164/75 17/13/13
f 22/163/18 114/165/107 88/164/75
f 86/92/72 85/91/71 58/50/46
f 2/2/2 86/92/72 57/49/45
f 88/97/75 114/166/107 115/167/108
f 36/30/30 88/97/75 115/167/108
f 116/168/109 117/169/110 3/89/3
f 3/89/3 83/88/70 116/168/109
f 118/170/111 21/74/17 78/76/65
f 118/170/111 119/171/112 21/74/17
f 114/166/107 120/172/113 115/167/108
f 120/173/113 121/174/114 115/175/108
f 115/176/108 122/177/115 90/99/77
f 115/175/108 121/174/114 122/178/115
f 120/179/113 114/165/107 22/163/18
f 22/163/18 123/180/116 120/179/113
f 3/89/3 117/169/110 63/181/51
f 90/182/77 37/31/31 36/30/30
f 115/167/108 90/182/77 36/30/30
f 26/22/22 2/90/2 27/23/23
f 79/79/66 60/52/48 85/183/71
f 61/53/49 59/86/47 58/54/46
f 23/19/19 27/48/23 24/20/20
f 113/184/106 14/185/10 56/186/50
f 31/27/27 30/161/26 55/45/43
f 55/45/43 32/28/28 31/27/27
f 112/187/117 25/188/21 54/189/41
f 25/21/21 33/29/29 54/160/41
f 81/190/68 91/191/78 95/192/84
f 95/192/84 66/193/54 81/190/68
f 51/47/44 16/46/12 125/194/118
f 68/195/83 110/196/103 95/197/84
f 68/198/83 67/199/119 110/200/103
f 73/142/101 109/143/102 51/201/44
f 125/202/118 73/142/101 51/201/44
f 95/192/84 110/203/103 66/193/54
f 110/204/103 49/41/40 66/205/54
f 49/41/40 48/40/39 97/113/86
f 4/137/98 108/139/99 110/206/103
f 110/200/103 67/199/119 4/207/98
f 52/153/105 109/152/102 46/64/55
f 47/147/38 108/146/99 107/129/96
f 107/129/96 93/105/81 47/147/38
f 9/135/97 104/124/93 46/144/55
f 104/124/93 105/125/94 46/144/55
f 10/111/61 48/40/39 94/132/82
f 94/132/82 75/131/62 10/111/61
f 94/106/82 101/120/90 103/123/92
f 94/106/82 93/105/81 101/120/90
f 69/141/100 71/117/58 107/129/96
f 71/117/58 101/120/90 107/129/96
f 106/208/95 105/209/94 44/210/36
f 44/36/36 6/116/4 106/211/95
f 74/134/60 12/212/8 104/124/93
f 12/8/8 11/7/7 104/213/93
f 100/119/89 102/121/91 103/123/92
f 103/123/92 101/120/90 100/119/89
f 6/4/4 99/214/88 7/5/5
f 11/37/7 98/215/87 45/38/37
f 97/113/86 96/112/85 15/216/11
f 97/217/86 15/157/11 111/154/104
f 91/110/78 92/218/80 82/219/120
f 52/153/105 46/64/55 5/66/57
f 59/51/47 84/87/69 57/49/45
f 92/103/80 43/220/121 42/221/122
f 92/103/80 62/102/79 43/220/121
f 89/98/76 90/99/77 122/177/115
f 124/222/123 89/98/76 122/177/115
f 87/93/73 35/223/124 42/221/122
f 18/14/14 17/13/13 88/164/75
f 37/31/31 87/224/73 38/32/32
f 86/92/72 2/2/2 1/1/1
f 1/1/1 118/170/111 86/92/72
f 24/20/20 33/29/29 25/21/21
f 84/87/69 59/51/47 30/161/26
f 30/161/26 31/27/27 84/87/69
f 86/92/72 118/170/111 78/76/65
f 82/225/120 25/226/21 112/227/117
f 22/228/18 21/229/17 123/230/116
f 15/231/11 125/232/118 16/233/12
f 60/234/48 19/235/15 41/55/35
f 56/56/50 29/78/25 61/57/49
f 20/81/16 79/79/66 85/183/71
f 10/236/61 73/237/101 96/238/85
f 75/71/62 13/9/9 12/8/8
f 75/71/62 12/8/8 74/69/60
f 96/238/85 73/237/101 125/239/118
f 125/232/118 15/231/11 96/240/85
f 70/126/56 72/68/59 71/67/58
f 71/67/58 69/241/100 70/126/56
f 69/242/100 4/207/98 5/243/57
f 5/243/57 4/207/98 67/199/119
f 118/170/111 1/1/1 64/244/52
f 64/244/52 119/171/112 118/170/111
f 76/245/63 13/122/9 102/121/91
f 98/246/87 77/247/64 126/248/125
f 100/249/89 8/250/6 126/251/125
f 77/247/64 76/252/63 126/248/125
f 45/253/37 98/246/87 126/248/125
f 99/254/88 45/253/37 126/248/125
f 8/250/6 7/255/5 126/251/125
f 7/5/5 99/214/88 126/256/125
f 102/121/91 100/119/89 126/257/125
f 76/245/63 102/121/91 126/257/125
f 122/258/115 121/259/114 127/260/126
f 117/261/110 116/262/109 127/263/126
f 120/264/113 123/265/116 127/266/126
f 119/267/112 64/268/52 127/269/126
f 124/270/123 122/271/115 127/263/126
f 64/268/52 63/272/51 127/269/126
f 63/272/51 117/273/110 127/269/126
f 21/274/17 119/267/112 127/269/126
f 123/275/116 21/276/17 127/277/126
f 121/259/114 120/278/113 127/260/126
f 63/279/51 1/1/1 3/3/3
f 72/68/59 6/4/4 8/6/6
f 74/69/60 9/280/97 10/70/61
f 77/73/64 11/7/7 13/9/9
f 29/25/25 14/10/10 16/12/12
f 60/234/48 17/281/13 19/235/15
f 17/282/13 20/283/16 22/284/18
f 82/225/120 23/285/19 25/226/21
f 59/86/47 29/25/25 30/26/26
f 24/20/20 31/27/27 33/29/29
f 87/93/73 34/95/74 35/223/124
f 18/96/14 36/30/30 38/32/32
f 19/15/15 39/33/33 41/35/35
f 99/115/88 44/36/36 45/38/37
f 50/44/42 55/286/43 51/151/44
f 110/204/103 47/39/38 49/41/40
f 52/153/105 50/44/42 51/151/44
f 52/153/105 5/66/57 53/287/127
f 84/87/69 27/48/23 57/49/45
f 86/92/72 58/50/46 57/49/45
f 85/183/71 60/52/48 58/54/46
f 27/23/23 23/288/19 28/24/24
f 60/234/48 41/55/35 61/57/49
f 34/289/74 26/290/22 35/291/124
f 35/291/124 28/292/24 42/293/122
f 68/108/83 91/110/78 112/294/117
f 23/295/19 82/219/120 92/218/80
f 42/293/122 23/295/19 92/218/80
f 69/296/100 5/66/57 70/65/56
f 68/297/83 112/298/117 54/42/41
f 124/222/123 116/299/109 83/300/70
f 83/300/70 89/98/76 124/222/123
f 83/301/70 26/290/22 34/289/74
f 34/289/74 89/302/76 83/301/70
f 112/294/117 91/110/78 82/219/120
f 26/290/22 28/292/24 35/291/124
f 116/262/109 124/270/123 127/263/126
f 83/88/70 2/90/2 26/22/22
f 42/293/122 28/292/24 23/295/19
f 68/297/83 54/42/41 50/44/42
f 10/303/61 9/304/97 73/305/101
f 50/44/42 32/43/28 55/286/43
f 46/64/55 106/127/95 70/65/56
f 67/306/119 68/307/83 53/308/127
f 67/306/119 53/308/127 5/309/57
f 50/44/42 52/153/105 53/287/127
f 50/44/42 53/287/127 68/297/83
f 80/83/67 40/310/34 62/148/79
f 40/310/34 80/83/67 113/158/106
f 113/158/106 56/311/50 40/310/34
f 38/32/32 87/224/73 43/312/121
f 40/310/34 39/313/33 43/312/121
f 18/96/14 43/312/121 39/313/33
f 18/96/14 38/32/32 43/312/121
f 87/93/73 42/221/122 43/220/121
f 43/312/121 62/148/79 40/310/34
