# Blender v2.75 (sub 0) OBJ File: 'untitled.blend'
# www.blender.org
mtllib Traffic_Cone_COL.mtl
o Cube.001_Cube.003
v -0.201053 -0.000779 0.201053
v -0.201053 0.017241 0.201053
v -0.201053 -0.000779 -0.201053
v -0.201053 0.017241 -0.201053
v 0.201053 -0.000779 0.201053
v 0.201053 0.017241 0.201053
v 0.201053 -0.000779 -0.201053
v 0.201053 0.017241 -0.201053
v 0.060332 0.008832 -0.156593
v 0.137151 0.008818 -0.096689
v 0.008239 0.504194 -0.018354
v 0.162596 0.008806 -0.032369
v 0.017114 0.504207 -0.006613
v 0.163702 0.008821 0.036792
v 0.107191 0.008841 0.130590
v 0.016365 0.504195 0.011632
v 0.019221 0.008809 0.165362
v -0.060338 0.008828 0.156542
v -0.126837 0.008811 0.107841
v -0.004701 0.504217 0.020240
v -0.158461 0.008812 0.051093
v -0.165962 0.008809 -0.013438
v -0.148196 0.008814 -0.075926
v -0.020379 0.504205 0.001348
v -0.107870 0.008810 -0.126860
v -0.036821 0.008819 -0.163730
v -0.009257 0.504209 -0.014813
v 0.008919 0.504210 -0.012510
v 0.005421 0.504209 0.014328
v -0.014976 0.504248 0.005620
v 0.026978 0.406097 -0.035052
v -0.016570 0.406083 -0.040024
v 0.042897 0.406085 0.007183
v 0.023655 0.406069 0.035381
v 0.008181 0.406063 0.041114
v -0.000003 0.406063 0.041920
v -0.015268 0.406064 0.039589
v -0.040395 0.406096 0.016705
v -0.038809 0.406066 -0.017243
v 0.008181 0.406063 0.041114
v -0.000003 0.406063 0.041920
vt 0.120152 0.242683
vt 0.120152 0.215569
vt 0.878461 0.242683
vt 0.878461 0.215569
vt 0.491844 0.975400
vt 0.526817 0.975400
vt 0.507650 0.975401
vt 0.483808 0.975400
vt 0.466237 0.975400
vt 0.478134 0.975400
vt 0.543027 0.827753
vt 0.430837 0.827753
vt 0.472320 0.827753
vt 0.434317 0.229992
vt 0.741672 0.229992
vt 0.533832 0.229992
vt 0.532317 0.975400
vt 0.513110 0.975400
vt 0.513304 0.975400
vt 0.499307 0.827753
vt 0.514116 0.827753
vt 0.540926 0.827753
vt 0.571282 0.827753
vt 0.432135 0.827753
vt 0.471208 0.827753
vt 0.305802 0.229992
vt 0.201642 0.229992
vt 0.233487 0.229992
vt 0.793571 0.229992
vt 0.788139 0.229992
vt 0.271850 0.229992
vt 0.215113 0.229992
vt 0.392643 0.229992
vt 0.605970 0.229992
vt 0.685479 0.229992
vn -1.000000 0.000000 0.000000
vn 0.000000 0.000000 -1.000000
vn 1.000000 0.000000 0.000000
vn 0.000000 0.000000 1.000000
vn 0.000000 -1.000000 0.000000
vn 0.000000 1.000000 0.000000
vn 0.001500 1.000000 0.001100
vn -0.005400 1.000000 -0.003400
vn -0.000400 1.000000 0.000200
vn 0.001400 1.000000 0.000700
vn 0.002400 1.000000 -0.002900
vn -0.022100 0.999600 0.017700
vn 0.000000 1.000000 0.000500
vn -0.000000 1.000000 0.001100
vn -0.000100 1.000000 0.000500
vn 0.002000 1.000000 -0.000800
vn -0.000400 1.000000 0.000400
vn -0.000200 1.000000 0.000300
vn 0.000300 1.000000 -0.002700
vn -0.000300 -1.000000 -0.000200
vn -0.001000 -1.000000 0.000200
vn -0.000200 -1.000000 0.000100
vn 0.000300 -1.000000 -0.000100
vn 0.000200 -1.000000 -0.000400
vn 0.000200 -1.000000 0.000100
vn -0.000300 -1.000000 0.000300
vn 0.000600 -1.000000 0.000600
vn 0.000100 -1.000000 0.000000
vn 0.243600 0.727200 -0.641700
vn 0.367500 0.924900 -0.097400
vn 0.674700 -0.540400 -0.502800
vn -0.193800 0.808100 -0.556200
vn 0.035900 0.833700 -0.551100
vn 0.356300 0.539700 -0.762700
vn -0.298000 0.710100 0.637900
vn 0.282600 0.519900 0.806100
vn -0.534000 0.497400 0.683600
vn 0.563100 0.724500 0.397400
vn 0.814900 -0.537800 0.216100
vn 0.527400 0.813800 -0.244100
vn 0.790800 0.516300 -0.328700
vn -0.855300 0.506800 -0.107500
vn -0.520600 0.538500 -0.662500
vn -0.165000 0.721300 0.672600
vn 0.546900 -0.528300 0.649400
vn -0.692600 0.720600 0.030100
vn -0.626100 -0.550800 0.551900
vn -0.257300 0.820600 -0.510400
vn -0.296300 0.891400 -0.343100
vn -0.740700 -0.553400 -0.380900
vn -0.171200 -0.537900 -0.825400
vn 0.303400 -0.535300 -0.788300
vn 0.775800 0.536500 0.331900
vn 0.814200 -0.557700 -0.161400
vn 0.112200 -0.545500 0.830600
vn -0.305500 -0.541800 0.783000
vn -0.791500 -0.554700 0.256400
vn -0.829000 -0.555100 -0.067600
vn -0.532200 -0.550100 -0.643500
usemtl None
s off
f 4/1/1 3/2/1 1/2/1
f 8/3/2 7/4/2 3/2/2
f 6/3/3 5/4/3 7/4/3
f 2/1/4 1/2/4 5/4/4
f 3/2/5 7/4/5 5/4/5
f 8/3/6 4/1/6 2/1/6
f 20/5/7 16/6/7 29/7/7
f 27/8/8 24/9/8 30/10/8
f 31/11/9 39/12/9 37/13/9
f 26/14/5 10/15/5 17/16/5
f 2/1/1 4/1/1 1/2/1
f 4/1/2 8/3/2 3/2/2
f 8/3/3 6/3/3 7/4/3
f 6/3/4 2/1/4 5/4/4
f 1/2/5 3/2/5 5/4/5
f 6/3/6 8/3/6 2/1/6
f 30/10/7 20/5/7 29/7/7
f 29/7/10 16/6/10 13/17/10
f 13/17/11 11/18/11 28/19/11
f 24/9/12 20/5/12 30/10/12
f 37/13/13 36/20/13 35/21/13
f 37/13/14 35/21/14 34/22/14
f 37/13/15 34/22/15 33/23/15
f 39/12/16 38/24/16 37/13/16
f 31/11/17 32/25/17 39/12/17
f 37/13/18 33/23/18 31/11/18
f 28/19/19 11/18/19 27/8/19
f 25/26/20 22/27/20 23/28/20
f 10/15/21 12/29/21 14/30/21
f 19/31/22 21/32/22 22/27/22
f 22/27/23 18/33/23 19/31/23
f 26/14/24 9/34/24 10/15/24
f 22/27/25 25/26/25 26/14/25
f 17/16/26 18/33/26 22/27/26
f 14/30/27 15/35/27 17/16/27
f 17/16/28 10/15/28 14/30/28
f 17/16/5 22/27/5 26/14/5
s 1
f 11/18/29 13/17/30 10/15/31
f 29/7/32 36/20/33 37/13/34
f 28/19/35 32/25/36 31/11/37
f 13/17/30 16/6/38 14/30/39
f 30/10/40 37/13/34 38/24/41
f 29/7/32 33/23/42 34/22/43
f 16/6/38 20/5/44 15/35/45
f 28/19/35 31/11/37 33/23/42
f 20/5/44 24/9/46 19/31/47
f 29/7/32 35/21/48 36/20/33
f 24/9/46 27/8/49 23/28/50
f 27/8/49 11/18/29 26/14/51
f 36/20/33 41/20/4 40/21/4
f 26/14/51 11/18/29 9/34/52
f 9/34/52 11/18/29 10/15/31
f 39/12/53 30/10/40 38/24/41
f 10/15/31 13/17/30 12/29/54
f 14/30/39 12/29/54 13/17/30
f 32/25/36 27/8/49 39/12/53
f 15/35/45 14/30/39 16/6/38
f 35/21/48 29/7/32 34/22/43
f 13/17/30 28/19/35 33/23/42
f 15/35/45 20/5/44 17/16/55
f 17/16/55 20/5/44 18/33/56
f 28/19/35 27/8/49 32/25/36
f 30/10/40 29/7/32 37/13/34
f 18/33/56 20/5/44 19/31/47
f 19/31/47 24/9/46 21/32/57
f 21/32/57 24/9/46 22/27/58
f 22/27/58 24/9/46 23/28/50
f 23/28/50 27/8/49 25/26/59
f 27/8/49 30/10/40 39/12/53
f 25/26/59 27/8/49 26/14/51
f 29/7/32 13/17/30 33/23/42
f 35/21/48 36/20/33 40/21/4
