# This file uses centimeters as units for non-parametric coordinates.

v -0.016896 0.162226 0.002919
v 0.023598 0.162226 0.002919
v -0.016896 0.202720 0.002919
v -0.127147 0.458009 0.000000
v 0.127147 0.458009 0.000000
v -0.019445 -0.527199 -0.019686
v 0.019445 -0.527199 -0.019686
v 0.019445 -0.527199 0.019686
v -0.019445 -0.527199 0.019686
v 0.154805 0.282439 0.013178
v 0.154805 0.282439 -0.013178
v -0.154805 0.282439 -0.013178
v -0.154805 0.282439 0.013178
v -0.019445 0.076762 0.019686
v -0.019445 0.076762 -0.019686
v 0.019445 0.076762 0.019686
v 0.019445 0.076762 -0.019686
vt 0.000000 0.000000
vt 1.000000 0.000000
vt 0.000000 1.000000
vt 0.291667 0.333333
vt 0.708333 0.333333
vt 0.375000 0.750000
vt 0.625000 0.750000
vt 0.625000 1.000000
vt 0.375000 1.000000
vt 0.625000 0.205624
vt 0.875000 0.205624
vt 0.125000 0.205624
vt 0.375000 0.205624
vt 0.125000 0.000000
vt 0.375000 0.000000
vt 0.375000 0.194610
vt 0.125000 0.194610
vt 0.625000 0.000000
vt 0.625000 0.194610
vt 0.875000 0.000000
vt 0.875000 0.194610
vt 0.375000 0.555390
vt 0.625000 0.555390
vt 0.375000 0.544376
vt 0.625000 0.544376
vn 0.000000 0.000000 1.000000
vn 0.000000 0.000000 1.000000
vn 0.000000 0.000000 1.000000
vn 0.000000 -1.000000 0.000000
vn 0.000000 -1.000000 0.000000
vn 0.000000 -1.000000 0.000000
vn 0.000000 -1.000000 0.000000
vn 0.996050 -0.088793 0.000000
vn 0.914054 -0.405592 0.000001
vn 0.914054 -0.405592 0.000001
vn -0.996050 -0.088793 0.000000
vn -0.914054 -0.405592 0.000001
vn -0.914054 -0.405592 0.000001
vn -1.000000 0.000000 0.000000
vn -1.000000 0.000000 0.000000
vn -0.931176 -0.364570 0.000001
vn -0.931176 -0.364570 0.000001
vn 0.000000 0.000000 1.000000
vn 0.000000 0.000000 1.000000
vn 0.000000 0.040445 0.999182
vn 0.000000 0.040445 0.999182
vn 1.000000 0.000000 0.000000
vn 1.000000 0.000000 0.000000
vn 0.931176 -0.364570 0.000001
vn 0.931176 -0.364570 0.000001
vn 0.000000 0.040445 -0.999182
vn 0.000000 0.040445 -0.999182
vn 0.000000 0.000000 -1.000000
vn 0.000000 0.000000 -1.000000
vn -0.931176 -0.364570 0.000001
vn -0.931176 -0.364570 0.000001
vn -0.914054 -0.405592 0.000001
vn -0.914054 -0.405592 0.000001
vn 0.000000 0.040445 0.999182
vn 0.000000 0.040445 0.999182
vn 0.000000 0.040445 0.999182
vn 0.000000 0.040445 0.999182
vn 0.931176 -0.364570 0.000001
vn 0.931176 -0.364570 0.000001
vn 0.914054 -0.405592 0.000001
vn 0.914054 -0.405592 0.000001
vn 0.000000 0.040445 -0.999182
vn 0.000000 0.040445 -0.999182
vn 0.000000 0.040445 -0.999182
vn 0.000000 0.040445 -0.999182
vn 0.000000 0.000000 1.000000
vn 0.000000 0.000000 1.000000
vn 0.000000 0.040445 0.999182
vn 0.000000 0.040445 0.999182
vn 0.000000 0.040445 -0.999182
vn 0.000000 0.000000 -1.000000
vn 0.000000 0.000000 -1.000000
vn 0.000000 0.040445 -0.999182
s off
f 1/1/1 2/2/2 3/3/3
f 6/6/4 7/7/5 8/8/6 9/9/7
f 5/5/8 10/10/9 11/11/10
f 4/4/11 12/12/12 13/13/13
f 6/14/14 9/15/15 14/16/16 15/17/17
f 9/15/18 8/18/19 16/19/20 14/16/21
f 8/18/22 7/20/23 17/21/24 16/19/25
f 15/22/26 17/23/27 7/7/28 6/6/29
f 15/17/30 14/16/31 13/13/32 12/12/33
f 13/13/34 14/16/35 16/19/36 10/10/37
f 16/19/38 17/21/39 11/11/40 10/10/41
f 17/23/42 15/22/43 12/24/44 11/25/45
f 5/5/46 4/4/47 13/13/48 10/10/49
f 12/24/50 4/4/51 5/5/52 11/25/53
