phn_env -33 366 x 11 0 0 33 0.292941 66 0.302102 100 0.308161 133 0.324472 166 0.494913 200 0.693193 266 0.693193 300 1 333 1 366 0
phn_env 0 166 EY 5 33 0.495304 66 0.40028 100 0.337446 133 0.223408 166 0
phn_env 0 200 l 6 33 0.211755 66 0.297617 100 0.354394 133 0.447492 166 0.370859 200 0
phn_vis 0 33 3 EY 0.495304 x 0.292941 l 0.211755
phn 5 95 72 EY
phn_vis 33 66 3 EY 0.40028 x 0.302102 l 0.297617
phn_vis 66 100 3 l 0.354394 EY 0.337446 x 0.308161
phn_env 67 300 m 6 100 0 133 0.00462755 166 0.134228 200 0.306807 266 0.306807 300 0
phn 95 165 65 l
phn_vis 100 133 4 l 0.447492 x 0.324472 EY 0.223408 m 0.00462755
phn_vis 133 166 3 x 0.494913 l 0.370859 m 0.134228
phn 165 275 30 m
phn_vis 166 200 2 x 0.693193 m 0.306807
phn_vis 200 233 2 x 0.693193 m 0.306807
phn_vis 233 266 2 x 0.693193 m 0.306807
phn_vis 266 300 1 x 1
phn 275 295 0 p
phn_vis 300 333 1 x 1
end_markers
