# Blender v2.75 (sub 0) OBJ File: 'key.blend'
# www.blender.org
mtllib key.mtl
o Cube.002
v -0.081349 0.009934 0.020629
v -0.081349 0.010985 -0.000615
v -0.081349 0.007132 0.020629
v -0.081349 0.006081 -0.000615
v -0.058484 0.009934 0.020629
v -0.058484 0.010985 -0.000615
v -0.058484 0.007132 0.020629
v -0.058484 0.006081 -0.000615
v -0.076776 0.006081 -0.000615
v -0.072621 0.006081 -0.000615
v -0.067213 0.006081 -0.000615
v -0.063057 0.006081 -0.000615
v -0.063057 0.007132 0.020629
v -0.067213 0.007132 0.012120
v -0.072621 0.007132 0.012120
v -0.076776 0.007132 0.020629
v -0.063057 0.010985 -0.000615
v -0.067213 0.010985 -0.000615
v -0.072621 0.010985 -0.000615
v -0.076776 0.010985 -0.000615
v -0.076776 0.009934 0.020629
v -0.072621 0.009934 0.012120
v -0.067213 0.009934 0.012120
v -0.063057 0.009934 0.020629
v -0.087371 0.002931 0.000000
v 0.058972 0.002931 0.000000
v -0.087371 0.005732 0.005548
v 0.058972 0.005732 0.005548
v -0.087371 0.011334 0.005548
v 0.058972 0.011334 0.005548
v -0.087371 0.014135 0.000000
v 0.058972 0.014135 -0.000000
v -0.087371 0.011334 -0.005548
v 0.058972 0.011334 -0.005548
v -0.087371 0.005732 -0.005548
v 0.058972 0.005732 -0.005548
v -0.090572 0.005349 0.000000
v -0.090572 0.006941 0.003153
v -0.090572 0.010125 0.003153
v -0.090572 0.011717 0.000000
v -0.090572 0.010125 -0.003153
v -0.090572 0.006941 -0.003153
v 0.061572 0.005685 0.000000
v 0.061572 0.007109 0.002821
v 0.061572 0.009957 0.002821
v 0.061572 0.011381 -0.000000
v 0.061572 0.009957 -0.002821
v 0.061572 0.007109 -0.002821
v 0.113058 0.008533 0.000000
v 0.109398 0.014873 -0.000000
v 0.102078 0.014873 -0.000000
v 0.098417 0.008533 -0.000000
v 0.102078 0.002193 0.000000
v 0.109398 0.002193 0.000000
v 0.094757 0.008533 -0.031698
v 0.092927 0.014873 -0.028528
v 0.089267 0.014873 -0.022189
v 0.087437 0.008533 -0.019019
v 0.089267 0.002193 -0.022189
v 0.092927 0.002193 -0.028528
v 0.058155 0.008533 -0.031698
v 0.059985 0.014873 -0.028528
v 0.063645 0.014873 -0.022189
v 0.065476 0.008533 -0.019019
v 0.063645 0.002193 -0.022189
v 0.059985 0.002193 -0.028528
v 0.039854 0.008533 -0.000000
v 0.043514 0.014873 -0.000000
v 0.050835 0.014873 -0.000000
v 0.054495 0.008533 -0.000000
v 0.050835 0.002193 -0.000000
v 0.043514 0.002193 -0.000000
v 0.058155 0.008533 0.031698
v 0.059985 0.014873 0.028528
v 0.063645 0.014873 0.022189
v 0.065476 0.008533 0.019019
v 0.063645 0.002193 0.022189
v 0.059985 0.002193 0.028528
v 0.094757 0.008533 0.031698
v 0.092927 0.014873 0.028528
v 0.089267 0.014873 0.022189
v 0.087437 0.008533 0.019019
v 0.089267 0.002193 0.022189
v 0.092927 0.002193 0.028528
v -0.057005 0.002931 0.000000
v -0.057005 0.005732 0.005548
v -0.057005 0.011334 0.005548
v -0.057005 0.014135 -0.000000
v -0.057005 0.011334 -0.005548
v -0.057005 0.005732 -0.005548
v -0.057005 0.004331 0.002774
v -0.057005 0.008533 0.005548
v -0.057005 0.012734 0.002774
v -0.057005 0.012734 -0.002774
v -0.057005 0.004331 -0.002774
v -0.057005 0.008533 -0.005548
vt 0.859951 0.172113
vt 0.868562 0.000000
vt 0.891525 0.000000
vt 0.348083 0.760926
vt 0.348083 0.933028
vt 0.310614 0.933028
vt 0.859951 0.000000
vt 0.851340 0.172113
vt 0.828377 0.172113
vt 0.624985 0.750132
vt 0.662453 0.750132
vt 0.662453 0.922350
vt 0.503878 0.293860
vt 0.503878 0.256810
vt 0.526841 0.256810
vt 0.662453 0.246017
vt 0.662453 0.285752
vt 0.624984 0.285752
vt 0.759293 0.516041
vt 0.721824 0.516041
vt 0.721824 0.476306
vt 0.624984 0.246017
vt 0.624984 0.289831
vt 0.584800 0.289831
vt 0.480915 0.293860
vt 0.480915 0.256810
vt 0.662453 0.793946
vt 0.685416 0.750132
vt 0.937604 0.000000
vt 0.937604 0.172218
vt 0.900135 0.172218
vt 0.836872 0.809419
vt 0.836872 0.912710
vt 0.792563 0.912710
vt 0.584800 0.922245
vt 0.593411 0.750132
vt 0.616374 0.750132
vt 0.273146 0.933028
vt 0.273146 0.760926
vt 0.876077 0.912619
vt 0.853114 0.912619
vt 0.844504 0.809440
vt 0.732994 0.809419
vt 0.732994 0.912932
vt 0.688685 0.912932
vt 0.811155 0.172113
vt 0.788192 0.172113
vt 0.779581 0.000000
vt 0.740626 0.912619
vt 0.749236 0.809440
vt 0.772199 0.809440
vt 0.651492 0.296539
vt 0.675251 0.296539
vt 0.675251 0.542555
vt 0.555547 0.733115
vt 0.578496 0.733115
vt 0.578496 0.979132
vt 0.090897 0.000000
vt 0.090897 0.939611
vt 0.045118 0.939611
vt 0.068007 0.000000
vt 0.653138 0.000000
vt 0.675697 0.000000
vt 0.675697 0.246017
vt 0.606266 0.296539
vt 0.627733 0.296539
vt 0.627733 0.542555
vt 0.451857 0.733115
vt 0.474806 0.733115
vt 0.474806 0.979132
vt 0.374315 0.806193
vt 0.348083 0.805911
vt 0.348083 0.780183
vt 0.910921 0.851893
vt 0.884688 0.853850
vt 0.884688 0.829722
vt 0.374315 0.850807
vt 0.348083 0.831267
vt 0.759293 0.521691
vt 0.759293 0.476306
vt 0.785525 0.486101
vt 0.785525 0.476306
vt 0.811757 0.486101
vt 0.811757 0.511896
vt 0.910921 0.898881
vt 0.884688 0.880556
vt 0.721824 0.493295
vt 0.698538 0.533537
vt 0.675251 0.516547
vt 0.675697 0.209661
vt 0.716669 0.179767
vt 0.716669 0.204518
vt 0.737500 0.214918
vt 0.737500 0.240516
vt 0.695838 0.219716
vt 0.757641 0.250572
vt 0.716669 0.280465
vt 0.716669 0.255715
vt 0.695838 0.245315
vt 0.757641 0.200223
vt 0.675697 0.260010
vt 0.428973 0.553348
vt 0.377030 0.527667
vt 0.377030 0.296539
vt 0.831077 0.476306
vt 0.779136 0.446659
vt 0.779136 0.239098
vt 0.584800 0.733115
vt 0.532857 0.707434
vt 0.532858 0.553348
vt 0.480915 0.733115
vt 0.480915 0.553348
vt 0.428907 0.969679
vt 0.377030 0.998999
vt 0.377030 0.733115
vt 0.480915 0.296539
vt 0.480915 0.527667
vt 0.325088 0.296539
vt 0.273146 0.281712
vt 0.273146 0.014827
vt 0.740626 0.542555
vt 0.792562 0.572209
vt 0.792563 0.779786
vt 0.273146 0.553349
vt 0.325088 0.568175
vt 0.325088 0.746099
vt 0.377030 0.553349
vt 0.377030 0.760925
vt 0.480915 0.762769
vt 0.532598 0.733115
vt 0.532598 1.000000
vt 0.377030 0.281712
vt 0.325088 0.000000
vt 0.480915 0.322219
vt 0.792563 0.809419
vt 0.792563 0.542555
vt 0.844504 0.572211
vt 0.428973 0.733115
vt 0.428973 0.579029
vt 0.934895 0.239207
vt 0.986772 0.209442
vt 0.986772 0.475325
vt 0.584800 0.553348
vt 0.532858 0.296539
vt 0.377030 0.322219
vt 0.740626 0.809419
vt 0.688685 0.779772
vt 0.688685 0.572211
vt 0.675251 0.476306
vt 0.727194 0.322220
vt 0.779136 0.296539
vt 0.779136 0.476306
vt 0.948123 0.778673
vt 0.948123 0.571875
vt 1.000000 0.542555
vt 0.273146 0.322219
vt 0.325088 0.553348
vt 0.428973 0.000000
vt 0.480915 0.014827
vt 0.480915 0.281712
vt 0.896441 0.809440
vt 0.844504 0.779786
vt 0.584800 0.542555
vt 0.636742 0.557382
vt 0.636742 0.735305
vt 0.688685 0.542555
vt 0.688685 0.750132
vt 0.896441 0.572209
vt 0.948123 0.542555
vt 0.948123 0.809440
vt 0.377030 0.014827
vt 0.428973 0.296539
vt 0.532857 0.256810
vt 0.532857 0.000000
vt 0.584800 0.000000
vt 0.883018 0.476306
vt 0.831077 0.446649
vt 0.831077 0.239089
vt 0.779581 0.179767
vt 0.727639 0.179767
vt 0.727639 0.025681
vt 0.675697 0.179767
vt 0.883018 0.239207
vt 0.934895 0.209442
vt 0.934895 0.475325
vt 0.480915 0.000000
vt 0.900135 0.172113
vt 0.310614 0.760926
vt 0.819766 0.000000
vt 0.624985 0.922350
vt 0.526841 0.293860
vt 0.584800 0.246017
vt 0.685416 0.793946
vt 0.900135 0.000000
vt 0.624985 0.922245
vt 0.884688 0.809440
vt 0.688685 0.809419
vt 0.780810 0.912619
vt 0.133830 0.939611
vt 0.133830 0.000000
vt 0.157589 0.939611
vt 0.227247 0.939611
vt 0.227247 0.000000
vt 0.250196 0.939610
vt 0.045118 0.000000
vt 0.022559 0.000000
vt 0.112364 0.939611
vt 0.181349 0.939611
vt 0.181349 0.000000
vt 0.204298 0.939611
vt 0.374315 0.760926
vt 0.910921 0.809440
vt 0.785525 0.511896
vt 0.785525 0.521691
vt 0.675251 0.487931
vt 0.698538 0.476306
vt 0.721824 0.521911
vt 0.831077 0.209442
vt 0.428907 0.762881
vt 0.480915 0.970346
vt 0.934895 0.446006
vt 0.584800 0.322220
vt 0.727194 0.476306
vt 1.000000 0.808439
vt 0.896441 0.542555
vt 0.584800 0.750132
vt 0.896441 0.779786
vt 0.584800 0.231129
vt 0.883018 0.209442
vt 0.883018 0.446006
vt 0.480915 0.231129
vt 0.428907 0.979132
vt 0.428907 0.733115
vt 0.584800 0.296539
vt 0.630579 0.246017
vt 0.630579 0.000000
vt 0.607689 0.000000
vt 0.532598 0.979132
vt 0.000000 0.939611
vt 0.000000 0.000000
vt 0.273146 0.000000
vt 0.273146 0.939610
vn -0.574800 -0.592700 -0.564100
vn -0.580000 -0.561600 0.590100
vn -0.580000 0.561600 0.590100
vn 0.574800 -0.592700 -0.564100
vn 0.580000 -0.561600 0.590100
vn 0.574800 0.592700 -0.564100
vn 0.580000 0.561600 0.590100
vn -0.574800 0.592700 -0.564100
vn 0.573100 -0.602800 -0.555100
vn -0.573100 -0.602800 -0.555100
vn -0.573100 0.602800 -0.555100
vn -0.581800 -0.551000 0.598300
vn 0.581800 -0.551000 0.598300
vn 0.581800 0.551000 0.598300
vn -0.581800 0.551000 0.598300
vn 0.000000 -0.892700 0.450700
vn 0.000000 -0.524100 0.851600
vn -0.309200 -0.494000 0.812600
vn 0.000000 0.000000 1.000000
vn 0.000000 0.524100 0.851600
vn -0.309200 0.494000 0.812600
vn 0.373500 0.481900 0.792600
vn 0.359700 0.933000 0.000000
vn 0.000000 0.892700 0.450700
vn 0.000000 0.892700 -0.450700
vn 0.000000 0.524100 -0.851600
vn -0.309200 0.494000 -0.812600
vn 0.000000 -0.892700 -0.450700
vn 0.000000 -1.000000 0.000000
vn -0.293300 -0.956000 0.000000
vn 0.000000 0.000000 -1.000000
vn 0.000000 -0.524100 -0.851600
vn -0.309200 -0.494000 -0.812600
vn -0.293300 0.956000 0.000000
vn -0.842300 0.539000 0.000000
vn -0.847900 0.289600 0.444000
vn -0.842300 -0.539000 0.000000
vn -0.847900 -0.289600 -0.444000
vn -0.847900 0.289600 -0.444000
vn -0.847900 -0.289600 0.444000
vn 0.896100 0.245400 0.369800
vn 0.896100 -0.245400 0.369800
vn 0.890000 -0.455800 0.000000
vn 0.890000 0.455800 0.000000
vn 0.359700 -0.933000 0.000000
vn 0.373500 -0.481900 -0.792600
vn 0.896100 -0.245400 -0.369800
vn 0.896100 0.245400 -0.369800
vn 0.373500 -0.481900 0.792600
vn 0.373500 0.481900 -0.792600
vn 0.500000 0.000000 -0.866000
vn 0.302100 0.796800 -0.523300
vn 0.604200 0.796800 0.000000
vn -0.177800 0.934600 0.307900
vn -0.355500 0.934600 0.000000
vn -0.500000 0.000000 0.866000
vn -1.000000 0.000000 0.000000
vn -0.177800 -0.934600 0.307900
vn -0.355500 -0.934600 0.000000
vn 0.302100 -0.796800 -0.523300
vn 0.604200 -0.796800 0.000000
vn -0.500000 0.000000 -0.866000
vn -0.302100 0.796800 -0.523300
vn 0.177800 0.934600 0.307900
vn 0.500000 0.000000 0.866000
vn 0.177800 -0.934600 0.307900
vn -0.302100 -0.796800 -0.523300
vn -0.604200 0.796800 0.000000
vn 0.355500 0.934600 0.000000
vn 1.000000 0.000000 0.000000
vn 0.355500 -0.934600 0.000000
vn -0.604200 -0.796800 0.000000
vn -0.302100 0.796800 0.523300
vn 0.177800 0.934600 -0.307900
vn 0.177800 -0.934600 -0.307900
vn -0.302100 -0.796800 0.523300
vn 0.302100 0.796800 0.523300
vn -0.177800 0.934600 -0.307900
vn -0.177800 -0.934600 -0.307900
vn 0.302100 -0.796800 0.523300
vn 0.573100 0.602800 -0.555100
vn 0.000000 1.000000 0.000000
usemtl Material
s 1
f 4/1/1 3/2/2 1/3/3
f 8/4/4 7/5/5 13/6/2
f 6/7/6 5/8/7 7/9/5
f 20/10/6 2/11/8 1/12/3
f 13/13/2 7/14/5 5/15/7
f 20/16/6 9/17/4 4/18/1
f 8/19/4 12/20/1 17/21/8
f 11/22/9 10/23/10 19/24/11
f 1/13/3 3/25/2 16/26/5
f 15/27/12 14/11/13 23/28/14
f 17/29/8 24/30/3 5/31/7
f 19/32/11 22/33/15 23/34/14
f 12/35/1 13/36/2 24/37/3
f 4/6/1 9/38/4 16/39/5
f 23/40/14 14/41/13 11/42/9
f 11/43/9 14/44/13 15/45/12
f 21/46/7 16/47/5 9/48/4
f 10/49/10 15/50/12 22/51/15
f 91/52/16 86/53/17 27/54/18
f 92/55/19 87/56/20 29/57/21
f 87/58/20 30/59/22 32/60/23 93/61/24
f 94/62/25 89/63/26 33/64/27
f 95/65/28 85/66/29 25/67/30
f 96/68/31 90/69/32 35/70/33
f 31/71/34 40/72/35 39/73/36
f 25/74/30 37/75/37 42/76/38
f 31/71/34 33/77/27 41/78/39
f 27/79/18 29/80/21 39/81/36
f 35/82/33 42/83/38 41/84/39
f 25/74/30 27/85/18 38/86/40
f 37/87/37 39/88/36 40/89/35
f 32/90/23 30/91/22 45/92/41
f 44/93/42 43/94/43 46/95/44
f 26/96/45 36/97/46 48/98/47
f 32/90/23 46/95/44 47/99/48
f 28/100/49 44/93/42 45/92/41
f 34/101/50 47/99/48 48/98/47
f 26/96/45 43/94/43 44/93/42
f 55/102/51 56/103/52 50/104/53
f 56/105/52 57/106/54 51/107/55
f 57/108/54 58/109/56 52/110/57
f 58/109/56 59/111/58 53/112/59
f 59/113/58 60/114/60 54/115/61
f 54/116/61 60/117/60 55/102/51
f 61/118/62 62/119/63 56/120/52
f 62/121/63 63/122/64 57/123/54
f 63/124/64 64/125/65 58/126/56
f 64/125/65 65/127/66 59/128/58
f 65/129/66 66/130/67 60/131/60
f 66/132/67 61/118/62 55/133/51
f 67/110/57 68/112/68 62/134/63
f 62/135/63 68/136/68 69/137/69
f 69/111/69 70/138/70 64/139/65
f 64/139/65 70/138/70 71/115/71
f 71/140/71 72/141/72 66/142/67
f 72/143/72 67/110/57 61/144/62
f 73/118/56 74/145/73 68/127/68
f 74/146/73 75/147/74 69/148/69
f 69/149/69 75/53/74 76/150/51
f 76/150/51 77/151/75 71/152/71
f 71/153/71 77/154/75 78/155/76
f 78/156/76 73/118/56 67/157/57
f 79/158/65 80/159/77 74/160/73
f 80/161/77 81/162/78 75/137/74
f 81/163/78 82/164/62 76/165/51
f 82/164/62 83/166/79 77/167/75
f 83/168/79 84/169/80 78/170/76
f 84/171/80 79/158/65 73/172/56
f 79/173/65 49/174/70 50/175/53
f 50/176/53 51/177/55 81/178/78
f 51/179/55 52/180/57 82/181/62
f 52/180/57 53/182/59 83/63/79
f 53/183/59 54/184/61 84/185/80
f 54/186/61 49/174/70 79/173/65
f 2/187/8 4/1/1 1/3/3
f 12/188/1 8/4/4 13/6/2
f 8/189/4 6/7/6 7/9/5
f 21/190/7 20/10/6 1/12/3
f 24/191/3 13/13/2 5/15/7
f 2/22/8 20/16/6 4/18/1
f 6/80/6 8/19/4 17/21/8
f 18/192/81 11/22/9 19/24/11
f 21/14/7 1/13/3 16/26/5
f 22/193/15 15/27/12 23/28/14
f 6/194/6 17/29/8 5/31/7
f 18/135/81 19/32/11 23/34/14
f 17/195/8 12/35/1 24/37/3
f 3/188/2 4/6/1 16/39/5
f 18/196/81 23/40/14 11/42/9
f 10/197/10 11/43/9 15/45/12
f 20/189/6 21/46/7 9/48/4
f 19/198/11 10/49/10 22/51/15
f 85/199/29 26/200/45 91/201/16
f 86/202/17 28/203/49 92/204/19
f 88/205/82 93/61/24 32/60/23
f 88/205/82 32/60/23 94/206/25
f 90/59/32 36/58/46 95/207/28
f 89/208/26 34/209/50 96/210/31
f 29/211/21 31/71/34 39/73/36
f 35/212/33 25/74/30 42/76/38
f 40/72/35 31/71/34 41/78/39
f 38/213/40 27/79/18 39/81/36
f 33/214/27 35/82/33 41/84/39
f 37/75/37 25/74/30 38/86/40
f 41/215/39 42/216/38 37/87/37
f 37/87/37 40/89/35 41/215/39
f 37/87/37 38/217/40 39/88/36
f 46/95/44 32/90/23 45/92/41
f 46/95/44 45/92/41 44/93/42
f 48/98/47 47/99/48 46/95/44
f 46/95/44 43/94/43 48/98/47
f 43/94/43 26/96/45 48/98/47
f 34/101/50 32/90/23 47/99/48
f 30/91/22 28/100/49 45/92/41
f 36/97/46 34/101/50 48/98/47
f 28/100/49 26/96/45 44/93/42
f 49/172/70 55/102/51 50/104/53
f 50/218/53 56/105/52 51/107/55
f 51/143/55 57/108/54 52/110/57
f 52/110/57 58/109/56 53/112/59
f 53/219/59 59/113/58 54/115/61
f 49/172/70 54/116/61 55/102/51
f 55/133/51 61/118/62 56/120/52
f 56/146/52 62/121/63 57/123/54
f 57/39/54 63/124/64 58/126/56
f 58/126/56 64/125/65 59/128/58
f 59/220/58 65/129/66 60/131/60
f 60/171/60 66/132/67 55/133/51
f 61/144/62 67/110/57 62/134/63
f 63/162/64 62/135/63 69/137/69
f 63/112/64 69/111/69 64/139/65
f 65/127/66 64/139/65 71/115/71
f 65/221/66 71/140/71 66/142/67
f 66/222/67 72/143/72 61/144/62
f 67/157/57 73/118/56 68/127/68
f 68/121/68 74/146/73 69/148/69
f 70/223/70 69/149/69 76/150/51
f 70/223/70 76/150/51 71/152/71
f 72/224/72 71/153/71 78/155/76
f 72/124/72 78/156/76 67/157/57
f 73/172/56 79/158/65 74/160/73
f 74/225/73 80/161/77 75/137/74
f 75/226/74 81/163/78 76/165/51
f 76/165/51 82/164/62 77/167/75
f 77/227/75 83/168/79 78/170/76
f 78/132/76 84/171/80 73/172/56
f 80/228/77 79/173/65 50/175/53
f 80/229/77 50/176/53 81/178/78
f 81/48/78 51/179/55 82/181/62
f 82/181/62 52/180/57 83/63/79
f 83/230/79 53/183/59 84/185/80
f 84/231/80 54/186/61 79/173/65
f 33/232/27 89/233/26 96/68/31 35/70/33
f 35/163/33 90/234/32 95/65/28 25/67/30
f 31/235/34 88/236/82 94/62/25 33/64/27
f 31/235/34 29/192/21 93/237/24 88/236/82
f 27/238/18 86/130/17 92/55/19 29/57/21
f 25/67/30 85/66/29 91/52/16 27/54/18
f 34/209/50 36/203/46 90/202/32 96/210/31
f 36/58/46 26/200/45 85/199/29 95/207/28
f 32/60/23 34/239/50 89/240/26 94/206/25
f 29/192/21 87/175/20 93/237/24
f 28/203/49 30/241/22 87/242/20 92/204/19
f 26/200/45 28/209/49 86/208/17 91/201/16
