# Blender v2.75 (sub 0) OBJ File: 'untitled.blend'
# www.blender.org
mtllib Coal_Pen_1_COL.mtl
o Cube.006_Cube.011
v 0.030065 -0.003874 0.089252
v 0.030065 0.018133 0.089614
v 0.030065 -0.003791 -0.102798
v 0.030065 0.018217 -0.102435
v 0.052070 -0.003874 0.089252
v 0.052070 0.018133 0.089614
v 0.052070 -0.003791 -0.102798
v 0.052070 0.018217 -0.102435
vn -1.000000 0.000000 0.000000
vn 0.000000 0.016500 -0.999900
vn 1.000000 0.000000 0.000000
vn 0.000000 -0.016500 0.999900
vn 0.000000 -1.000000 -0.000400
vn 0.000000 1.000000 0.000400
usemtl None
s off
f 4//1 3//1 1//1
f 8//2 7//2 3//2
f 8//3 6//3 5//3
f 2//4 1//4 5//4
f 3//5 7//5 5//5
f 8//6 4//6 2//6
f 2//1 4//1 1//1
f 4//2 8//2 3//2
f 7//3 8//3 5//3
f 6//4 2//4 5//4
f 1//5 3//5 5//5
f 6//6 8//6 2//6
