#name "Gate B"
#participants 2

say 0 "You" "..."
say 2 "Jairo" "What are you doing up here?"
say 1 "You" "Jairo, [wait 0.1]how-"
say 2 "Jairo" "Get back down to ground level."
say 2 "Jairo" "You see that tower?"
say 1 "You" "...[wait 0.4]oh."
say 1 "You" "Yeah?"
say 2 "Jairo" "In there, you should be able to climb to the top floor."
say 2 "Jairo" "The gate in there will take you to the correct route."
say 1 "You" "Alright..."
say 1 "You" "How do you know this stuff?"
say 2 "Jairo" "I was borne with it."
say 1 "You" "Borne with it?"
say 1 "You" "Like, [wait 0.2]you were taught it?"
say 0 "You" "...?"
say 0 "You" "..."
say 0 "You" "He does that a lot..."
